{
  "zAttackBase": {
    "Flying": {
      "attackIndex": 0,
      "attackName": "Supersonic Skystrike",
      "attackType": "Flying",
      "attackCategory": 1,
      "basePower": 140,
      "ppBase": 0,
      "ppMax": 0,
      "accuracy": -1,
      "makesContact": false,
      "effects": [],
      "animations": [],
      "targetingInfo": {
        "hitsAll": false,
        "hitsOppositeFoe": true,
        "hitsAdjacentFoe": true,
        "hitsExtendedFoe": false,
        "hitsSelf": false,
        "hitsAdjacentAlly": true,
        "hitsExtendedAlly": false
      },
      "tmIndex": -1,
      "trIndex": -1
    }
  },
  "attackIndex": 209,
  "attackName": "Air Slash",
  "attackType": "Flying",
  "attackCategory": 1,
  "basePower": 75,
  "ppBase": 15,
  "ppMax": 24,
  "accuracy": 95,
  "makesContact": false,
  "effects": [
    {
      "effectID": "Flinch",
      "modifiers": [
        {
          "type": "ChanceModifier",
          "multiplier": 1,
          "value": 30.0
        }
      ],
      "persists": false
    }
  ],
  "animations": [
    {
      "type": "LeapForward"
    }
  ],
  "targetingInfo": {
    "hitsAll": false,
    "hitsOppositeFoe": true,
    "hitsAdjacentFoe": true,
    "hitsExtendedFoe": true,
    "hitsSelf": false,
    "hitsAdjacentAlly": true,
    "hitsExtendedAlly": true
  },
  "tutorType": "Event",
  "tmIndex": 95,
  "trIndex": -1
}