{
  "zAttackBase": {
    "Flying": {
      "attackIndex": 0,
      "attackName": "Supersonic Skystrike",
      "attackType": "Flying",
      "attackCategory": 0,
      "basePower": 160,
      "ppBase": 0,
      "ppMax": 0,
      "accuracy": -1,
      "makesContact": false,
      "effects": [],
      "animations": [],
      "targetingInfo": {
        "hitsAll": false,
        "hitsOppositeFoe": true,
        "hitsAdjacentFoe": true,
        "hitsExtendedFoe": false,
        "hitsSelf": false,
        "hitsAdjacentAlly": true,
        "hitsExtendedAlly": false
      },
      "tmIndex": -1,
      "trIndex": -1
    }
  },
  "attackIndex": 393,
  "attackName": "Bounce",
  "attackType": "Flying",
  "attackCategory": 0,
  "basePower": 85,
  "ppBase": 5,
  "ppMax": 8,
  "accuracy": 85,
  "makesContact": true,
  "effects": [
    {
      "effectID": "Fly",
      "modifiers": [],
      "persists": true
    },
    {
      "effectID": "Paralysis",
      "modifiers": [
        {
          "type": "ChanceModifier",
          "multiplier": 1,
          "value": 30.0
        }
      ],
      "persists": false
    }
  ],
  "animations": [
    {
      "type": "LeapForward"
    }
  ],
  "targetingInfo": {
    "hitsAll": false,
    "hitsOppositeFoe": true,
    "hitsAdjacentFoe": true,
    "hitsExtendedFoe": true,
    "hitsSelf": false,
    "hitsAdjacentAlly": true,
    "hitsExtendedAlly": true
  },
  "tutorType": "Regular",
  "tmIndex": 52,
  "trIndex": -1
}