{
  "zAttackBase": {
    "Normal": {
      "attackIndex": 0,
      "attackName": "Breakneck Blitz",
      "attackType": "Normal",
      "attackCategory": 0,
      "basePower": 100,
      "ppBase": 0,
      "ppMax": 0,
      "accuracy": -1,
      "makesContact": false,
      "effects": [],
      "animations": [],
      "targetingInfo": {
        "hitsAll": false,
        "hitsOppositeFoe": true,
        "hitsAdjacentFoe": true,
        "hitsExtendedFoe": false,
        "hitsSelf": false,
        "hitsAdjacentAlly": true,
        "hitsExtendedAlly": false
      },
      "tmIndex": -1,
      "trIndex": -1
    }
  },
  "attackIndex": 63,
  "attackName": "Double Slap",
  "attackType": "Normal",
  "attackCategory": 0,
  "basePower": 10,
  "ppBase": 10,
  "ppMax": 16,
  "accuracy": 85,
  "makesContact": true,
  "effects": [
    {
      "effectID": "MultipleHit",
      "count": 0,
      "targetCount": 0,
      "inProgress": false,
      "limit": 0,
      "min": 2,
      "max": 5,
      "modifiers": [],
      "persists": false
    }
  ],
  "animations": [
    {
      "type": "LeapForward"
    }
  ],
  "targetingInfo": {
    "hitsAll": false,
    "hitsOppositeFoe": true,
    "hitsAdjacentFoe": true,
    "hitsExtendedFoe": false,
    "hitsSelf": false,
    "hitsAdjacentAlly": true,
    "hitsExtendedAlly": false
  },
  "tutorType": "Event",
  "tmIndex": -1,
  "trIndex": -1
}