{
  "zAttackBase": {
    "Grass": {
      "attackIndex": 0,
      "attackName": "Bloom Doom",
      "attackType": "Grass",
      "attackCategory": 0,
      "basePower": 160,
      "ppBase": 0,
      "ppMax": 0,
      "accuracy": -1,
      "makesContact": false,
      "effects": [],
      "animations": [],
      "targetingInfo": {
        "hitsAll": false,
        "hitsOppositeFoe": true,
        "hitsAdjacentFoe": true,
        "hitsExtendedFoe": false,
        "hitsSelf": false,
        "hitsAdjacentAlly": true,
        "hitsExtendedAlly": false
      },
      "tmIndex": -1,
      "trIndex": -1
    }
  },
  "attackIndex": 717,
  "attackName": "Grav Apple",
  "attackType": "Grass",
  "attackCategory": 0,
  "basePower": 80,
  "ppBase": 10,
  "ppMax": 16,
  "accuracy": 100,
  "makesContact": false,
  "effects": [
    {
      "effectID": "StatsEffect",
      "type": "Defence",
      "isUser": false,
      "value": -1,
      "modifiers": [],
      "persists": false
    },
    {
      "effectID": "GravApple",
      "modifiers": [],
      "persists": false
    }
  ],
  "animations": [
    {
      "type": "LeapForward"
    }
  ],
  "targetingInfo": {
    "hitsAll": false,
    "hitsOppositeFoe": true,
    "hitsAdjacentFoe": true,
    "hitsExtendedFoe": false,
    "hitsSelf": false,
    "hitsAdjacentAlly": true,
    "hitsExtendedAlly": false
  },
  "tutorType": "None",
  "tmIndex": -1,
  "trIndex": -1
}