{
  "zAttackBase": {
    "Bug": {
      "attackIndex": 0,
      "attackName": "Savage Spin-Out",
      "attackType": "Bug",
      "attackCategory": 0,
      "basePower": 160,
      "ppBase": 0,
      "ppMax": 0,
      "accuracy": -1,
      "makesContact": false,
      "effects": [],
      "animations": [],
      "targetingInfo": {
        "hitsAll": false,
        "hitsOppositeFoe": true,
        "hitsAdjacentFoe": true,
        "hitsExtendedFoe": false,
        "hitsSelf": false,
        "hitsAdjacentAlly": true,
        "hitsExtendedAlly": false
      },
      "tmIndex": -1,
      "trIndex": -1
    }
  },
  "attackIndex": 173,
  "attackName": "Leech Life",
  "attackType": "Bug",
  "attackCategory": 0,
  "basePower": 80,
  "ppBase": 10,
  "ppMax": 16,
  "accuracy": 100,
  "makesContact": true,
  "effects": [
    {
      "effectID": "Drain",
      "drainPercent": 50,
      "modifiers": [],
      "persists": false
    }
  ],
  "animations": [
    {
      "type": "LeapForward"
    }
  ],
  "targetingInfo": {
    "hitsAll": false,
    "hitsOppositeFoe": true,
    "hitsAdjacentFoe": true,
    "hitsExtendedFoe": false,
    "hitsSelf": false,
    "hitsAdjacentAlly": true,
    "hitsExtendedAlly": false
  },
  "tutorType": "None",
  "tmIndex": -1,
  "trIndex": 18
}