{
  "zAttackBase": {
    "Normal": {
      "zeffect": {
        "type": "RaiseStats",
        "stats": [
          "Evasion"
        ],
        "value": [
          1
        ]
      },
      "attackIndex": 0,
      "attackName": "Z-Lucky Chant",
      "attackType": "Normal",
      "attackCategory": 2,
      "basePower": 0,
      "ppBase": 0,
      "ppMax": 0,
      "accuracy": -1,
      "makesContact": false,
      "effects": [
        {
          "effectID": "LuckyChant",
          "modifiers": [],
          "persists": false
        }
      ],
      "animations": [
        {
          "type": "LeapForward"
        }
      ],
      "targetingInfo": {
        "hitsAll": true,
        "hitsOppositeFoe": false,
        "hitsAdjacentFoe": false,
        "hitsExtendedFoe": false,
        "hitsSelf": true,
        "hitsAdjacentAlly": true,
        "hitsExtendedAlly": true
      },
      "tmIndex": -1,
      "trIndex": -1
    }
  },
  "attackIndex": 273,
  "attackName": "Lucky Chant",
  "attackType": "Normal",
  "attackCategory": 2,
  "basePower": 0,
  "ppBase": 30,
  "ppMax": 48,
  "accuracy": -1,
  "makesContact": false,
  "effects": [
    {
      "effectID": "LuckyChant",
      "modifiers": [],
      "persists": false
    }
  ],
  "animations": [
    {
      "type": "LeapForward"
    }
  ],
  "targetingInfo": {
    "hitsAll": true,
    "hitsOppositeFoe": false,
    "hitsAdjacentFoe": false,
    "hitsExtendedFoe": false,
    "hitsSelf": true,
    "hitsAdjacentAlly": true,
    "hitsExtendedAlly": true
  },
  "tutorType": "None",
  "tmIndex": -1,
  "trIndex": -1
}