{
  "attackIndex": 713,
  "attackName": "No Retreat",
  "attackType": "Fighting",
  "attackCategory": 2,
  "basePower": 0,
  "ppBase": 5,
  "ppMax": 8,
  "accuracy": 100,
  "makesContact": false,
  "effects": [
    {
      "effectID": "NoRetreat",
      "modifiers": [],
      "persists": false
    }
  ],
  "animations": [
    {
      "type": "LeapForward"
    }
  ],
  "targetingInfo": {
    "hitsAll": false,
    "hitsOppositeFoe": false,
    "hitsAdjacentFoe": false,
    "hitsExtendedFoe": false,
    "hitsSelf": true,
    "hitsAdjacentAlly": false,
    "hitsExtendedAlly": false
  },
  "tutorType": "None",
  "tmIndex": -1,
  "trIndex": -1
}