{
  "zAttackBase": {
    "Psychic": {
      "zeffect": {
        "type": "RaiseStats",
        "stats": [
          "Speed"
        ],
        "value": [
          1
        ]
      },
      "attackIndex": 0,
      "attackName": "Z-Power Swap",
      "attackType": "Psychic",
      "attackCategory": 2,
      "basePower": 0,
      "ppBase": 0,
      "ppMax": 0,
      "accuracy": -1,
      "makesContact": false,
      "effects": [
        {
          "effectID": "PowerSwap",
          "langString": "pixelmon.effect.powerswap",
          "swapStats": [
            "Attack",
            "SpecialAttack"
          ],
          "modifiers": [],
          "persists": false
        }
      ],
      "animations": [
        {
          "type": "LeapForward"
        }
      ],
      "targetingInfo": {
        "hitsAll": false,
        "hitsOppositeFoe": true,
        "hitsAdjacentFoe": true,
        "hitsExtendedFoe": false,
        "hitsSelf": false,
        "hitsAdjacentAlly": true,
        "hitsExtendedAlly": false
      },
      "tmIndex": -1,
      "trIndex": -1
    }
  },
  "attackIndex": 424,
  "attackName": "Power Swap",
  "attackType": "Psychic",
  "attackCategory": 2,
  "basePower": 0,
  "ppBase": 10,
  "ppMax": 16,
  "accuracy": -1,
  "makesContact": false,
  "effects": [
    {
      "effectID": "PowerSwap",
      "langString": "pixelmon.effect.powerswap",
      "swapStats": [
        "Attack",
        "SpecialAttack"
      ],
      "modifiers": [],
      "persists": false
    }
  ],
  "animations": [
    {
      "type": "LeapForward"
    }
  ],
  "targetingInfo": {
    "hitsAll": false,
    "hitsOppositeFoe": true,
    "hitsAdjacentFoe": true,
    "hitsExtendedFoe": false,
    "hitsSelf": false,
    "hitsAdjacentAlly": true,
    "hitsExtendedAlly": false
  },
  "tutorType": "None",
  "tmIndex": 60,
  "trIndex": -1
}