{
  "zAttackBase": {
    "Electric": {
      "attackIndex": 0,
      "attackName": "Gigavolt Havoc",
      "attackType": "Electric",
      "attackCategory": 0,
      "basePower": 120,
      "ppBase": 0,
      "ppMax": 0,
      "accuracy": -1,
      "makesContact": false,
      "effects": [],
      "animations": [],
      "targetingInfo": {
        "hitsAll": false,
        "hitsOppositeFoe": true,
        "hitsAdjacentFoe": true,
        "hitsExtendedFoe": false,
        "hitsSelf": false,
        "hitsAdjacentAlly": true,
        "hitsExtendedAlly": false
      },
      "tmIndex": -1,
      "trIndex": -1
    }
  },
  "attackIndex": 301,
  "attackName": "Spark",
  "attackType": "Electric",
  "attackCategory": 0,
  "basePower": 65,
  "ppBase": 20,
  "ppMax": 32,
  "accuracy": 100,
  "makesContact": true,
  "effects": [
    {
      "effectID": "Paralysis",
      "modifiers": [
        {
          "type": "ChanceModifier",
          "multiplier": 1,
          "value": 30.0
        }
      ],
      "persists": false
    }
  ],
  "animations": [
    {
      "type": "LeapForward"
    }
  ],
  "targetingInfo": {
    "hitsAll": false,
    "hitsOppositeFoe": true,
    "hitsAdjacentFoe": true,
    "hitsExtendedFoe": false,
    "hitsSelf": false,
    "hitsAdjacentAlly": true,
    "hitsExtendedAlly": false
  },
  "tutorType": "None",
  "tmIndex": -1,
  "trIndex": -1
}