{
  "zAttackBase": {
    "Rock": {
      "zeffect": {
        "type": "RaiseStats",
        "stats": [
          "Defence"
        ],
        "value": [
          1
        ]
      },
      "attackIndex": 0,
      "attackName": "Z-Stealth Rock",
      "attackType": "Rock",
      "attackCategory": 2,
      "basePower": 0,
      "ppBase": 0,
      "ppMax": 0,
      "accuracy": -1,
      "makesContact": false,
      "effects": [
        {
          "effectID": "StealthRock",
          "modifiers": [],
          "persists": false
        }
      ],
      "animations": [
        {
          "type": "LeapForward"
        }
      ],
      "targetingInfo": {
        "hitsAll": true,
        "hitsOppositeFoe": true,
        "hitsAdjacentFoe": true,
        "hitsExtendedFoe": true,
        "hitsSelf": false,
        "hitsAdjacentAlly": false,
        "hitsExtendedAlly": false
      },
      "tmIndex": -1,
      "trIndex": -1
    }
  },
  "attackIndex": 285,
  "attackName": "Stealth Rock",
  "attackType": "Rock",
  "attackCategory": 2,
  "basePower": 0,
  "ppBase": 20,
  "ppMax": 32,
  "accuracy": -1,
  "makesContact": false,
  "effects": [
    {
      "effectID": "StealthRock",
      "modifiers": [],
      "persists": false
    }
  ],
  "animations": [
    {
      "type": "LeapForward"
    }
  ],
  "targetingInfo": {
    "hitsAll": true,
    "hitsOppositeFoe": true,
    "hitsAdjacentFoe": true,
    "hitsExtendedFoe": true,
    "hitsSelf": false,
    "hitsAdjacentAlly": false,
    "hitsExtendedAlly": false
  },
  "tutorType": "None",
  "tmIndex": -1,
  "trIndex": 76
}