{
  "zAttackBase": {},
  "attackIndex": 193,
  "attackName": "Struggle",
  "attackType": "Mystery",
  "attackCategory": 0,
  "basePower": 50,
  "ppBase": 0,
  "ppMax": 0,
  "accuracy": -1,
  "makesContact": true,
  "effects": [
    {
      "effectID": "Struggle",
      "modifiers": [],
      "persists": false
    }
  ],
  "animations": [
    {
      "type": "LeapForward"
    }
  ],
  "targetingInfo": {
    "hitsAll": false,
    "hitsOppositeFoe": true,
    "hitsAdjacentFoe": true,
    "hitsExtendedFoe": false,
    "hitsSelf": false,
    "hitsAdjacentAlly": false,
    "hitsExtendedAlly": false
  },
  "tutorType": "None",
  "tmIndex": -1,
  "trIndex": -1
}