{
  "zAttackBase": {
    "Ice": {
      "attackIndex": 0,
      "attackName": "Subzero Slammer",
      "attackType": "Ice",
      "attackCategory": 0,
      "basePower": 100,
      "ppBase": 0,
      "ppMax": 0,
      "accuracy": -1,
      "makesContact": false,
      "effects": [],
      "animations": [],
      "targetingInfo": {
        "hitsAll": false,
        "hitsOppositeFoe": true,
        "hitsAdjacentFoe": true,
        "hitsExtendedFoe": false,
        "hitsSelf": false,
        "hitsAdjacentAlly": true,
        "hitsExtendedAlly": false
      },
      "tmIndex": -1,
      "trIndex": -1
    }
  },
  "attackIndex": 690,
  "attackName": "Triple Axel",
  "attackType": "Ice",
  "attackCategory": 0,
  "basePower": 20,
  "ppBase": 10,
  "ppMax": 16,
  "accuracy": 90,
  "makesContact": true,
  "effects": [
    {
      "effectID": "TripleKick",
      "modifiers": [],
      "persists": false
    }
  ],
  "animations": [
    {
      "type": "LeapForward"
    }
  ],
  "targetingInfo": {
    "hitsAll": false,
    "hitsOppositeFoe": true,
    "hitsAdjacentFoe": true,
    "hitsExtendedFoe": false,
    "hitsSelf": false,
    "hitsAdjacentAlly": true,
    "hitsExtendedAlly": false
  },
  "tutorType": "Regular",
  "tmIndex": -1,
  "trIndex": -1
}