{
  "zAttackBase": {
    "Normal": {
      "attackIndex": 0,
      "attackName": "Breakneck Blitz",
      "attackType": "Normal",
      "attackCategory": 1,
      "basePower": 160,
      "ppBase": 0,
      "ppMax": 0,
      "accuracy": -1,
      "makesContact": false,
      "effects": [
        {
          "effectID": "WeatherBall",
          "modifiers": [],
          "persists": false
        }
      ],
      "animations": [],
      "targetingInfo": {
        "hitsAll": false,
        "hitsOppositeFoe": true,
        "hitsAdjacentFoe": true,
        "hitsExtendedFoe": false,
        "hitsSelf": false,
        "hitsAdjacentAlly": true,
        "hitsExtendedAlly": false
      },
      "tmIndex": -1,
      "trIndex": -1
    }
  },
  "attackIndex": 371,
  "attackName": "Weather Ball",
  "attackType": "Normal",
  "attackCategory": 1,
  "basePower": 50,
  "ppBase": 10,
  "ppMax": 16,
  "accuracy": 100,
  "makesContact": false,
  "effects": [
    {
      "effectID": "WeatherBall",
      "modifiers": [],
      "persists": false
    }
  ],
  "animations": [
    {
      "type": "LeapForward"
    }
  ],
  "targetingInfo": {
    "hitsAll": false,
    "hitsOppositeFoe": true,
    "hitsAdjacentFoe": true,
    "hitsExtendedFoe": false,
    "hitsSelf": false,
    "hitsAdjacentAlly": true,
    "hitsExtendedAlly": false
  },
  "tutorType": "Event",
  "tmIndex": 46,
  "trIndex": -1
}