{
  "zAttackBase": {
    "Electric": {
      "attackIndex": 0,
      "attackName": "Gigavolt Havoc",
      "attackType": "Electric",
      "attackCategory": 0,
      "basePower": 175,
      "ppBase": 0,
      "ppMax": 0,
      "accuracy": -1,
      "makesContact": false,
      "effects": [],
      "animations": [],
      "targetingInfo": {
        "hitsAll": false,
        "hitsOppositeFoe": true,
        "hitsAdjacentFoe": true,
        "hitsExtendedFoe": false,
        "hitsSelf": false,
        "hitsAdjacentAlly": true,
        "hitsExtendedAlly": false
      },
      "tmIndex": -1,
      "trIndex": -1
    }
  },
  "attackIndex": 263,
  "attackName": "Wild Charge",
  "attackType": "Electric",
  "attackCategory": 0,
  "basePower": 90,
  "ppBase": 15,
  "ppMax": 24,
  "accuracy": 100,
  "makesContact": false,
  "effects": [
    {
      "effectID": "Recoil",
      "recoil": 25,
      "modifiers": [],
      "persists": false
    }
  ],
  "animations": [
    {
      "type": "LeapForward"
    }
  ],
  "targetingInfo": {
    "hitsAll": false,
    "hitsOppositeFoe": true,
    "hitsAdjacentFoe": true,
    "hitsExtendedFoe": false,
    "hitsSelf": false,
    "hitsAdjacentAlly": true,
    "hitsExtendedAlly": false
  },
  "tutorType": "None",
  "tmIndex": -1,
  "trIndex": 86
}