{
  "pixelmonName": "Arcanine",
  "spDef": 80,
  "spAtt": 95,
  "speed": 90,
  "defence": 80,
  "attack": 115,
  "hp": 95,
  "catchRate": 75,
  "malePercent": 75,
  "nationalPokedexNumber": 59,
  "spawnLevel": 25,
  "spawnLevelRange": 25,
  "baseExp": 213,
  "baseFriendship": 50,
  "rarity": {
    "day": 0,
    "dawndusk": 0,
    "night": 0
  },
  "type1": "Fire",
  "type2": "Rock",
  "height": 2.0,
  "width": 0.55,
  "length": 1.4,
  "giScale": 1.0,
  "canFly": false,
  "isRideable": true,
  "preEvolutions": [
    "Growlithe"
  ],
  "experienceGroup": "Slow",
  "aggression": {
    "timid": 80,
    "passive": 0,
    "aggressive": 20
  },
  "spawnLocations": [
    "Land"
  ],
  "biomeIDs": [
    35,
    36,
    163,
    164
  ],
  "evGain": {
    "HP": 0,
    "Attack": 2,
    "Defence": 0,
    "SpecialAttack": 0,
    "SpecialDefence": 0,
    "Speed": 0
  },
  "canSurf": false,
  "ridingOffsets": {
    "standing": {
      "x": 0.0,
      "y": -1.0,
      "z": -0.45
    }
  },
  "maxGroupSize": 1,
  "minGroupSize": 1,
  "hoverHeight": 0.0,
  "doesHover": false,
  "id": 59,
  "baseFormID": 59,
  "weight": 168.0,
  "pokemon": "Arcanine",
  "abilities": [
    "Intimidate",
    "FlashFire",
    "Justified"
  ],
  "eggGroups": [
    "Field"
  ],
  "eggCycles": 21,
  "form": 11,
  "evolutionDefs": [],
  "moves": {
    "levelMoves": {
      "1": [
        "Tackle"
      ],
      "5": [
        "Ember"
      ],
      "9": [
        "Bite"
      ],
      "15": [
        "Fire Fang"
      ],
      "21": [
        "Rock Slide"
      ],
      "29": [
        "Crunch"
      ],
      "37": [
        "Double-Edge"
      ],
      "47": [
        "Flare Blitz"
      ]
    },
    "alphaMoves": [
      "Fire Fang",
      "Thunder Fang",
      "Rock Smash",
      "Bulldoze",
      "Aerial Ace",
      "Swift",
      "Rest",
      "Rock Slide",
      "Iron Head",
      "Iron Tail",
      "Snarl",
      "Giga Impact",
      "Wild Charge",
      "Stone Edge",
      "Outrage",
      "Play Rough",
      "Hyper Beam",
      "Flamethrower"
    ],
    "eggMoves": [],
    "evolutionMoves": [],
    "tmTRMoves": [],
    "tutorMoves": {
      "Regular": [
        "Fire Fang",
        "Thunder Fang",
        "Rock Smash",
        "Bulldoze",
        "Aerial Ace",
        "Swift",
        "Rest",
        "Rock Slide",
        "Iron Head",
        "Iron Tail",
        "Snarl",
        "Giga Impact",
        "Wild Charge",
        "Stone Edge",
        "Outrage",
        "Play Rough",
        "Hyper Beam",
        "Flamethrower"
      ]
    }
  }
}