{
  "pixelmonName": "Avalugg",
  "spDef": 46,
  "spAtt": 44,
  "speed": 28,
  "defence": 184,
  "attack": 117,
  "hp": 95,
  "catchRate": 55,
  "malePercent": 50,
  "nationalPokedexNumber": 713,
  "spawnLevel": 40,
  "spawnLevelRange": 20,
  "baseExp": 180,
  "baseFriendship": 0,
  "rarity": {
    "day": 40,
    "dawndusk": 0,
    "night": 0
  },
  "type1": "Ice",
  "height": 2.0,
  "width": 2.0,
  "length": 2.0,
  "giScale": 1.0,
  "canFly": false,
  "isRideable": false,
  "preEvolutions": [
    "Bergmite"
  ],
  "experienceGroup": "MediumFast",
  "aggression": {
    "timid": 80,
    "passive": 0,
    "aggressive": 20
  },
  "spawnLocations": [
    "Land"
  ],
  "biomeIDs": [
    13
  ],
  "evGain": {
    "HP": 0,
    "Attack": 0,
    "Defence": 2,
    "SpecialAttack": 0,
    "SpecialDefence": 0,
    "Speed": 0
  },
  "canSurf": false,
  "maxGroupSize": 1,
  "minGroupSize": 1,
  "hoverHeight": 0.0,
  "doesHover": false,
  "id": 729,
  "baseFormID": 729,
  "weight": 505.0,
  "pokemon": "Avalugg",
  "abilities": [
    "OwnTempo",
    "IceBody",
    "Sturdy"
  ],
  "eggGroups": [
    "Monster",
    "Mineral"
  ],
  "eggCycles": 21,
  "form": -1,
  "evolutionDefs": [],
  "moves": {
    "levelMoves": {
      "1": [
        "Tackle",
        "Rapid Spin",
        "Wide Guard",
        "Powder Snow",
        "Body Slam",
        "Harden"
      ],
      "33": [
        "Crunch"
      ],
      "36": [
        "Take Down"
      ],
      "9": [
        "Curse"
      ],
      "41": [
        "Blizzard"
      ],
      "12": [
        "Icy Wind"
      ],
      "46": [
        "Double-Edge"
      ],
      "15": [
        "Protect"
      ],
      "18": [
        "Avalanche"
      ],
      "51": [
        "Skull Bash"
      ],
      "21": [
        "Bite"
      ],
      "24": [
        "Ice Fang"
      ],
      "27": [
        "Iron Defense"
      ],
      "30": [
        "Recover"
      ]
    },
    "eggMoves": [
      "Aurora Veil",
      "Mirror Coat",
      "Mist"
    ],
    "evolutionMoves": [
      "Body Slam"
    ],
    "tmTRMoves": [
      "Snore",
      "Facade",
      "Icicle Spear",
      "Heavy Slam",
      "Stone Edge",
      "Stomping Tantrum",
      "Icy Wind",
      "Iron Head",
      "Surf",
      "Rest",
      "Earthquake",
      "Ice Fang",
      "Rock Slide",
      "Hydro Pump",
      "Round",
      "Body Slam",
      "Bulldoze",
      "Iron Defense",
      "Substitute",
      "Superpower",
      "Attract",
      "Hail",
      "Ice Beam",
      "Giga Impact",
      "Crunch",
      "Body Press",
      "Safeguard",
      "Protect",
      "Rain Dance",
      "High Horsepower",
      "Hyper Beam",
      "Gyro Ball",
      "Flash Cannon",
      "Avalanche",
      "Rock Tomb",
      "Endure",
      "Sleep Talk",
      "Blizzard"
    ],
    "tutorMoves": {
      "Transfer": [
        "Rock Smash",
        "After You",
        "Secret Power",
        "Confide",
        "Frost Breath",
        "Hidden Power",
        "Water Pulse",
        "Block",
        "Double Team",
        "Toxic",
        "Barrier",
        "Ice Ball",
        "Swagger",
        "Sharpen",
        "Flash",
        "Return",
        "Roar",
        "Rock Polish",
        "Strength",
        "Frustration"
      ]
    }
  }
}