{
  "pixelmonName": "Azurill",
  "spDef": 40,
  "spAtt": 20,
  "speed": 20,
  "defence": 40,
  "attack": 20,
  "hp": 50,
  "catchRate": 150,
  "malePercent": 25,
  "nationalPokedexNumber": 298,
  "spawnLevel": 5,
  "spawnLevelRange": 3,
  "baseExp": 38,
  "baseFriendship": 70,
  "rarity": {
    "day": 50,
    "dawndusk": 0,
    "night": 0
  },
  "type1": "Normal",
  "type2": "Fairy",
  "height": 0.2,
  "width": 0.2,
  "length": 0.2,
  "giScale": 1.0,
  "canFly": false,
  "isRideable": false,
  "preEvolutions": [],
  "experienceGroup": "Fast",
  "aggression": {
    "timid": 80,
    "passive": 0,
    "aggressive": 20
  },
  "spawnLocations": [
    "Land"
  ],
  "biomeIDs": [
    0,
    16,
    7,
    24
  ],
  "evGain": {
    "HP": 1,
    "Attack": 0,
    "Defence": 0,
    "SpecialAttack": 0,
    "SpecialDefence": 0,
    "Speed": 0
  },
  "canSurf": false,
  "maxGroupSize": 1,
  "minGroupSize": 1,
  "hoverHeight": 0.0,
  "doesHover": false,
  "id": 404,
  "baseFormID": 404,
  "weight": 2.0,
  "pokemon": "Azurill",
  "abilities": [
    "ThickFat",
    "HugePower",
    "SapSipper"
  ],
  "eggGroups": [
    "Undiscovered"
  ],
  "eggCycles": 11,
  "form": -1,
  "evolutionDefs": [
    {
      "targetId": 189,
      "evolveCondition": "Friendship:Marill"
    }
  ],
  "moves": {
    "levelMoves": {
      "1": [
        "Water Gun",
        "Tail Whip",
        "Splash"
      ],
      "3": [
        "Helping Hand"
      ],
      "6": [
        "Bubble Beam"
      ],
      "9": [
        "Charm"
      ],
      "12": [
        "Slam"
      ],
      "15": [
        "Bounce"
      ]
    },
    "eggMoves": [
      "Perish Song",
      "Soak",
      "Supersonic",
      "Sing",
      "Present",
      "Tickle",
      "Belly Drum",
      "Aqua Jet",
      "Copycat"
    ],
    "evolutionMoves": [],
    "tmTRMoves": [
      "Snore",
      "Facade",
      "Uproar",
      "Waterfall",
      "Light Screen",
      "Icy Wind",
      "Surf",
      "Rest",
      "Encore",
      "Iron Tail",
      "Work Up",
      "Charm",
      "Round",
      "Body Slam",
      "Bounce",
      "Mud Shot",
      "Substitute",
      "Attract",
      "Hail",
      "Ice Beam",
      "Hyper Voice",
      "Helping Hand",
      "Protect",
      "Rain Dance",
      "Fake Tears",
      "Scald",
      "Brutal Swing",
      "Endure",
      "Sleep Talk",
      "Whirlpool",
      "Muddy Water",
      "Draining Kiss",
      "Blizzard"
    ],
    "tutorMoves": {
      "Transfer": [
        "Secret Power",
        "Natural Gift",
        "Confide",
        "Bubble",
        "Camouflage",
        "Double-Edge",
        "Hidden Power",
        "Water Sport",
        "Water Pulse",
        "Double Team",
        "Swift",
        "Mud-Slap",
        "Toxic",
        "Headbutt",
        "Refresh",
        "Swagger",
        "Defense Curl",
        "Rollout",
        "Return",
        "Mimic",
        "Captivate",
        "Knock Off",
        "Covet",
        "Frustration"
      ]
    }
  }
}