{
  "pixelmonName": "Basculegion",
  "spDef": 75,
  "spAtt": 80,
  "speed": 78,
  "defence": 65,
  "attack": 112,
  "hp": 120,
  "catchRate": 135,
  "malePercent": 100,
  "nationalPokedexNumber": 902,
  "spawnLevel": 40,
  "spawnLevelRange": 12,
  "baseExp": 172,
  "baseFriendship": 5,
  "rarity": {
    "day": 0,
    "dawndusk": 0,
    "night": 1
  },
  "type1": "Water",
  "type2": "Ghost",
  "height": 3.0,
  "width": 1.0,
  "length": 1.0,
  "giScale": 1.0,
  "canFly": false,
  "isRideable": true,
  "preEvolutions": [
    "Basculin"
  ],
  "experienceGroup": "MediumFast",
  "aggression": {
    "timid": 80,
    "passive": 0,
    "aggressive": 20
  },
  "swimmingParameters": {
    "depthRangeStart": 10,
    "depthRangeEnd": 100,
    "swimSpeed": 5.0,
    "decayRate": 0.99,
    "refreshRate": 100
  },
  "spawnLocations": [
    "Water"
  ],
  "biomeIDs": [
    0,
    24
  ],
  "evGain": {
    "HP": 2,
    "Attack": 0,
    "Defence": 0,
    "SpecialAttack": 0,
    "SpecialDefence": 0,
    "Speed": 0
  },
  "canSurf": true,
  "maxGroupSize": 1,
  "minGroupSize": 1,
  "hoverHeight": 0.0,
  "doesHover": false,
  "id": 1240,
  "baseFormID": 1240,
  "weight": 110.0,
  "pokemon": "Basculegion",
  "abilities": [
    "Rattled",
    "Adaptability",
    "Mold Breaker"
  ],
  "eggGroups": [
    "Water2"
  ],
  "eggCycles": 6,
  "form": -1,
  "evolutionDefs": [],
  "moves": {
    "levelMoves": {
      "1": [
        "Tackle"
      ],
      "6": [
        "Aqua Jet"
      ],
      "11": [
        "Bite",
        "Hex"
      ],
      "18": [
        "Zen Headbutt"
      ],
      "25": [
        "Crunch",
        "Shadow Ball"
      ],
      "43": [
        "Double-Edge"
      ]
    },
    "alphaMoves": [
      "Ice Fang",
      "Swift",
      "Ominous Wind",
      "Calm Mind",
      "Rest",
      "Zen Headbutt",
      "Water Pulse",
      "Icy Wind",
      "Shadow Ball",
      "Giga Impact",
      "Aqua Tail",
      "Hyper Beam",
      "Ice Beam",
      "Psychic"
    ],
    "eggMoves": [],
    "evolutionMoves": [],
    "tmTRMoves": [],
    "tutorMoves": {
      "Regular": [
        "Ice Fang",
        "Swift",
        "Ominous Wind",
        "Calm Mind",
        "Rest",
        "Zen Headbutt",
        "Water Pulse",
        "Icy Wind",
        "Shadow Ball",
        "Giga Impact",
        "Aqua Tail",
        "Hyper Beam",
        "Ice Beam",
        "Psychic"
      ]
    }
  }
}