{
  "pixelmonName": "Burmy",
  "spDef": 45,
  "spAtt": 29,
  "speed": 36,
  "defence": 45,
  "attack": 29,
  "hp": 40,
  "catchRate": 120,
  "malePercent": 50,
  "nationalPokedexNumber": 412,
  "spawnLevel": 5,
  "spawnLevelRange": 15,
  "baseExp": 45,
  "baseFriendship": 70,
  "rarity": {
    "day": 0,
    "dawndusk": 100,
    "night": 0
  },
  "type1": "Bug",
  "height": 0.2,
  "width": 0.7,
  "length": 0.7,
  "giScale": 1.0,
  "canFly": false,
  "isRideable": false,
  "preEvolutions": [],
  "experienceGroup": "MediumFast",
  "aggression": {
    "timid": 80,
    "passive": 0,
    "aggressive": 20
  },
  "spawnLocations": [
    "Land"
  ],
  "biomeIDs": [
    4,
    18,
    29,
    129,
    132,
    157
  ],
  "evGain": {
    "HP": 0,
    "Attack": 0,
    "Defence": 0,
    "SpecialAttack": 0,
    "SpecialDefence": 1,
    "Speed": 0
  },
  "canSurf": false,
  "maxGroupSize": 1,
  "minGroupSize": 1,
  "hoverHeight": 1.0,
  "doesHover": true,
  "id": 495,
  "baseFormID": 495,
  "weight": 3.4,
  "pokemon": "Burmy",
  "abilities": [
    "ShedSkin",
    null,
    "Overcoat"
  ],
  "eggGroups": [
    "Bug"
  ],
  "eggCycles": 16,
  "form": -1,
  "evolutionDefs": [
    {
      "targetId": 0,
      "formTo": -1,
      "evolveCondition": "Burmy"
    }
  ],
  "moves": {
    "levelMoves": {
      "1": [
        "Protect"
      ],
      "20": [
        "Hidden Power"
      ],
      "10": [
        "Tackle"
      ],
      "15": [
        "Bug Bite"
      ]
    },
	"alphaMoves":[],
    "eggMoves": [
      "Snore",
      "Bug Bite",
      "Electroweb"
    ],
    "evolutionMoves": [],
    "tmTRMoves": [
      "Electroweb"
    ],
    "tutorMoves": {
      "Regular": [
        "Snore",
        "Bug Bite",
        "Electroweb"
      ],
      "Transfer": [
        "String Shot"
      ]
    }
  }
}