{
  "pixelmonName": "Butterfree",
  "spDef": 80,
  "spAtt": 90,
  "speed": 70,
  "defence": 50,
  "attack": 45,
  "hp": 60,
  "catchRate": 45,
  "malePercent": 50,
  "nationalPokedexNumber": 12,
  "spawnLevel": 10,
  "spawnLevelRange": 40,
  "baseExp": 173,
  "baseFriendship": 70,
  "rarity": {
    "day": 50,
    "dawndusk": 50,
    "night": 0
  },
  "type1": "Bug",
  "type2": "Flying",
  "height": 1.1,
  "width": 0.6,
  "length": 0.4,
  "giScale": 1.0,
  "canFly": true,
  "isRideable": false,
  "preEvolutions": [
    "Metapod",
    "Caterpie"
  ],
  "experienceGroup": "MediumFast",
  "aggression": {
    "timid": 80,
    "passive": 0,
    "aggressive": 20
  },
  "flyingParameters": {
    "flyHeightMin": 0,
    "flyHeightMax": 10,
    "flySpeedModifier": 1.0,
    "flyRefreshRateY": 80,
    "flyRefreshRateXZ": 300,
    "flyRefreshRateSpeed": 100,
    "flightTimeMin": 0,
    "flightTimeMax": 20,
    "flapRate": 5,
    "landingMaterial": "Leaves"
  },
  "spawnLocations": [
    "Land"
  ],
  "biomeIDs": [
    4,
    18,
    129,
    132
  ],
  "evGain": {
    "HP": 0,
    "Attack": 0,
    "Defence": 0,
    "SpecialAttack": 2,
    "SpecialDefence": 1,
    "Speed": 0
  },
  "canSurf": false,
  "maxGroupSize": 1,
  "minGroupSize": 1,
  "hoverHeight": 0.0,
  "doesHover": false,
  "id": 134,
  "baseFormID": 134,
  "weight": 32.0,
  "pokemon": "Butterfree",
  "abilities": [
    "CompoundEyes",
    null,
    "TintedLens"
  ],
  "eggGroups": [
    "Bug"
  ],
  "eggCycles": 11,
  "form": -1,
  "evolutionDefs": [],
  "moves": {
    "levelMoves": {
      "16": [
        "Psybeam"
      ],
      "32": [
        "Bug Buzz"
      ],
      "1": [
        "Tackle",
        "String Shot",
        "Bug Bite",
        "Gust",
        "Harden"
      ],
      "4": [
        "Supersonic"
      ],
      "20": [
        "Whirlwind"
      ],
      "36": [
        "Tailwind"
      ],
      "8": [
        "Confusion"
      ],
      "24": [
        "Air Slash"
      ],
      "40": [
        "Rage Powder"
      ],
      "12": [
        "Poison Powder",
        "Stun Spore",
        "Sleep Powder"
      ],
      "28": [
        "Safeguard"
      ],
      "44": [
        "Quiver Dance"
      ]
    },
    "eggMoves": [
      "Dual Wingbeat"
    ],
    "evolutionMoves": [
      "Gust"
    ],
    "tmTRMoves": [
      "Giga Drain",
      "Snore",
      "Facade",
      "Air Slash",
      "U-turn",
      "Solar Beam",
      "Rest",
      "Bug Buzz",
      "Round",
      "Shadow Ball",
      "Iron Defense",
      "Substitute",
      "Hurricane",
      "Pollen Puff",
      "Acrobatics",
      "Attract",
      "Electroweb",
      "Skill Swap",
      "Giga Impact",
      "Energy Ball",
      "Safeguard",
      "Protect",
      "Venoshock",
      "Rain Dance",
      "Thief",
      "Hyper Beam",
      "Sunny Day",
      "Baton Pass",
      "Psychic",
      "Endure",
      "Sleep Talk",
      "Swift",
      "Draining Kiss"
    ],
    "tutorMoves": {
      "Regular": [
        "Dual Wingbeat"
      ],
      "Transfer": [
        "Ominous Wind",
        "Silver Wind",
        "Secret Power",
        "Psych Up",
        "Dream Eater",
        "Teleport",
        "Natural Gift",
        "Confide",
        "Defog",
        "Curse",
        "Double-Edge",
        "Roost",
        "Take Down",
        "Hidden Power",
        "Mega Drain",
        "Air Cutter",
        "Bide",
        "Double Team",
        "Infestation",
        "Psywave",
        "Toxic",
        "Aerial Ace",
        "Struggle Bug",
        "Rage",
        "Headbutt",
        "Razor Wind",
        "Swagger",
        "Nightmare",
        "Flash",
        "Signal Beam",
        "Return",
        "Mimic",
        "Sweet Scent",
        "Captivate",
        "Twister",
        "Reflect",
        "Frustration"
      ]
    }
  }
}