{
  "pixelmonName": "Cacturne",
  "spDef": 60,
  "spAtt": 115,
  "speed": 55,
  "defence": 60,
  "attack": 115,
  "hp": 70,
  "catchRate": 60,
  "malePercent": 50,
  "nationalPokedexNumber": 332,
  "spawnLevel": 35,
  "spawnLevelRange": 15,
  "baseExp": 177,
  "baseFriendship": 35,
  "rarity": {
    "day": 0,
    "dawndusk": 0,
    "night": 0
  },
  "type1": "Grass",
  "type2": "Dark",
  "height": 1.3,
  "width": 1.0,
  "length": 1.0,
  "giScale": 1.0,
  "canFly": false,
  "isRideable": false,
  "preEvolutions": [
    "Cacnea"
  ],
  "experienceGroup": "MediumSlow",
  "aggression": {
    "timid": 80,
    "passive": 0,
    "aggressive": 20
  },
  "spawnLocations": [
    "Land"
  ],
  "biomeIDs": [
    2,
    17,
    130,
    165
  ],
  "evGain": {
    "HP": 0,
    "Attack": 1,
    "Defence": 0,
    "SpecialAttack": 1,
    "SpecialDefence": 0,
    "Speed": 0
  },
  "canSurf": false,
  "maxGroupSize": 1,
  "minGroupSize": 1,
  "hoverHeight": 0.0,
  "doesHover": false,
  "id": 433,
  "baseFormID": 433,
  "weight": 77.4,
  "pokemon": "Cacturne",
  "abilities": [
    "SandVeil",
    null,
    "WaterAbsorb"
  ],
  "eggGroups": [
    "Grass",
    "Humanlike"
  ],
  "eggCycles": 21,
  "form": -1,
  "evolutionDefs": [],
  "moves": {
    "levelMoves": {
      "1": [
        "Destiny Bond",
        "Leer",
        "Poison Sting",
        "Growth",
        "Absorb",
        "Revenge",
        "Spiky Shield"
      ],
      "35": [
        "Sucker Punch"
      ],
      "4": [
        "Absorb"
      ],
      "38": [
        "Pin Missile"
      ],
      "7": [
        "Growth"
      ],
      "10": [
        "Leech Seed"
      ],
      "44": [
        "Energy Ball"
      ],
      "13": [
        "Sand Attack"
      ],
      "16": [
        "Needle Arm"
      ],
      "49": [
        "Cotton Spore"
      ],
      "19": [
        "Faint Attack"
      ],
      "22": [
        "Ingrain"
      ],
      "54": [
        "Sandstorm"
      ],
      "26": [
        "Payback"
      ],
      "59": [
        "Destiny Bond"
      ],
      "30": [
        "Spikes"
      ]
    },
    "eggMoves": [
      "Rototiller",
      "Acid",
      "Worry Seed",
      "Teeter Dance",
      "Grass Whistle",
      "Switcheroo",
      "Fell Stinger",
      "Magical Leaf",
      "Power-Up Punch",
      "Seed Bomb",
      "Counter",
      "Dynamic Punch",
      "Low Kick",
      "Nasty Plot",
      "Block",
      "Smelling Salts",
      "Disable",
      "Belch"
    ],
    "evolutionMoves": [
      "Spiky Shield"
    ],
    "tmTRMoves": [
      "Mega Punch",
      "Mega Kick",
      "Thunder Punch",
      "Pin Missile",
      "Hyper Beam",
      "Giga Impact",
      "Magical Leaf",
      "Solar Beam",
      "Rest",
      "Snore",
      "Protect",
      "Giga Drain",
      "Attract",
      "Sandstorm",
      "Sunny Day",
      "Facade",
      "Swift",
      "Revenge",
      "Brick Break",
      "Bullet Seed",
      "Payback",
      "Fling",
      "Drain Punch",
      "Venoshock",
      "Round",
      "Retaliate",
      "Stomping Tantrum",
      "Swords Dance",
      "Body Slam",
      "Low Kick",
      "Substitute",
      "Spikes",
      "Endure",
      "Sleep Talk",
      "Encore",
      "Superpower",
      "Poison Jab",
      "Dark Pulse",
      "Seed Bomb",
      "Focus Blast",
      "Energy Ball",
      "Nasty Plot",
      "Grass Knot",
      "Foul Play"
    ],
    "tutorMoves": {
      "Regular": [
        "Giga Drain",
        "Focus Punch",
        "Drain Punch",
        "Snore",
        "Worry Seed",
        "Stomping Tantrum",
        "Role Play",
        "Foul Play",
        "Seed Bomb",
        "Synthesis",
        "Low Kick",
        "Block",
        "Spite",
        "Superpower",
        "Thunder Punch"
      ],
      "Transfer": [
        "Secret Power",
        "Natural Gift",
        "Confide",
        "Double-Edge",
        "Cut",
        "Hidden Power",
        "Double Team",
        "Mud-Slap",
        "Toxic",
        "Seismic Toss",
        "Headbutt",
        "Embargo",
        "Swagger",
        "Flash",
        "Return",
        "Nature Power",
        "Mimic",
        "Captivate",
        "Fury Cutter",
        "Strength",
        "Frustration"
      ]
    }
  }
}