{
  "pixelmonName": "Carkol",
  "spDef": 70,
  "spAtt": 60,
  "speed": 50,
  "defence": 90,
  "attack": 60,
  "hp": 80,
  "catchRate": 120,
  "malePercent": 50,
  "nationalPokedexNumber": 838,
  "spawnLevel": 18,
  "spawnLevelRange": 34,
  "baseExp": 144,
  "baseFriendship": 50,
  "rarity": {
    "day": 1,
    "dawndusk": 0,
    "night": 0
  },
  "type1": "Rock",
  "type2": "Fire",
  "height": 1.0,
  "width": 1.0,
  "length": 1.0,
  "giScale": 1.0,
  "canFly": false,
  "isRideable": false,
  "preEvolutions": [
    "Rolycoly"
  ],
  "experienceGroup": "MediumSlow",
  "aggression": {
    "timid": 80,
    "passive": 0,
    "aggressive": 20
  },
  "spawnLocations": [
    "Land"
  ],
  "biomeIDs": [
    21
  ],
  "evGain": {
    "HP": 0,
    "Attack": 0,
    "Defence": 2,
    "SpecialAttack": 0,
    "SpecialDefence": 0,
    "Speed": 0
  },
  "canSurf": false,
  "maxGroupSize": 1,
  "minGroupSize": 1,
  "hoverHeight": 0.0,
  "doesHover": false,
  "id": 1071,
  "baseFormID": 1071,
  "weight": 30.0,
  "pokemon": "Carkol",
  "abilities": [
    "SteamEngine",
    "FlameBody",
    "FlashFire"
  ],
  "eggGroups": [
    "Mineral"
  ],
  "eggCycles": 6,
  "form": -1,
  "evolutionDefs": [
    {
      "targetId": 1072,
      "evolveLevel": 34
    }
  ],
  "moves": {
    "levelMoves": {
      "48": [
        "Rock Blast"
      ],
      "1": [
        "Tackle",
        "Rapid Spin",
        "Smack Down",
        "Smokescreen",
        "Flame Charge"
      ],
      "35": [
        "Stealth Rock"
      ],
      "20": [
        "Ancient Power"
      ],
      "55": [
        "Burn Up"
      ],
      "41": [
        "Heat Crash"
      ],
      "27": [
        "Incinerate"
      ],
      "15": [
        "Rock Polish"
      ]
    },
    "eggMoves": [
      "Mud-Slap",
      "Explosion",
      "Block"
    ],
    "evolutionMoves": [
      "Flame Charge"
    ],
    "tmTRMoves": [
      "Snore",
      "Facade",
      "Flamethrower",
      "Heavy Slam",
      "Stone Edge",
      "Overheat",
      "Rock Blast",
      "Iron Head",
      "Rest",
      "Sand Tomb",
      "Rock Slide",
      "Round",
      "Heat Wave",
      "Sandstorm",
      "Iron Defense",
      "Substitute",
      "Attract",
      "Body Press",
      "Protect",
      "Dig",
      "High Horsepower",
      "Self-Destruct",
      "Will-O-Wisp",
      "Scald",
      "Gyro Ball",
      "Flare Blitz",
      "Spikes",
      "Rock Tomb",
      "Reflect",
      "Endure",
      "Sleep Talk",
      "Stealth Rock",
      "Fire Spin",
      "Heat Crash",
      "Fire Blast"
    ],
    "tutorMoves": {
      "Regular": [
        "Scorching Sands",
        "Meteor Beam"
      ]
    }
  }
}