{
  "pixelmonName": "Chandelure",
  "spDef": 90,
  "spAtt": 145,
  "speed": 80,
  "defence": 90,
  "attack": 55,
  "hp": 60,
  "catchRate": 45,
  "malePercent": 50,
  "nationalPokedexNumber": 609,
  "spawnLevel": 41,
  "spawnLevelRange": 19,
  "baseExp": 234,
  "baseFriendship": 70,
  "rarity": {
    "day": 0,
    "dawndusk": 0,
    "night": 0
  },
  "type1": "Ghost",
  "type2": "Fire",
  "height": 1.0,
  "width": 1.0,
  "length": 1.0,
  "giScale": 1.0,
  "canFly": false,
  "isRideable": false,
  "preEvolutions": [
    "Lampent",
    "Litwick"
  ],
  "experienceGroup": "MediumSlow",
  "aggression": {
    "timid": 80,
    "passive": 0,
    "aggressive": 20
  },
  "spawnLocations": [
    "Land"
  ],
  "biomeIDs": [
    1
  ],
  "evGain": {
    "HP": 0,
    "Attack": 0,
    "Defence": 0,
    "SpecialAttack": 3,
    "SpecialDefence": 0,
    "Speed": 0
  },
  "canSurf": false,
  "maxGroupSize": 1,
  "minGroupSize": 1,
  "hoverHeight": 1.0,
  "doesHover": true,
  "id": 679,
  "baseFormID": 679,
  "weight": 34.3,
  "pokemon": "Chandelure",
  "abilities": [
    "FlashFire",
    "FlameBody",
    "Infiltrator"
  ],
  "eggGroups": [
    "Amorphous"
  ],
  "eggCycles": 21,
  "form": -1,
  "evolutionDefs": [],
  "moves": {
    "levelMoves": {
      "1": [
        "Night Shade",
        "Minimize",
        "Astonish",
        "Inferno",
        "Overheat",
        "Will-O-Wisp",
        "Confuse Ray",
        "Memento",
        "Curse",
        "Smog",
        "Fire Spin",
        "Ember",
        "Shadow Ball",
        "Hex",
        "Pain Split",
        "Imprison"
      ]
    },
    "eggMoves": [
      "Power Split",
      "Haze",
      "Acid Armor",
      "Clear Smog"
    ],
    "evolutionMoves": [],
    "tmTRMoves": [
      "Snore",
      "Facade",
      "Flamethrower",
      "Taunt",
      "Dark Pulse",
      "Overheat",
      "Solar Beam",
      "Rest",
      "Round",
      "Shadow Ball",
      "Heat Wave",
      "Imprison",
      "Substitute",
      "Attract",
      "Ally Switch",
      "Giga Impact",
      "Payback",
      "Energy Ball",
      "Safeguard",
      "Protect",
      "Thief",
      "Trick",
      "Hyper Beam",
      "Sunny Day",
      "Will-O-Wisp",
      "Calm Mind",
      "Mystical Fire",
      "Psychic",
      "Endure",
      "Sleep Talk",
      "Fire Spin",
      "Hex",
      "Trick Room",
      "Fire Blast"
    ],
    "tutorMoves": {
      "Regular": [
        "Skitter Smack",
        "Poltergeist",
        "Burning Jealousy"
      ],
      "Transfer": [
        "Secret Power",
        "Psych Up",
        "Dream Eater",
        "Confide",
        "Incinerate",
        "Hidden Power",
        "Flame Burst",
        "Double Team",
        "Spite",
        "Shock Wave",
        "Telekinesis",
        "Acid",
        "Toxic",
        "Embargo",
        "Swagger",
        "Flash",
        "Flame Charge",
        "Return",
        "Captivate",
        "Frustration",
        "Laser Focus"
      ]
    }
  }
}