{
  "pixelmonName": "Charizard",
  "spDef": 85,
  "spAtt": 109,
  "speed": 100,
  "defence": 78,
  "attack": 84,
  "hp": 78,
  "catchRate": 45,
  "malePercent": 87,
  "nationalPokedexNumber": 6,
  "spawnLevel": 36,
  "spawnLevelRange": 14,
  "baseExp": 240,
  "baseFriendship": 70,
  "rarity": {
    "day": 5,
    "dawndusk": 0,
    "night": 0
  },
  "type1": "Fire",
  "type2": "Flying",
  "height": 1.7,
  "width": 0.9,
  "length": 0.9,
  "giScale": 1.0,
  "canFly": true,
  "isRideable": true,
  "preEvolutions": [
    "Charmeleon",
    "Charmander"
  ],
  "experienceGroup": "MediumSlow",
  "aggression": {
    "timid": 80,
    "passive": 0,
    "aggressive": 20
  },
  "flyingParameters": {
    "flyHeightMin": 0,
    "flyHeightMax": 20,
    "flySpeedModifier": 0.8,
    "flyRefreshRateY": 100,
    "flyRefreshRateXZ": 100,
    "flyRefreshRateSpeed": 100,
    "flightTimeMin": 0,
    "flightTimeMax": 20,
    "flapRate": 5,
    "landingMaterial": "GrassAndLeaves"
  },
  "spawnLocations": [
    "Air"
  ],
  "biomeIDs": [
    3,
    34,
    131
  ],
  "evGain": {
    "HP": 0,
    "Attack": 0,
    "Defence": 0,
    "SpecialAttack": 3,
    "SpecialDefence": 0,
    "Speed": 0
  },
  "canSurf": false,
  "ridingOffsets": {
    "standing": {
      "x": 0.0,
      "y": -1.0,
      "z": 0.0
    },
    "moving": {
      "x": 0.0,
      "y": -1.1,
      "z": 0.3
    }
  },
  "maxGroupSize": 1,
  "minGroupSize": 1,
  "hoverHeight": 0.0,
  "doesHover": false,
  "id": 128,
  "baseFormID": 128,
  "weight": 90.5,
  "pokemon": "Charizard",
  "abilities": [
    "Blaze",
    null,
    "SolarPower"
  ],
  "eggGroups": [
    "Monster",
    "Dragon"
  ],
  "eggCycles": 21,
  "form": -1,
  "evolutionDefs": [],
  "moves": {
    "levelMoves": {
      "1": [
        "Scratch",
        "Air Slash",
        "Growl",
        "Ember",
        "Heat Wave",
        "Dragon Claw",
        "Smokescreen"
      ],
      "19": [
        "Fire Fang"
      ],
      "54": [
        "Inferno"
      ],
      "39": [
        "Scary Face"
      ],
      "24": [
        "Slash"
      ],
      "12": [
        "Dragon Breath"
      ],
      "30": [
        "Flamethrower"
      ],
      "46": [
        "Fire Spin"
      ],
      "62": [
        "Flare Blitz"
      ]
    },
    "eggMoves": [
      "Metal Claw",
      "Counter",
      "Dragon Tail",
      "Bite",
      "Dragon Rush",
      "Ancient Power",
      "Wing Attack",
      "Belly Drum"
    ],
    "evolutionMoves": [
      "Air Slash"
    ],
    "tmTRMoves": [
      "Flamethrower",
      "Beat Up",
      "Overheat",
      "Fire Fang",
      "Swords Dance",
      "Breaking Swipe",
      "Iron Tail",
      "Work Up",
      "Body Slam",
      "Heat Wave",
      "Bulldoze",
      "Substitute",
      "Dragon Dance",
      "Attract",
      "Crunch",
      "False Swipe",
      "Mega Punch",
      "Sunny Day",
      "Dragon Claw",
      "Outrage",
      "Fling",
      "Mystical Fire",
      "Rock Tomb",
      "Steel Wing",
      "Brutal Swing",
      "Endure",
      "Fire Spin",
      "Swift",
      "Heat Crash",
      "Blaze Kick",
      "Thunder Punch",
      "Fire Punch",
      "Fire Blast",
      "Weather Ball",
      "Snore",
      "Facade",
      "Air Slash",
      "Solar Beam",
      "Mega Kick",
      "Fly",
      "Rest",
      "Earthquake",
      "Rock Slide",
      "Scary Face",
      "Round",
      "Hurricane",
      "Brick Break",
      "Acrobatics",
      "Giga Impact",
      "Helping Hand",
      "Dragon Pulse",
      "Protect",
      "Dig",
      "Hyper Beam",
      "Will-O-Wisp",
      "Focus Blast",
      "Flare Blitz",
      "Sleep Talk",
      "Shadow Claw"
    ],
    "tutorMoves": {
      "Regular": [
        "Scorching Sands",
        "Dual Wingbeat",
        "Scale Shot"
      ],
      "Transfer": [
        "Ominous Wind",
        "Tailwind",
        "Natural Gift",
        "Confide",
        "Incinerate",
        "Double-Edge",
        "Leer",
        "Cut",
        "Roost",
        "Hidden Power",
        "Flame Burst",
        "Power-Up Punch",
        "Bide",
        "Double Team",
        "Hone Claws",
        "Seismic Toss",
        "Rage",
        "Headbutt",
        "Dynamic Punch",
        "Sky Drop",
        "Skull Bash",
        "Blast Burn",
        "Dragon Rage",
        "Swagger",
        "Sandstorm",
        "Defense Curl",
        "Flame Charge",
        "Submission",
        "Mimic",
        "Captivate",
        "Roar",
        "Fury Cutter",
        "Twister",
        "Reflect",
        "Frustration",
        "Rock Smash",
        "Secret Power",
        "Fire Pledge",
        "Defog",
        "Curse",
        "Take Down",
        "Fury Swipes",
        "Fissure",
        "Echoed Voice",
        "Air Cutter",
        "Mud-Slap",
        "Focus Punch",
        "Toxic",
        "Aerial Ace",
        "Return",
        "Strength"
      ],
      "Event": [
        "Hold Hands"
      ]
    }
  }
}