{
  "pixelmonName": "Cherrim",
  "spDef": 78,
  "spAtt": 87,
  "speed": 85,
  "defence": 70,
  "attack": 60,
  "hp": 70,
  "catchRate": 75,
  "malePercent": 50,
  "nationalPokedexNumber": 421,
  "spawnLevel": 28,
  "spawnLevelRange": 7,
  "baseExp": 158,
  "baseFriendship": 70,
  "rarity": {
    "day": 50,
    "dawndusk": 0,
    "night": 0
  },
  "type1": "Grass",
  "height": 0.5,
  "width": 0.7,
  "length": 0.7,
  "giScale": 1.0,
  "canFly": false,
  "isRideable": false,
  "preEvolutions": [
    "Cherubi"
  ],
  "experienceGroup": "MediumFast",
  "aggression": {
    "timid": 80,
    "passive": 0,
    "aggressive": 20
  },
  "spawnLocations": [
    "Land"
  ],
  "biomeIDs": [
    4,
    18
  ],
  "evGain": {
    "HP": 0,
    "Attack": 0,
    "Defence": 0,
    "SpecialAttack": 2,
    "SpecialDefence": 0,
    "Speed": 0
  },
  "canSurf": false,
  "maxGroupSize": 1,
  "minGroupSize": 1,
  "hoverHeight": 0.0,
  "doesHover": false,
  "id": 504,
  "baseFormID": 504,
  "weight": 9.3,
  "pokemon": "Cherrim",
  "abilities": [
    "FlowerGift",
    null,
    null
  ],
  "eggGroups": [
    "Fairy",
    "Grass"
  ],
  "eggCycles": 21,
  "form": -1,
  "evolutionDefs": [],
  "moves": {
    "levelMoves": {
      "48": [
        "Worry Seed"
      ],
      "1": [
        "Flower Shield",
        "Tackle",
        "Growth",
        "Sunny Day",
        "Leafage",
        "Morning Sun"
      ],
      "34": [
        "Take Down"
      ],
      "20": [
        "Magical Leaf"
      ],
      "55": [
        "Solar Beam"
      ],
      "41": [
        "Petal Blizzard"
      ],
      "28": [
        "Leech Seed"
      ],
      "62": [
        "Petal Dance"
      ],
      "15": [
        "Helping Hand"
      ]
    },
	"alphaMoves":[
     "Magical Leaf",
	 "Rest",
	 "Energy Ball",
     "Dazzling Gleam",
	 "Giga Impact",
	 "Play Rough",
	 "Hyper Beam"
    ],
    "eggMoves": [
      "Flower Shield",
      "Heal Pulse",
      "Nature Power",
      "Sweet Scent",
      "Healing Wish",
      "Razor Leaf",
      "Aromatherapy",
      "Defense Curl",
      "Tickle",
      "Rollout"
    ],
    "evolutionMoves": [
      "Sunny Day"
    ],
    "tmTRMoves": [
      "Giga Drain",
      "Weather Ball",
      "Snore",
      "Facade",
      "Play Rough",
      "Dazzling Gleam",
      "Grass Knot",
      "Swords Dance",
      "Solar Beam",
      "Magical Leaf",
      "Rest",
      "Seed Bomb",
      "Bullet Seed",
      "Round",
      "Grassy Terrain",
      "Substitute",
      "Pollen Puff",
      "Solar Blade",
      "Attract",
      "Giga Impact",
      "Helping Hand",
      "Energy Ball",
      "Safeguard",
      "Protect",
      "Hyper Beam",
      "Sunny Day",
      "Endure",
      "Sleep Talk",
      "Draining Kiss"
    ],
    "tutorMoves": {
      "Regular": [
        "Grassy Glide"
      ],
      "Transfer": [
        "Secret Power",
        "Grass Whistle",
        "Natural Gift",
        "Confide",
        "Synthesis",
        "Hidden Power",
        "Lucky Chant",
        "Double Team",
        "Toxic",
        "Swagger",
        "Flash",
        "Return",
        "Captivate",
        "Frustration",
        "Laser Focus"
      ]
    }
  }
}