{
  "pixelmonName": "Crobat",
  "spDef": 80,
  "spAtt": 70,
  "speed": 130,
  "defence": 80,
  "attack": 90,
  "hp": 85,
  "catchRate": 90,
  "malePercent": 50,
  "nationalPokedexNumber": 169,
  "spawnLevel": 40,
  "spawnLevelRange": 10,
  "baseExp": 204,
  "baseFriendship": 70,
  "rarity": {
    "day": 0,
    "dawndusk": 0,
    "night": 0
  },
  "type1": "Poison",
  "type2": "Flying",
  "height": 1.8,
  "width": 1.0,
  "length": 1.0,
  "giScale": 1.0,
  "canFly": true,
  "isRideable": false,
  "preEvolutions": [
    "Golbat",
    "Zubat"
  ],
  "experienceGroup": "MediumFast",
  "aggression": {
    "timid": 80,
    "passive": 0,
    "aggressive": 20
  },
  "flyingParameters": {
    "flyHeightMin": 0,
    "flyHeightMax": 10,
    "flySpeedModifier": 1.0,
    "flyRefreshRateY": 80,
    "flyRefreshRateXZ": 200,
    "flyRefreshRateSpeed": 100,
    "flightTimeMin": 0,
    "flightTimeMax": 20,
    "flapRate": 5,
    "landingMaterial": "GrassAndLeaves"
  },
  "spawnLocations": [
    "AirPersistent",
    "UnderGround"
  ],
  "biomeIDs": [
    4,
    5,
    6,
    18,
    19,
    27,
    28,
    29,
    32,
    33,
    132,
    133,
    134,
    155,
    156,
    157,
    160,
    161
  ],
  "evGain": {
    "HP": 0,
    "Attack": 0,
    "Defence": 0,
    "SpecialAttack": 0,
    "SpecialDefence": 0,
    "Speed": 3
  },
  "canSurf": false,
  "maxGroupSize": 1,
  "minGroupSize": 1,
  "hoverHeight": 1.0,
  "doesHover": true,
  "id": 10,
  "baseFormID": 10,
  "weight": 75.0,
  "pokemon": "Crobat",
  "abilities": [
    "InnerFocus",
    null,
    "Infiltrator"
  ],
  "eggGroups": [
    "Flying"
  ],
  "eggCycles": 16,
  "form": -1,
  "evolutionDefs": [],
  "moves": {
    "levelMoves": {
      "48": [
        "Venoshock"
      ],
      "1": [
        "Supersonic",
        "Cross Poison",
        "Toxic",
        "Astonish",
        "Absorb",
        "Screech",
        "Tailwind",
        "Mean Look"
      ],
      "34": [
        "Bite"
      ],
      "20": [
        "Quick Guard"
      ],
      "69": [
        "Leech Life"
      ],
      "55": [
        "Confuse Ray"
      ],
      "41": [
        "Haze"
      ],
      "27": [
        "Air Cutter"
      ],
      "62": [
        "Air Slash"
      ],
      "15": [
        "Poison Fang"
      ]
    },
    "alphaMoves":[
      "Aerial Ace",
      "Swift",
      "Ominous Wind",
      "Rest",
      "Zen Headbutt",
      "Leech Life",
      "X-scissor",
      "Sludge Bomb",
      "Shadow Ball",
      "Giga Impact",
      "Hyper Beam",
      "Dark Pulse"
    ],
    "eggMoves": [
      "Dual Wingbeat"
    ],
    "evolutionMoves": [
      "Cross Poison"
    ],
    "tmTRMoves": [
      "Giga Drain",
      "Snore",
      "Facade",
      "Assurance",
      "Uproar",
      "Cross Poison",
      "Taunt",
      "Dark Pulse",
      "Air Slash",
      "Leech Life",
      "Sludge Bomb",
      "U-turn",
      "Brave Bird",
      "Screech",
      "Fly",
      "Rest",
      "Venom Drench",
      "Agility",
      "Nasty Plot",
      "Round",
      "Shadow Ball",
      "Heat Wave",
      "Substitute",
      "Hurricane",
      "Acrobatics",
      "Attract",
      "Giga Impact",
      "Crunch",
      "Payback",
      "Protect",
      "Venoshock",
      "Rain Dance",
      "Thief",
      "Hyper Beam",
      "Sunny Day",
      "X-Scissor",
      "Steel Wing",
      "Endure",
      "Sleep Talk",
      "Swift",
      "Hex",
      "Zen Headbutt"
    ],
    "tutorMoves": {
      "Regular": [
        "Dual Wingbeat"
      ],
      "Transfer": [
        "Ominous Wind",
        "Whirlwind",
        "Secret Power",
        "Detect",
        "Snatch",
        "Natural Gift",
        "Confide",
        "Defog",
        "Curse",
        "Pluck",
        "Double-Edge",
        "Quick Attack",
        "Roost",
        "Hidden Power",
        "Super Fang",
        "Double Team",
        "Sky Attack",
        "Aerial Ace",
        "Gust",
        "Swagger",
        "Wing Attack",
        "Return",
        "Mimic",
        "Captivate",
        "Pursuit",
        "Twister",
        "Faint Attack",
        "Hypnosis",
        "Torment",
        "Frustration"
      ]
    }
  }
}