{
  "pixelmonName": "Darmanitan",
  "spDef": 55,
  "spAtt": 30,
  "speed": 135,
  "defence": 55,
  "attack": 160,
  "hp": 105,
  "catchRate": 60,
  "malePercent": 50,
  "nationalPokedexNumber": 555,
  "spawnLevel": 25,
  "spawnLevelRange": 30,
  "baseExp": 168,
  "baseFriendship": 70,
  "rarity": {
    "day": 1,
    "dawndusk": 0,
    "night": 0
  },
  "type1": "Ice",
  "type2": "Fire",
  "height": 2.5,
  "width": 1.0,
  "length": 1.0,
  "giScale": 1.0,
  "canFly": false,
  "isRideable": false,
  "preEvolutions": [
    "Darumaka"
  ],
  "experienceGroup": "MediumSlow",
  "aggression": {
    "timid": 80,
    "passive": 0,
    "aggressive": 20
  },
  "spawnLocations": [
    "Land"
  ],
  "biomeIDs": [
    21
  ],
  "evGain": {
    "HP": 0,
    "Attack": 2,
    "Defence": 0,
    "SpecialAttack": 0,
    "SpecialDefence": 0,
    "Speed": 0
  },
  "canSurf": false,
  "maxGroupSize": 1,
  "minGroupSize": 1,
  "hoverHeight": 0.0,
  "doesHover": false,
  "id": 1117,
  "baseFormID": 630,
  "weight": 120.0,
  "pokemon": "Darmanitan",
  "abilities": [
    "GorillaTactics",
    null,
    "ZenMode"
  ],
  "eggGroups": [
    "Field"
  ],
  "eggCycles": 21,
  "form": 11,
  "evolutionDefs": [],
  "moves": {
    "levelMoves": {
      "16": [
        "Work Up"
      ],
      "32": [
        "Uproar"
      ],
      "1": [
        "Icicle Crash",
        "Tackle",
        "Taunt",
        "Bite",
        "Powder Snow"
      ],
      "50": [
        "Thrash"
      ],
      "20": [
        "Ice Fang"
      ],
      "38": [
        "Belly Drum"
      ],
      "24": [
        "Headbutt"
      ],
      "56": [
        "Superpower"
      ],
      "12": [
        "Avalanche"
      ],
      "28": [
        "Ice Punch"
      ],
      "44": [
        "Blizzard"
      ]
    },
    "eggMoves": [
      "Flame Wheel",
      "Focus Punch",
      "Power-Up Punch",
      "Take Down",
      "Yawn",
      "Incinerate",
      "Freeze-Dry",
      "Extrasensory",
      "Hammer Arm"
    ],
    "evolutionMoves": [
      "Icicle Crash",
      "Hammer Arm"
    ],
    "tmTRMoves": [
      "Flamethrower",
      "Uproar",
      "Taunt",
      "Overheat",
      "Fire Fang",
      "Iron Head",
      "Encore",
      "Ice Fang",
      "Work Up",
      "Body Slam",
      "Heat Wave",
      "Bulldoze",
      "Substitute",
      "Attract",
      "Ice Beam",
      "Payback",
      "Mega Punch",
      "Sunny Day",
      "Avalanche",
      "Fling",
      "Rock Tomb",
      "Endure",
      "Fire Spin",
      "Zen Headbutt",
      "Fire Punch",
      "Ice Punch",
      "Fire Blast",
      "Snore",
      "Facade",
      "Focus Energy",
      "Stone Edge",
      "Grass Knot",
      "U-turn",
      "Solar Beam",
      "Bulk Up",
      "Mega Kick",
      "Rest",
      "Earthquake",
      "Rock Slide",
      "Round",
      "Iron Defense",
      "Superpower",
      "Brick Break",
      "Giga Impact",
      "Body Press",
      "Protect",
      "Dig",
      "Thief",
      "Hyper Beam",
      "Will-O-Wisp",
      "Gyro Ball",
      "Focus Blast",
      "Flare Blitz",
      "Psychic",
      "Sleep Talk",
      "Reversal",
      "Blizzard"
    ],
    "tutorMoves": {
      "Regular": [
        "Lash Out",
        "Burning Jealousy",
        "Expanding Force"
      ]
    }
  }
}