{
  "pixelmonName": "Dedenne",
  "spDef": 67,
  "spAtt": 81,
  "speed": 101,
  "defence": 57,
  "attack": 58,
  "hp": 67,
  "catchRate": 180,
  "malePercent": 50,
  "nationalPokedexNumber": 702,
  "spawnLevel": 20,
  "spawnLevelRange": 8,
  "baseExp": 151,
  "baseFriendship": 0,
  "rarity": {
    "day": 60,
    "dawndusk": 0,
    "night": 0
  },
  "type1": "Electric",
  "type2": "Fairy",
  "height": 0.2,
  "width": 0.2,
  "length": 0.2,
  "giScale": 1.0,
  "canFly": false,
  "isRideable": false,
  "preEvolutions": [],
  "experienceGroup": "MediumFast",
  "aggression": {
    "timid": 80,
    "passive": 0,
    "aggressive": 20
  },
  "spawnLocations": [
    "Land"
  ],
  "biomeIDs": [
    1,
    0,
    24,
    27,
    28,
    156,
    155,
    4,
    18,
    160,
    32,
    33,
    161,
    5,
    19
  ],
  "evGain": {
    "HP": 0,
    "Attack": 0,
    "Defence": 0,
    "SpecialAttack": 0,
    "SpecialDefence": 0,
    "Speed": 2
  },
  "canSurf": false,
  "maxGroupSize": 1,
  "minGroupSize": 1,
  "hoverHeight": 0.0,
  "doesHover": false,
  "id": 740,
  "baseFormID": 740,
  "weight": 2.2,
  "pokemon": "Dedenne",
  "abilities": [
    "CheekPouch",
    "Pickup",
    "Plus"
  ],
  "eggGroups": [
    "Field",
    "Fairy"
  ],
  "eggCycles": 21,
  "form": -1,
  "evolutionDefs": [],
  "moves": {
    "levelMoves": {
      "1": [
        "Nuzzle",
        "Tail Whip"
      ],
      "35": [
        "Rest",
        "Snore"
      ],
      "5": [
        "Tackle"
      ],
      "40": [
        "Discharge"
      ],
      "10": [
        "Charge"
      ],
      "45": [
        "Play Rough"
      ],
      "15": [
        "Thunder Shock"
      ],
      "50": [
        "Super Fang"
      ],
      "20": [
        "Charm"
      ],
      "55": [
        "Entrainment"
      ],
      "25": [
        "Parabolic Charge"
      ],
      "60": [
        "Thunder"
      ],
      "30": [
        "Volt Switch"
      ]
    },
    "eggMoves": [
      "Tearful Look",
      "Magnet Rise",
      "Covet"
    ],
    "evolutionMoves": [],
    "tmTRMoves": [
      "Snore",
      "Facade",
      "Play Rough",
      "Dazzling Gleam",
      "Volt Switch",
      "Eerie Impulse",
      "Grass Knot",
      "U-turn",
      "Retaliate",
      "Rest",
      "Iron Tail",
      "Charm",
      "Round",
      "Substitute",
      "Attract",
      "Electroweb",
      "Ally Switch",
      "Giga Impact",
      "Thunder Wave",
      "Helping Hand",
      "Protect",
      "Dig",
      "Rain Dance",
      "Thunder",
      "Wild Charge",
      "Thief",
      "Sunny Day",
      "Fling",
      "Electric Terrain",
      "Endure",
      "Sleep Talk",
      "Electro Ball",
      "Thunderbolt",
      "Thunder Punch"
    ],
    "tutorMoves": {
      "Regular": [
        "Rising Voltage"
      ],
      "Transfer": [
        "Secret Power",
        "Confide",
        "Natural Gift",
        "Cut",
        "Hidden Power",
        "Recycle",
        "Double Team",
        "Shock Wave",
        "Toxic",
        "Aerial Ace",
        "Swagger",
        "Charge Beam",
        "Flash",
        "Signal Beam",
        "Last Resort",
        "Return",
        "Frustration"
      ]
    }
  }
}