{
  "pixelmonName": "Deerling",
  "spDef": 50,
  "spAtt": 40,
  "speed": 75,
  "defence": 50,
  "attack": 60,
  "hp": 60,
  "catchRate": 190,
  "malePercent": 50,
  "nationalPokedexNumber": 585,
  "spawnLevel": 10,
  "spawnLevelRange": 24,
  "baseExp": 67,
  "baseFriendship": 70,
  "rarity": {
    "day": 150,
    "dawndusk": 150,
    "night": 0
  },
  "type1": "Normal",
  "type2": "Grass",
  "height": 0.6,
  "width": 0.7,
  "length": 0.7,
  "giScale": 1.0,
  "canFly": false,
  "isRideable": false,
  "preEvolutions": [],
  "experienceGroup": "MediumFast",
  "aggression": {
    "timid": 80,
    "passive": 0,
    "aggressive": 20
  },
  "spawnLocations": [
    "Land"
  ],
  "biomeIDs": [
    18,
    19,
    28,
    29,
    33,
    133,
    155,
    156,
    157,
    161
  ],
  "evGain": {
    "HP": 0,
    "Attack": 0,
    "Defence": 0,
    "SpecialAttack": 0,
    "SpecialDefence": 0,
    "Speed": 1
  },
  "canSurf": false,
  "maxGroupSize": 1,
  "minGroupSize": 1,
  "hoverHeight": 0.0,
  "doesHover": false,
  "id": 655,
  "baseFormID": 655,
  "weight": 19.5,
  "pokemon": "Deerling",
  "abilities": [
    "Chlorophyll",
    "SapSipper",
    "SereneGrace"
  ],
  "eggGroups": [
    "Field"
  ],
  "eggCycles": 21,
  "form": -1,
  "evolutionDefs": [
    {
      "targetId": 656,
      "evolveLevel": 34
    }
  ],
  "moves": {
    "levelMoves": {
      "32": [
        "Energy Ball"
      ],
      "1": [
        "Tackle",
        "Camouflage"
      ],
      "4": [
        "Growl"
      ],
      "36": [
        "Charm"
      ],
      "7": [
        "Sand Attack"
      ],
      "41": [
        "Nature Power"
      ],
      "10": [
        "Double Kick"
      ],
      "13": [
        "Leech Seed"
      ],
      "46": [
        "Double-Edge"
      ],
      "16": [
        "Faint Attack"
      ],
      "51": [
        "Solar Beam"
      ],
      "20": [
        "Take Down"
      ],
      "24": [
        "Jump Kick"
      ],
      "28": [
        "Aromatherapy"
      ]
    },
    "eggMoves": [
      "Worry Seed",
      "Synthesis",
      "Odor Sleuth",
      "Fake Tears",
      "Sleep Talk",
      "Agility",
      "Grass Whistle",
      "Baton Pass",
      "Headbutt",
      "Natural Gift"
    ],
    "evolutionMoves": [],
    "tmTRMoves": [
      "Solar Beam",
      "Thunder Wave",
      "Light Screen",
      "Safeguard",
      "Rest",
      "Snore",
      "Protect",
      "Giga Drain",
      "Charm",
      "Attract",
      "Rain Dance",
      "Sunny Day",
      "Facade",
      "Fake Tears",
      "Bounce",
      "Round",
      "Retaliate",
      "Agility",
      "Substitute",
      "Endure",
      "Sleep Talk",
      "Baton Pass",
      "Shadow Ball",
      "Seed Bomb",
      "Energy Ball",
      "Grass Knot",
      "Work Up",
      "Wild Charge"
    ],
    "tutorMoves": {
      "Regular": [
        "Giga Drain",
        "Last Resort",
        "Seed Bomb",
        "Snore",
        "Worry Seed",
        "Synthesis",
        "Bounce"
      ],
      "Transfer": [
        "Secret Power",
        "Confide",
        "Hidden Power",
        "Echoed Voice",
        "Double Team",
        "Toxic",
        "Swagger",
        "Flash",
        "Return",
        "Frustration"
      ]
    }
  }
}