{
  "pixelmonName": "Diglett",
  "spDef": 45,
  "spAtt": 35,
  "speed": 90,
  "defence": 30,
  "attack": 55,
  "hp": 10,
  "catchRate": 255,
  "malePercent": 50,
  "nationalPokedexNumber": 50,
  "spawnLevel": 10,
  "spawnLevelRange": 16,
  "baseExp": 81,
  "baseFriendship": 70,
  "rarity": {
    "day": 40,
    "dawndusk": 0,
    "night": 0
  },
  "type1": "Ground",
  "type2": "Steel",
  "height": 0.2,
  "width": 1.0,
  "length": 1.0,
  "giScale": 1.0,
  "canFly": false,
  "isRideable": false,
  "preEvolutions": [],
  "experienceGroup": "MediumFast",
  "aggression": {
    "timid": 80,
    "passive": 0,
    "aggressive": 20
  },
  "spawnLocations": [
    "Land"
  ],
  "biomeIDs": [
    2,
    17,
    37,
    38,
    39,
    130,
    165,
    166,
    167
  ],
  "evGain": {
    "HP": 0,
    "Attack": 0,
    "Defence": 0,
    "SpecialAttack": 0,
    "SpecialDefence": 0,
    "Speed": 1
  },
  "canSurf": false,
  "maxGroupSize": 1,
  "minGroupSize": 1,
  "hoverHeight": 0.0,
  "doesHover": false,
  "id": 870,
  "baseFormID": 144,
  "weight": 1.0,
  "pokemon": "Diglett",
  "abilities": [
    "SandVeil",
    "TanglingHair",
    "SandForce"
  ],
  "eggGroups": [
    "Field"
  ],
  "eggCycles": 20,
  "form": 3,
  "evolutionDefs": [
    {
      "targetId": 871,
      "formTo": 3,
      "evolveLevel": 26
    }
  ],
  "moves": {
    "levelMoves": {
      "16": [
        "Bulldoze"
      ],
      "32": [
        "Dig"
      ],
      "1": [
        "Metal Claw",
        "Sand Attack"
      ],
      "4": [
        "Growl"
      ],
      "20": [
        "Sucker Punch"
      ],
      "36": [
        "Earth Power"
      ],
      "8": [
        "Astonish"
      ],
      "24": [
        "Iron Head"
      ],
      "40": [
        "Earthquake"
      ],
      "12": [
        "Mud-Slap"
      ],
      "28": [
        "Sandstorm"
      ],
      "44": [
        "Fissure"
      ]
    },
    "eggMoves": [
      "Final Gambit",
      "Memento",
      "Ancient Power",
      "Hone Claws",
      "Headbutt",
      "Thrash",
      "Metal Sound"
    ],
    "evolutionMoves": [],
    "tmTRMoves": [
      "Uproar",
      "Sludge Bomb",
      "Flash Cannon",
      "Iron Head",
      "Earthquake",
      "Work Up",
      "Endure",
      "Sleep Talk",
      "Agility",
      "Earth Power",
      "Reversal",
      "Body Slam",
      "Iron Defense",
      "Substitute",
      "Ally Switch"
    ],
    "tutorMoves": {
      "Regular": [
        "Scorching Sands",
        "Steel Beam"
      ],
      "Transfer": [
        "Beat Up",
        "Confide",
        "Attract",
        "Hidden Power",
        "Sunny Day",
        "Rock Tomb",
        "Echoed Voice",
        "Double Team",
        "Mud Bomb",
        "Facade",
        "Snore",
        "Toxic",
        "Aerial Ace",
        "Stomping Tantrum",
        "Magnitude",
        "Rest",
        "Rock Slide",
        "Swagger",
        "Round",
        "Protect",
        "Return",
        "Thief",
        "Pursuit",
        "Faint Attack",
        "Stealth Rock",
        "Shadow Claw",
        "Frustration"
      ]
    }
  }
}