{
  "pixelmonName": "Dragonite",
  "spDef": 100,
  "spAtt": 100,
  "speed": 80,
  "defence": 95,
  "attack": 134,
  "hp": 91,
  "catchRate": 45,
  "malePercent": 50,
  "nationalPokedexNumber": 149,
  "spawnLevel": 55,
  "spawnLevelRange": 15,
  "baseExp": 218,
  "baseFriendship": 35,
  "rarity": {
    "day": 0,
    "dawndusk": 1,
    "night": 5
  },
  "type1": "Dragon",
  "type2": "Flying",
  "height": 2.2,
  "width": 1.0,
  "length": 1.8,
  "giScale": 0.5,
  "canFly": true,
  "isRideable": true,
  "preEvolutions": [
    "Dragonair",
    "Dratini"
  ],
  "experienceGroup": "Slow",
  "aggression": {
    "timid": 80,
    "passive": 0,
    "aggressive": 20
  },
  "flyingParameters": {
    "flyHeightMin": 0,
    "flyHeightMax": 20,
    "flySpeedModifier": 0.8,
    "flyRefreshRateY": 100,
    "flyRefreshRateXZ": 100,
    "flyRefreshRateSpeed": 100,
    "flightTimeMin": 0,
    "flightTimeMax": 20,
    "flapRate": 5,
    "landingMaterial": "GrassAndLeaves"
  },
  "spawnLocations": [
    "Air"
  ],
  "biomeIDs": [
    24
  ],
  "evGain": {
    "HP": 0,
    "Attack": 3,
    "Defence": 0,
    "SpecialAttack": 0,
    "SpecialDefence": 0,
    "Speed": 0
  },
  "canSurf": false,
  "ridingOffsets": {
    "standing": {
      "x": 0.0,
      "y": -0.85,
      "z": -0.6
    },
    "moving": {
      "x": 0.0,
      "y": -1.45,
      "z": 0.6
    }
  },
  "maxGroupSize": 1,
  "minGroupSize": 1,
  "hoverHeight": 0.0,
  "doesHover": false,
  "id": 106,
  "baseFormID": 106,
  "weight": 210.0,
  "pokemon": "Dragonite",
  "abilities": [
    "InnerFocus",
    null,
    "Multiscale"
  ],
  "eggGroups": [
    "Water1",
    "Dragon"
  ],
  "eggCycles": 41,
  "form": -1,
  "evolutionDefs": [],
  "moves": {
    "levelMoves": {
      "80": [
        "Hyper Beam"
      ],
      "1": [
        "Extreme Speed",
        "Leer",
        "Wrap",
        "Roost",
        "Wing Attack",
        "Hurricane",
        "Thunder Punch",
        "Twister",
        "Fire Punch",
        "Thunder Wave"
      ],
      "33": [
        "Aqua Tail"
      ],
      "20": [
        "Agility"
      ],
      "53": [
        "Rain Dance"
      ],
      "39": [
        "Dragon Rush"
      ],
      "25": [
        "Slam"
      ],
      "41": [
        "Outrage"
      ],
      "46": [
        "Safeguard"
      ],
      "62": [
        "Dragon Dance"
      ],
      "15": [
        "Dragon Tail"
      ]
    },
    "eggMoves": [
      "Dual Wingbeat",
      "Scale Shot"
    ],
    "evolutionMoves": [
      "Hurricane"
    ],
    "tmTRMoves": [
      "Flamethrower",
      "Light Screen",
      "Icy Wind",
      "Breaking Swipe",
      "Iron Head",
      "Surf",
      "Iron Tail",
      "Hydro Pump",
      "Agility",
      "Body Slam",
      "Heat Wave",
      "Bulldoze",
      "Substitute",
      "Dragon Dance",
      "Attract",
      "Ice Beam",
      "Thunder Wave",
      "Mega Punch",
      "Sunny Day",
      "Dragon Claw",
      "Outrage",
      "Fling",
      "Rock Tomb",
      "Dive",
      "Steel Wing",
      "Brutal Swing",
      "Endure",
      "Fire Spin",
      "Whirlpool",
      "Swift",
      "Thunder Punch",
      "Fire Punch",
      "Ice Punch",
      "Fire Blast",
      "Snore",
      "Facade",
      "Waterfall",
      "Air Slash",
      "Stone Edge",
      "Mega Kick",
      "Fly",
      "Rest",
      "Earthquake",
      "Rock Slide",
      "Round",
      "Sandstorm",
      "Superpower",
      "Hurricane",
      "Brick Break",
      "Hail",
      "Giga Impact",
      "Body Press",
      "Safeguard",
      "Dragon Pulse",
      "Protect",
      "Rain Dance",
      "Thunder",
      "Hyper Beam",
      "Focus Blast",
      "Sleep Talk",
      "Thunderbolt",
      "Blizzard"
    ],
    "tutorMoves": {
      "Regular": [
        "Dual Wingbeat",
        "Scale Shot"
      ],
      "Transfer": [
        "Ominous Wind",
        "Draco Meteor",
        "Detect",
        "Tailwind",
        "Natural Gift",
        "Confide",
        "Incinerate",
        "Double-Edge",
        "Cut",
        "Hidden Power",
        "Haze",
        "Supersonic",
        "Power-Up Punch",
        "Water Pulse",
        "Bide",
        "Mist",
        "Double Team",
        "Hone Claws",
        "Shock Wave",
        "Bind",
        "Rage",
        "Headbutt",
        "Dynamic Punch",
        "Sky Drop",
        "Skull Bash",
        "Dragon Rage",
        "Swagger",
        "Mimic",
        "Dragon Breath",
        "Captivate",
        "Horn Drill",
        "Roar",
        "Fury Cutter",
        "Reflect",
        "Frustration",
        "Rock Smash",
        "Secret Power",
        "Bubble Beam",
        "Defog",
        "Curse",
        "Take Down",
        "Air Cutter",
        "Mud-Slap",
        "Focus Punch",
        "Toxic",
        "Aerial Ace",
        "Razor Wind",
        "Water Gun",
        "Return",
        "Aqua Jet",
        "Strength",
        "Zap Cannon"
      ]
    }
  }
}