{
  "pixelmonName": "Drifblim",
  "spDef": 54,
  "spAtt": 90,
  "speed": 80,
  "defence": 44,
  "attack": 80,
  "hp": 150,
  "catchRate": 60,
  "malePercent": 50,
  "nationalPokedexNumber": 426,
  "spawnLevel": 30,
  "spawnLevelRange": 10,
  "baseExp": 204,
  "baseFriendship": 70,
  "rarity": {
    "day": 0,
    "dawndusk": 0,
    "night": 25
  },
  "type1": "Ghost",
  "type2": "Flying",
  "height": 1.2,
  "width": 1.2,
  "length": 1.2,
  "giScale": 1.0,
  "canFly": false,
  "isRideable": true,
  "preEvolutions": [
    "Drifloon"
  ],
  "experienceGroup": "Fluctuating",
  "aggression": {
    "timid": 80,
    "passive": 0,
    "aggressive": 20
  },
  "flyingParameters": {
    "flyHeightMin": 0,
    "flyHeightMax": 15,
    "flySpeedModifier": 0.3,
    "flyRefreshRateY": 80,
    "flyRefreshRateXZ": 400,
    "flyRefreshRateSpeed": 400,
    "flightTimeMin": 0,
    "flightTimeMax": 20,
    "flapRate": 5,
    "landingMaterial": "GrassAndLeaves"
  },
  "spawnLocations": [
    "Land"
  ],
  "biomeIDs": [
    1,
    6,
    134
  ],
  "evGain": {
    "HP": 2,
    "Attack": 0,
    "Defence": 0,
    "SpecialAttack": 0,
    "SpecialDefence": 0,
    "Speed": 0
  },
  "canSurf": true,
  "maxGroupSize": 1,
  "minGroupSize": 1,
  "hoverHeight": 1.0,
  "doesHover": true,
  "id": 243,
  "baseFormID": 243,
  "weight": 15.0,
  "pokemon": "Drifblim",
  "abilities": [
    "Aftermath",
    "Unburden",
    "FlareBoost"
  ],
  "eggGroups": [
    "Amorphous"
  ],
  "eggCycles": 31,
  "form": -1,
  "evolutionDefs": [],
  "moves": {
    "levelMoves": {
      "16": [
        "Hex"
      ],
      "48": [
        "Tailwind"
      ],
      "1": [
        "Phantom Force",
        "Focus Energy",
        "Minimize",
        "Astonish",
        "Gust",
        "Strength Sap"
      ],
      "20": [
        "Shadow Ball"
      ],
      "36": [
        "Destiny Bond"
      ],
      "54": [
        "Explosion"
      ],
      "24": [
        "Spit Up",
        "Swallow",
        "Stockpile"
      ],
      "42": [
        "Baton Pass"
      ],
      "12": [
        "Payback"
      ],
      "31": [
        "Self-Destruct"
      ]
    },
    "alphaMoves":[
      "Swift",
	  "Ominous Wind",
	  "Focus Energy",
	  "Calm Mind",
	  "Rest",
	  "Mystical Fire",
	  "Charge Beam",
	  "Icy Wind",
	  "Shadow Ball",
	  "Giga Impact",
	  "Hyper Beam",
	  "Thunderbolt",
	  "Psychic"
    ],
    "eggMoves": [
      "Defog",
      "Memento",
      "Haze",
      "Clear Smog",
      "Hypnosis",
      "Disable"
    ],
    "evolutionMoves": [
      "Phantom Force"
    ],
    "tmTRMoves": [
      "Weather Ball",
      "Snore",
      "Facade",
      "Focus Energy",
      "Icy Wind",
      "Fly",
      "Rest",
      "Round",
      "Body Slam",
      "Shadow Ball",
      "Amnesia",
      "Imprison",
      "Substitute",
      "Acrobatics",
      "Attract",
      "Skill Swap",
      "Ally Switch",
      "Giga Impact",
      "Thunder Wave",
      "Payback",
      "Protect",
      "Rain Dance",
      "Thunder",
      "Self-Destruct",
      "Thief",
      "Trick",
      "Hyper Beam",
      "Sunny Day",
      "Will-O-Wisp",
      "Baton Pass",
      "Gyro Ball",
      "Calm Mind",
      "Phantom Force",
      "Psychic",
      "Brutal Swing",
      "Endure",
      "Sleep Talk",
      "Swift",
      "Hex",
      "Thunderbolt"
    ],
    "tutorMoves": {
      "Transfer": [
        "Ominous Wind",
        "Silver Wind",
        "Secret Power",
        "Psych Up",
        "Dream Eater",
        "Natural Gift",
        "Confide",
        "Cut",
        "Hidden Power",
        "Magic Coat",
        "Air Cutter",
        "Recycle",
        "Double Team",
        "Spite",
        "Shock Wave",
        "Mud-Slap",
        "Telekinesis",
        "Bind",
        "Toxic",
        "Embargo",
        "Swagger",
        "Charge Beam",
        "Pain Split",
        "Flash",
        "Rollout",
        "Return",
        "Constrict",
        "Captivate",
        "Knock Off",
        "Sucker Punch",
        "Frustration"
      ]
    }
  }
}