{
  "pixelmonName": "Dusclops",
  "spDef": 130,
  "spAtt": 60,
  "speed": 25,
  "defence": 130,
  "attack": 70,
  "hp": 40,
  "catchRate": 90,
  "malePercent": 50,
  "nationalPokedexNumber": 356,
  "spawnLevel": 38,
  "spawnLevelRange": 13,
  "baseExp": 179,
  "baseFriendship": 35,
  "rarity": {
    "day": 0,
    "dawndusk": 0,
    "night": 0
  },
  "type1": "Ghost",
  "height": 1.6,
  "width": 1.0,
  "length": 1.0,
  "giScale": 1.0,
  "canFly": false,
  "isRideable": false,
  "preEvolutions": [
    "Duskull"
  ],
  "experienceGroup": "Fast",
  "aggression": {
    "timid": 80,
    "passive": 0,
    "aggressive": 20
  },
  "spawnLocations": [
    "Land"
  ],
  "biomeIDs": [
    37,
    38,
    39,
    165,
    166,
    167
  ],
  "evGain": {
    "HP": 0,
    "Attack": 0,
    "Defence": 1,
    "SpecialAttack": 0,
    "SpecialDefence": 1,
    "Speed": 0
  },
  "canSurf": false,
  "maxGroupSize": 1,
  "minGroupSize": 1,
  "hoverHeight": 0.0,
  "doesHover": false,
  "id": 451,
  "baseFormID": 451,
  "weight": 30.6,
  "pokemon": "Dusclops",
  "abilities": [
    "Pressure",
    null,
    "Frisk"
  ],
  "eggGroups": [
    "Amorphous"
  ],
  "eggCycles": 26,
  "form": -1,
  "evolutionDefs": [
    {
      "targetId": 0,
      "formTo": -1,
      "evolveCondition": "Trade:Reaper Cloth:Dusknoir"
    }
  ],
  "moves": {
    "levelMoves": {
      "16": [
        "Night Shade"
      ],
      "32": [
        "Hex"
      ],
      "48": [
        "Future Sight"
      ],
      "1": [
        "Bind",
        "Leer",
        "Astonish",
        "Shadow Sneak",
        "Thunder Punch",
        "Disable",
        "Fire Punch",
        "Gravity",
        "Ice Punch",
        "Shadow Punch"
      ],
      "20": [
        "Payback"
      ],
      "36": [
        "Curse"
      ],
      "24": [
        "Will-O-Wisp"
      ],
      "42": [
        "Shadow Ball"
      ],
      "12": [
        "Confuse Ray"
      ],
      "28": [
        "Mean Look"
      ]
    },
    "alphaMoves":[
      "Rock Smash",
      "Bulldoze",
      "Ominous Wind",
      "Calm Mind",
      "Rest",
      "Fire Punch",
      "Thunder Punch",
      "Ice Punch",
      "Leech Life",
      "Rock Slide",
      "Charge Beam",
      "Icy Wind",
      "Shadow Ball",
      "Giga Impact",
      "Hyper Beam",
      "Ice Beam",
      "Psychic",
      "Dark Pulse"
    ],
    "eggMoves": [
      "Memento",
      "Haze",
      "Pain Split",
      "Grudge"
    ],
    "evolutionMoves": [
      "Shadow Punch"
    ],
    "tmTRMoves": [
      "Snore",
      "Facade",
      "Taunt",
      "Metronome",
      "Dark Pulse",
      "Icy Wind",
      "Revenge",
      "Mega Kick",
      "Rest",
      "Earthquake",
      "Wonder Room",
      "Rock Slide",
      "Round",
      "Body Slam",
      "Shadow Ball",
      "Bulldoze",
      "Imprison",
      "Substitute",
      "Brick Break",
      "Attract",
      "Ice Beam",
      "Skill Swap",
      "Ally Switch",
      "Giga Impact",
      "Helping Hand",
      "Payback",
      "Future Sight",
      "Protect",
      "Rain Dance",
      "Mega Punch",
      "Thief",
      "Trick",
      "Hyper Beam",
      "Sunny Day",
      "Will-O-Wisp",
      "Calm Mind",
      "Fling",
      "Psychic",
      "Rock Tomb",
      "Endure",
      "Sleep Talk",
      "Hex",
      "Thunder Punch",
      "Fire Punch",
      "Ice Punch",
      "Trick Room",
      "Blizzard"
    ],
    "tutorMoves": {
      "Regular": [
        "Skitter Smack",
        "Poltergeist"
      ],
      "Transfer": [
        "Ominous Wind",
        "Dream Eater",
        "Snatch",
        "Natural Gift",
        "Confide",
        "Double-Edge",
        "Hidden Power",
        "Power-Up Punch",
        "Double Team",
        "Spite",
        "Infestation",
        "Destiny Bond",
        "Telekinesis",
        "Seismic Toss",
        "Headbutt",
        "Dynamic Punch",
        "Swagger",
        "Charge Beam",
        "Mimic",
        "Captivate",
        "Pursuit",
        "Faint Attack",
        "Torment",
        "Frustration",
        "Rock Smash",
        "Secret Power",
        "Psych Up",
        "Counter",
        "Mud-Slap",
        "Focus Punch",
        "Toxic",
        "Embargo",
        "Flash",
        "Return",
        "Sucker Punch",
        "Strength",
        "Foresight"
      ]
    }
  }
}