{
  "pixelmonName": "Emolga",
  "spDef": 60,
  "spAtt": 75,
  "speed": 103,
  "defence": 60,
  "attack": 75,
  "hp": 55,
  "catchRate": 200,
  "malePercent": 50,
  "nationalPokedexNumber": 587,
  "spawnLevel": 5,
  "spawnLevelRange": 20,
  "baseExp": 150,
  "baseFriendship": 70,
  "rarity": {
    "day": 150,
    "dawndusk": 0,
    "night": 0
  },
  "type1": "Electric",
  "type2": "Flying",
  "height": 0.4,
  "width": 0.4,
  "length": 0.4,
  "giScale": 1.0,
  "canFly": false,
  "isRideable": false,
  "preEvolutions": [],
  "experienceGroup": "MediumFast",
  "aggression": {
    "timid": 80,
    "passive": 0,
    "aggressive": 20
  },
  "spawnLocations": [
    "Land"
  ],
  "biomeIDs": [
    21,
    22,
    23,
    149,
    151
  ],
  "evGain": {
    "HP": 0,
    "Attack": 0,
    "Defence": 0,
    "SpecialAttack": 0,
    "SpecialDefence": 0,
    "Speed": 2
  },
  "canSurf": false,
  "maxGroupSize": 1,
  "minGroupSize": 1,
  "hoverHeight": 0.0,
  "doesHover": false,
  "id": 657,
  "baseFormID": 657,
  "weight": 5.0,
  "pokemon": "Emolga",
  "abilities": [
    "Static",
    null,
    "MotorDrive"
  ],
  "eggGroups": [
    "Field"
  ],
  "eggCycles": 21,
  "form": -1,
  "evolutionDefs": [],
  "moves": {
    "levelMoves": {
      "1": [
        "Nuzzle",
        "Tail Whip"
      ],
      "50": [
        "Discharge"
      ],
      "35": [
        "Encore"
      ],
      "20": [
        "Charge"
      ],
      "5": [
        "Double Team"
      ],
      "55": [
        "Agility"
      ],
      "40": [
        "Volt Switch"
      ],
      "25": [
        "Acrobatics"
      ],
      "10": [
        "Quick Attack"
      ],
      "45": [
        "Light Screen"
      ],
      "30": [
        "Spark"
      ],
      "15": [
        "Thunder Shock"
      ]
    },
    "eggMoves": [
      "Defog",
      "Roost",
      "Astonish",
      "Tickle",
      "Covet",
      "Shock Wave"
    ],
    "evolutionMoves": [],
    "tmTRMoves": [
      "Snore",
      "Facade",
      "Taunt",
      "Air Slash",
      "Light Screen",
      "Volt Switch",
      "Eerie Impulse",
      "U-turn",
      "Solar Beam",
      "Rest",
      "Encore",
      "Iron Tail",
      "Charm",
      "Agility",
      "Round",
      "Substitute",
      "Acrobatics",
      "Attract",
      "Electroweb",
      "Thunder Wave",
      "Helping Hand",
      "Energy Ball",
      "Protect",
      "Rain Dance",
      "Thunder",
      "Wild Charge",
      "Baton Pass",
      "Fling",
      "Endure",
      "Sleep Talk",
      "Speed Swap",
      "Swift",
      "Electro Ball",
      "Thunderbolt"
    ],
    "tutorMoves": {
      "Regular": [
        "Dual Wingbeat",
        "Rising Voltage"
      ],
      "Transfer": [
        "Secret Power",
        "Tailwind",
        "Confide",
        "Cut",
        "Hidden Power",
        "Toxic",
        "Aerial Ace",
        "Swagger",
        "Charge Beam",
        "Flash",
        "Signal Beam",
        "Last Resort",
        "Return",
        "Knock Off",
        "Pursuit",
        "Ion Deluge",
        "Frustration"
      ]
    }
  }
}