{
  "pixelmonName": "Espurr",
  "spDef": 60,
  "spAtt": 63,
  "speed": 68,
  "defence": 54,
  "attack": 48,
  "hp": 62,
  "catchRate": 190,
  "malePercent": 50,
  "nationalPokedexNumber": 677,
  "spawnLevel": 10,
  "spawnLevelRange": 14,
  "baseExp": 71,
  "baseFriendship": 0,
  "rarity": {
    "day": 0,
    "dawndusk": 0,
    "night": 20
  },
  "type1": "Psychic",
  "height": 0.3,
  "width": 0.3,
  "length": 0.3,
  "giScale": 1.0,
  "canFly": false,
  "isRideable": false,
  "preEvolutions": [],
  "experienceGroup": "MediumFast",
  "aggression": {
    "timid": 80,
    "passive": 0,
    "aggressive": 20
  },
  "spawnLocations": [
    "Land"
  ],
  "biomeIDs": [
    34,
    4,
    1,
    29
  ],
  "evGain": {
    "HP": 0,
    "Attack": 0,
    "Defence": 0,
    "SpecialAttack": 0,
    "SpecialDefence": 0,
    "Speed": 1
  },
  "canSurf": false,
  "maxGroupSize": 1,
  "minGroupSize": 1,
  "hoverHeight": 0.0,
  "doesHover": false,
  "id": 746,
  "baseFormID": 746,
  "weight": 3.5,
  "pokemon": "Espurr",
  "abilities": [
    "KeenEye",
    "Infiltrator",
    "OwnTempo"
  ],
  "eggGroups": [
    "Field"
  ],
  "eggCycles": 20,
  "form": -1,
  "evolutionDefs": [
    {
      "targetId": 770,
      "evolveLevel": 25
    }
  ],
  "moves": {
    "levelMoves": {
      "1": [
        "Leer",
        "Scratch"
      ],
      "33": [
        "Psyshock"
      ],
      "18": [
        "Covet"
      ],
      "3": [
        "Fake Out"
      ],
      "21": [
        "Psybeam"
      ],
      "6": [
        "Disarming Voice"
      ],
      "9": [
        "Confusion"
      ],
      "30": [
        "Reflect",
        "Light Screen"
      ]
    },
    "eggMoves": [
      "Yawn",
      "Tickle"
    ],
    "evolutionMoves": [],
    "tmTRMoves": [
      "Snore",
      "Facade",
      "Play Rough",
      "Dark Pulse",
      "Light Screen",
      "Magic Room",
      "Rest",
      "Pay Day",
      "Wonder Room",
      "Iron Tail",
      "Work Up",
      "Nasty Plot",
      "Round",
      "Substitute",
      "Attract",
      "Skill Swap",
      "Ally Switch",
      "Thunder Wave",
      "Helping Hand",
      "Payback",
      "Energy Ball",
      "Safeguard",
      "Protect",
      "Rain Dance",
      "Fake Tears",
      "Psyshock",
      "Trick",
      "Sunny Day",
      "Calm Mind",
      "Psychic",
      "Reflect",
      "Endure",
      "Sleep Talk",
      "Swift",
      "Zen Headbutt",
      "Thunderbolt",
      "Trick Room"
    ],
    "tutorMoves": {
      "Regular": [
        "Expanding Force"
      ],
      "Transfer": [
        "Secret Power",
        "Psych Up",
        "Dream Eater",
        "Snatch",
        "Confide",
        "Cut",
        "Hidden Power",
        "Magic Coat",
        "Echoed Voice",
        "Recycle",
        "Double Team",
        "Heal Bell",
        "Shock Wave",
        "Telekinesis",
        "Toxic",
        "Barrier",
        "Swagger",
        "Charge Beam",
        "Flash",
        "Signal Beam",
        "Gravity",
        "Return",
        "Role Play",
        "Torment",
        "Assist",
        "Frustration"
      ]
    }
  }
}