{
  "pixelmonName": "Farfetchd",
  "spDef": 62,
  "spAtt": 58,
  "speed": 60,
  "defence": 55,
  "attack": 90,
  "hp": 52,
  "catchRate": 45,
  "malePercent": 50,
  "nationalPokedexNumber": 83,
  "spawnLevel": 24,
  "spawnLevelRange": 26,
  "baseExp": 94,
  "baseFriendship": 70,
  "rarity": {
    "day": 30,
    "dawndusk": 0,
    "night": 0
  },
  "type1": "Normal",
  "type2": "Flying",
  "height": 0.8,
  "width": 1.0,
  "length": 1.0,
  "giScale": 1.0,
  "canFly": true,
  "isRideable": false,
  "preEvolutions": [],
  "experienceGroup": "MediumFast",
  "aggression": {
    "timid": 80,
    "passive": 0,
    "aggressive": 20
  },
  "spawnLocations": [
    "Land"
  ],
  "biomeIDs": [
    1
  ],
  "evGain": {
    "HP": 0,
    "Attack": 1,
    "Defence": 0,
    "SpecialAttack": 0,
    "SpecialDefence": 0,
    "Speed": 0
  },
  "canSurf": false,
  "maxGroupSize": 3,
  "minGroupSize": 1,
  "hoverHeight": 0.0,
  "doesHover": false,
  "id": 154,
  "baseFormID": 154,
  "weight": 15.0,
  "pokemon": "Farfetchd",
  "abilities": [
    "KeenEye",
    "InnerFocus",
    "Defiant"
  ],
  "eggGroups": [
    "Flying",
    "Field"
  ],
  "eggCycles": 21,
  "form": -1,
  "evolutionDefs": [],
  "moves": {
    "levelMoves": {
      "1": [
        "Sand Attack",
        "Peck"
      ],
      "65": [
        "Brave Bird"
      ],
      "35": [
        "False Swipe"
      ],
      "5": [
        "Leer"
      ],
      "40": [
        "Slash"
      ],
      "10": [
        "Fury Cutter"
      ],
      "45": [
        "Swords Dance"
      ],
      "15": [
        "Cut"
      ],
      "50": [
        "Air Slash"
      ],
      "20": [
        "Aerial Ace"
      ],
      "55": [
        "Leaf Blade"
      ],
      "25": [
        "Air Cutter"
      ],
      "60": [
        "Agility"
      ],
      "30": [
        "Knock Off"
      ]
    },
    "eggMoves": [
      "Quick Attack",
      "First Impression",
      "Sky Attack",
      "Roost",
      "Gust",
      "Final Gambit",
      "Flail",
      "Simple Beam",
      "Curse",
      "Night Slash",
      "Feint",
      "Feather Dance",
      "Covet"
    ],
    "evolutionMoves": [],
    "tmTRMoves": [
      "Snore",
      "Facade",
      "Uproar",
      "Focus Energy",
      "Air Slash",
      "U-turn",
      "Retaliate",
      "Swords Dance",
      "Revenge",
      "Brave Bird",
      "Throat Chop",
      "Close Combat",
      "Rest",
      "Fly",
      "Work Up",
      "Iron Tail",
      "Agility",
      "Round",
      "Body Slam",
      "Heat Wave",
      "Substitute",
      "Leaf Blade",
      "Poison Jab",
      "Solar Blade",
      "Acrobatics",
      "Attract",
      "Helping Hand",
      "False Swipe",
      "Protect",
      "Thief",
      "Sunny Day",
      "Baton Pass",
      "Steel Wing",
      "Brutal Swing",
      "Endure",
      "Sleep Talk",
      "Swift"
    ],
    "tutorMoves": {
      "Regular": [
        "Dual Wingbeat"
      ],
      "Transfer": [
        "Ominous Wind",
        "Whirlwind",
        "Tailwind",
        "Natural Gift",
        "Confide",
        "Fury Attack",
        "Hidden Power",
        "Razor Leaf",
        "Bide",
        "Double Team",
        "Rage",
        "Headbutt",
        "Skull Bash",
        "Swagger",
        "Mimic",
        "Captivate",
        "Twister",
        "Reflect",
        "Frustration",
        "Mirror Move",
        "Laser Focus",
        "Secret Power",
        "Psych Up",
        "Trump Card",
        "Pluck",
        "Take Down",
        "Mud-Slap",
        "Toxic",
        "Razor Wind",
        "Last Resort",
        "Return",
        "Foresight"
      ],
      "Event": [
        "Wish"
      ]
    }
  }
}