{
  "pixelmonName": "Genesect",
  "spDef": 95,
  "spAtt": 120,
  "speed": 99,
  "defence": 95,
  "attack": 120,
  "hp": 71,
  "catchRate": 3,
  "malePercent": -1,
  "nationalPokedexNumber": 649,
  "spawnLevel": 50,
  "spawnLevelRange": 0,
  "baseExp": 270,
  "baseFriendship": 0,
  "rarity": {
    "day": 0,
    "dawndusk": 0,
    "night": -1
  },
  "type1": "Bug",
  "type2": "Steel",
  "height": 1.5,
  "width": 1.0,
  "length": 1.0,
  "giScale": 1.0,
  "canFly": true,
  "isRideable": true,
  "preEvolutions": [],
  "experienceGroup": "Slow",
  "aggression": {
    "timid": 80,
    "passive": 0,
    "aggressive": 20
  },
  "spawnLocations": [
    "Land"
  ],
  "biomeIDs": [
    34,
    27
  ],
  "evGain": {
    "HP": 0,
    "Attack": 1,
    "Defence": 0,
    "SpecialAttack": 1,
    "SpecialDefence": 0,
    "Speed": 1
  },
  "canSurf": false,
  "ridingOffsets": {
    "standing": {
      "x": 0.0,
      "y": -1.0,
      "z": -0.5
    },
    "moving": {
      "x": 0.0,
      "y": -1.1,
      "z": 0.0
    }
  },
  "maxGroupSize": 1,
  "minGroupSize": 1,
  "hoverHeight": 0.0,
  "doesHover": false,
  "id": 719,
  "baseFormID": 719,
  "weight": 82.5,
  "pokemon": "Genesect",
  "abilities": [
    "Download",
    null,
    null
  ],
  "eggGroups": [
    "Undiscovered"
  ],
  "eggCycles": 121,
  "form": -1,
  "evolutionDefs": [],
  "moves": {
    "levelMoves": {
      "1": [
        "Quick Attack",
        "Fury Cutter"
      ],
      "35": [
        "Metal Sound"
      ],
      "70": [
        "Zap Cannon"
      ],
      "7": [
        "Screech"
      ],
      "42": [
        "X-Scissor"
      ],
      "77": [
        "Lock-On"
      ],
      "14": [
        "Metal Claw"
      ],
      "49": [
        "Magnet Rise"
      ],
      "84": [
        "Techno Blast"
      ],
      "21": [
        "Fell Stinger"
      ],
      "56": [
        "Bug Buzz"
      ],
      "91": [
        "Self-Destruct"
      ],
      "28": [
        "Flame Charge"
      ],
      "63": [
        "Simple Beam"
      ]
    },
    "eggMoves": [],
    "evolutionMoves": [],
    "tmTRMoves": [
      "Giga Drain",
      "Snore",
      "Facade",
      "Assurance",
      "Flamethrower",
      "Dark Pulse",
      "Leech Life",
      "Light Screen",
      "U-turn",
      "Solar Beam",
      "Screech",
      "Iron Head",
      "Fly",
      "Rest",
      "Bug Buzz",
      "Round",
      "Iron Defense",
      "Substitute",
      "Gunk Shot",
      "Electroweb",
      "Ice Beam",
      "Ally Switch",
      "Giga Impact",
      "Thunder Wave",
      "Energy Ball",
      "Protect",
      "Thunder",
      "Tri Attack",
      "Self-Destruct",
      "Hyper Beam",
      "X-Scissor",
      "Flash Cannon",
      "Psychic",
      "Reflect",
      "Endure",
      "Sleep Talk",
      "Shadow Claw",
      "Swift",
      "Zen Headbutt",
      "Thunderbolt",
      "Blaze Kick",
      "Blizzard"
    ],
    "tutorMoves": {
      "Transfer": [
        "Secret Power",
        "Bug Bite",
        "Magnet Bomb",
        "Confide",
        "Slash",
        "Explosion",
        "Hidden Power",
        "Magic Coat",
        "Recycle",
        "Hone Claws",
        "Double Team",
        "Infestation",
        "Shock Wave",
        "Telekinesis",
        "Toxic",
        "Aerial Ace",
        "Struggle Bug",
        "Swagger",
        "Charge Beam",
        "Flash",
        "Signal Beam",
        "Gravity",
        "Last Resort",
        "Return",
        "Rock Polish",
        "Frustration"
      ],
      "Event": [
        "Extreme Speed"
      ]
    }
  }
}