{
  "pixelmonName": "Glastrier",
  "spDef": 110,
  "spAtt": 65,
  "speed": 30,
  "defence": 130,
  "attack": 145,
  "hp": 100,
  "catchRate": 3,
  "malePercent": -1,
  "nationalPokedexNumber": 896,
  "spawnLevel": 70,
  "spawnLevelRange": 0,
  "baseExp": 0,
  "baseFriendship": 0,
  "rarity": {
    "day": 0,
    "dawndusk": -1,
    "night": 0
  },
  "type1": "Ice",
  "height": 2.2,
  "width": 1.0,
  "length": 1.0,
  "giScale": 1.0,
  "canFly": false,
  "isRideable": true,
  "preEvolutions": [],
  "experienceGroup": "Slow",
  "aggression": {
    "timid": 80,
    "passive": 0,
    "aggressive": 20
  },
  "spawnLocations": [
    "Land"
  ],
  "biomeIDs": [
    165
  ],
  "evGain": {
    "HP": 0,
    "Attack": 3,
    "Defence": 0,
    "SpecialAttack": 0,
    "SpecialDefence": 0,
    "Speed": 0
  },
  "canSurf": false,
  "maxGroupSize": 1,
  "minGroupSize": 1,
  "hoverHeight": 0.0,
  "doesHover": false,
  "id": 1154,
  "baseFormID": 1154,
  "weight": 800.0,
  "pokemon": "Glastrier",
  "abilities": [
    "ChillingNeigh",
    null,
    null
  ],
  "eggGroups": [
    "Undiscovered"
  ],
  "eggCycles": 120,
  "form": -1,
  "evolutionDefs": [],
  "moves": {
    "levelMoves": {
      "1": [
        "Tackle",
        "Tail Whip"
      ],
      "66": [
        "Double-Edge"
      ],
      "36": [
        "Icicle Crash"
      ],
      "6": [
        "Double Kick"
      ],
      "72": [
        "Swords Dance"
      ],
      "42": [
        "Take Down"
      ],
      "12": [
        "Avalanche"
      ],
      "48": [
        "Iron Defense"
      ],
      "18": [
        "Stomp"
      ],
      "54": [
        "Thrash"
      ],
      "24": [
        "Torment"
      ],
      "60": [
        "Taunt"
      ],
      "30": [
        "Mist"
      ]
    },
    "eggMoves": [
      "Lash Out"
    ],
    "evolutionMoves": [],
    "tmTRMoves": [
      "Snore",
      "Facade",
      "Assurance",
      "Uproar",
      "Icicle Spear",
      "Taunt",
      "Heavy Slam",
      "Snarl",
      "Stomping Tantrum",
      "Swords Dance",
      "Icy Wind",
      "Throat Chop",
      "Close Combat",
      "Megahorn",
      "Rest",
      "Scary Face",
      "Round",
      "Body Slam",
      "Bulldoze",
      "Iron Defense",
      "Mud Shot",
      "Substitute",
      "Superpower",
      "Hail",
      "Ice Beam",
      "Giga Impact",
      "Crunch",
      "Body Press",
      "Payback",
      "Protect",
      "High Horsepower",
      "Hyper Beam",
      "Avalanche",
      "Outrage",
      "Endure",
      "Sleep Talk",
      "Smart Strike",
      "Blizzard"
    ],
    "tutorMoves": {
      "Regular": [
        "Lash Out"
      ]
    }
  }
}