{
  "pixelmonName": "Golem",
  "spDef": 65,
  "spAtt": 55,
  "speed": 45,
  "defence": 130,
  "attack": 120,
  "hp": 80,
  "catchRate": 45,
  "malePercent": 50,
  "nationalPokedexNumber": 76,
  "spawnLevel": 35,
  "spawnLevelRange": 15,
  "baseExp": 177,
  "baseFriendship": 70,
  "rarity": {
    "day": 0,
    "dawndusk": 0,
    "night": 0
  },
  "type1": "Rock",
  "type2": "Ground",
  "height": 1.4,
  "width": 1.0,
  "length": 1.0,
  "giScale": 0.62,
  "canFly": false,
  "isRideable": true,
  "preEvolutions": [
    "Graveler",
    "Geodude"
  ],
  "experienceGroup": "MediumSlow",
  "aggression": {
    "timid": 80,
    "passive": 0,
    "aggressive": 20
  },
  "spawnLocations": [
    "Land",
    "UnderGround"
  ],
  "biomeIDs": [
    2,
    3,
    17,
    3,
    34,
    37,
    38,
    39,
    130,
    131,
    162,
    165,
    166,
    167
  ],
  "evGain": {
    "HP": 0,
    "Attack": 0,
    "Defence": 3,
    "SpecialAttack": 0,
    "SpecialDefence": 0,
    "Speed": 0
  },
  "canSurf": false,
  "ridingOffsets": {
    "standing": {
      "x": 0.21,
      "y": -1.0,
      "z": -0.25
    }
  },
  "maxGroupSize": 1,
  "minGroupSize": 1,
  "hoverHeight": 0.0,
  "doesHover": false,
  "id": 220,
  "baseFormID": 220,
  "weight": 300.0,
  "pokemon": "Golem",
  "abilities": [
    "RockHead",
    "Sturdy",
    "SandVeil"
  ],
  "eggGroups": [
    "Mineral"
  ],
  "eggCycles": 16,
  "form": -1,
  "evolutionDefs": [],
  "moves": {
    "levelMoves": {
      "1": [
        "Tackle",
        "Heavy Slam",
        "Mega Punch",
        "Sand Attack",
        "Bide",
        "Defense Curl",
        "Rock Polish",
        "Mud Sport"
      ],
      "34": [
        "Rock Blast"
      ],
      "3": [
        "Sand Attack"
      ],
      "4": [
        "Mud Sport"
      ],
      "6": [
        "Bide",
        "Rock Polish"
      ],
      "39": [
        "Double-Edge"
      ],
      "40": [
        "Earthquake"
      ],
      "9": [
        "Rock Throw"
      ],
      "10": [
        "Steamroller"
      ],
      "12": [
        "Stealth Rock",
        "Magnitude"
      ],
      "44": [
        "Explosion"
      ],
      "15": [
        "Take Down"
      ],
      "47": [
        "Explosion"
      ],
      "16": [
        "Rock Throw"
      ],
      "18": [
        "Smack Down"
      ],
      "50": [
        "Double-Edge"
      ],
      "19": [
        "Self-Destruct"
      ],
      "22": [
        "Bulldoze"
      ],
      "54": [
        "Stone Edge"
      ],
      "23": [
        "Rock Slide"
      ],
      "24": [
        "Self-Destruct"
      ],
      "60": [
        "Heavy Slam"
      ],
      "30": [
        "Stealth Rock"
      ],
      "31": [
        "Earthquake"
      ]
    },
    "alphaMoves":[
      "Rock Smash",
      "Bulldoze",
      "Stealth Rock",
      "Rest",
      "Fire Punch",
      "Thunder Punch",
      "Rock Slide",
      "Iron Head",
      "Earth Power",
      "Giga Impact",
      "Stone Edge",
      "Hyper Beam",
      "Flamethrower"
    ],
    "eggMoves": [
      "Focus Punch",
      "Flail",
      "Wide Guard",
      "Curse",
      "Mega Punch",
      "Rock Climb",
      "Endure",
      "Autotomize",
      "Block",
      "Hammer Arm"
    ],
    "evolutionMoves": [],
    "tmTRMoves": [
      "Mega Punch",
      "Mega Kick",
      "Fire Punch",
      "Thunder Punch",
      "Hyper Beam",
      "Giga Impact",
      "Dig",
      "Self-destruct",
      "Rest",
      "Rock Slide",
      "Snore",
      "Protect",
      "Attract",
      "Sandstorm",
      "Sunny Day",
      "Facade",
      "Swift",
      "Brick Break",
      "Rock Tomb",
      "Rock Blast",
      "Fling",
      "Round",
      "Bulldoze",
      "Brutal Swing",
      "Stomping Tantrum",
      "Body Slam",
      "Flamethrower",
      "Earthquake",
      "Metronome",
      "Fire Blast",
      "Substitute",
      "Endure",
      "Sleep Talk",
      "Superpower",
      "Iron Defense",
      "Gyro Ball",
      "Focus Blast",
      "Earth Power",
      "Iron Head",
      "Stone Edge",
      "Stealth Rock",
      "Heavy Slam",
      "High Horsepower"
    ],
    "tutorMoves": {
      "Regular": [
        "Focus Punch",
        "Snore",
        "Stealth Rock",
        "Earth Power",
        "Block",
        "Iron Defense",
        "Stomping Tantrum",
        "Superpower",
        "Thunder Punch",
        "Fire Punch",
        "Iron Head"
      ],
      "Transfer": [
        "Rock Smash",
        "Secret Power",
        "Natural Gift",
        "Confide",
        "Counter",
        "Incinerate",
        "Harden",
        "Hidden Power",
        "Ancient Power",
        "Fissure",
        "Power-Up Punch",
        "Double Team",
        "Mud-Slap",
        "Toxic",
        "Seismic Toss",
        "Rage",
        "Headbutt",
        "Dynamic Punch",
        "Swagger",
        "Rollout",
        "Return",
        "Submission",
        "Nature Power",
        "Mimic",
        "Captivate",
        "Roar",
        "Fury Cutter",
        "Sucker Punch",
        "Strength",
        "Frustration"
      ]
    }
  }
}