{
  "pixelmonName": "Grapploct",
  "spDef": 80,
  "spAtt": 70,
  "speed": 42,
  "defence": 90,
  "attack": 118,
  "hp": 80,
  "catchRate": 45,
  "malePercent": 50,
  "nationalPokedexNumber": 853,
  "spawnLevel": 30,
  "spawnLevelRange": 20,
  "baseExp": 168,
  "baseFriendship": 50,
  "rarity": {
    "day": 1,
    "dawndusk": 0,
    "night": 0
  },
  "type1": "Fighting",
  "height": 1.6,
  "width": 1.0,
  "length": 1.0,
  "giScale": 1.0,
  "canFly": false,
  "isRideable": false,
  "preEvolutions": [
    "Clobbopus"
  ],
  "experienceGroup": "MediumSlow",
  "aggression": {
    "timid": 50,
    "passive": 0,
    "aggressive": 50
  },
  "spawnLocations": [
    "Land"
  ],
  "biomeIDs": [
    21
  ],
  "evGain": {
    "HP": 0,
    "Attack": 2,
    "Defence": 0,
    "SpecialAttack": 0,
    "SpecialDefence": 0,
    "Speed": 0
  },
  "canSurf": false,
  "maxGroupSize": 1,
  "minGroupSize": 1,
  "hoverHeight": 0.0,
  "doesHover": false,
  "id": 1079,
  "baseFormID": 1079,
  "weight": 4.0,
  "pokemon": "Grapploct",
  "abilities": [
    "Limber",
    null,
    "Technician"
  ],
  "eggGroups": [
    "Water1",
    "Humanlike"
  ],
  "eggCycles": 6,
  "form": -1,
  "evolutionDefs": [],
  "moves": {
    "levelMoves": {
      "1": [
        "Rock Smash",
        "Bind",
        "Leer",
        "Feint",
        "Octazooka",
        "Octolock"
      ],
      "50": [
        "Topsy-Turvy"
      ],
      "35": [
        "Taunt"
      ],
      "20": [
        "Brick Break"
      ],
      "40": [
        "Reversal"
      ],
      "25": [
        "Bulk Up"
      ],
      "45": [
        "Superpower"
      ],
      "30": [
        "Submission"
      ],
      "15": [
        "Detect"
      ]
    },
    "eggMoves": [
      "Circle Throw",
      "Sucker Punch",
      "Power-Up Punch",
      "Soak",
      "Seismic Toss",
      "Pain Split"
    ],
    "evolutionMoves": [
      "Octolock"
    ],
    "tmTRMoves": [
      "Snore",
      "Facade",
      "Taunt",
      "Waterfall",
      "Retaliate",
      "Stomping Tantrum",
      "Revenge",
      "Bulk Up",
      "Close Combat",
      "Surf",
      "Rest",
      "Work Up",
      "Hydro Pump",
      "Scary Face",
      "Round",
      "Body Slam",
      "Liquidation",
      "Mud Shot",
      "Substitute",
      "Superpower",
      "Brick Break",
      "Attract",
      "Giga Impact",
      "Payback",
      "Protect",
      "Drain Punch",
      "Dig",
      "Mega Punch",
      "Hyper Beam",
      "Brine",
      "Focus Blast",
      "Dive",
      "Brutal Swing",
      "Endure",
      "Sleep Talk",
      "Whirlpool",
      "Reversal",
      "Muddy Water",
      "Ice Punch"
    ],
    "tutorMoves": {
      "Regular": [
        "Skitter Smack",
        "Coaching"
      ]
    }
  }
}