{
  "pixelmonName": "Gyarados",
  "spDef": 100,
  "spAtt": 60,
  "speed": 81,
  "defence": 79,
  "attack": 125,
  "hp": 95,
  "catchRate": 45,
  "malePercent": 50,
  "nationalPokedexNumber": 130,
  "spawnLevel": 20,
  "spawnLevelRange": 30,
  "baseExp": 189,
  "baseFriendship": 70,
  "rarity": {
    "day": 0,
    "dawndusk": 0,
    "night": 1
  },
  "type1": "Water",
  "type2": "Flying",
  "height": 2.5,
  "width": 1.0,
  "length": 1.0,
  "giScale": 1.0,
  "canFly": false,
  "isRideable": true,
  "preEvolutions": [
    "Magikarp"
  ],
  "experienceGroup": "Slow",
  "aggression": {
    "timid": 80,
    "passive": 0,
    "aggressive": 20
  },
  "swimmingParameters": {
    "depthRangeStart": 10,
    "depthRangeEnd": 100,
    "swimSpeed": 3.0,
    "decayRate": 0.99,
    "refreshRate": 100
  },
  "spawnLocations": [
    "Water"
  ],
  "biomeIDs": [
    0,
    24
  ],
  "evGain": {
    "HP": 0,
    "Attack": 2,
    "Defence": 0,
    "SpecialAttack": 0,
    "SpecialDefence": 0,
    "Speed": 0
  },
  "canSurf": true,
  "ridingOffsets": {
    "standing": {
      "x": 0.0,
      "y": -1.0,
      "z": -1.0
    },
    "moving": {
      "x": 0.0,
      "y": -3.6,
      "z": 2.0
    }
  },
  "maxGroupSize": 1,
  "minGroupSize": 1,
  "hoverHeight": 0.0,
  "doesHover": false,
  "id": 96,
  "baseFormID": 96,
  "weight": 235.0,
  "pokemon": "Gyarados",
  "abilities": [
    "Intimidate",
    null,
    "Moxie"
  ],
  "eggGroups": [
    "Water2",
    "Dragon"
  ],
  "eggCycles": 6,
  "form": -1,
  "evolutionDefs": [],
  "moves": {
    "levelMoves": {
      "32": [
        "Aqua Tail"
      ],
      "1": [
        "Flail",
        "Leer",
        "Tackle",
        "Bite",
        "Splash",
        "Twister"
      ],
      "4": [
        "Whirlpool"
      ],
      "36": [
        "Dragon Dance"
      ],
      "8": [
        "Ice Fang"
      ],
      "40": [
        "Hydro Pump"
      ],
      "12": [
        "Brine"
      ],
      "44": [
        "Hurricane"
      ],
      "16": [
        "Scary Face"
      ],
      "48": [
        "Thrash"
      ],
      "52": [
        "Hyper Beam"
      ],
      "21": [
        "Waterfall"
      ],
      "24": [
        "Crunch"
      ],
      "28": [
        "Rain Dance"
      ]
    },
    "alphaMoves":[
      "Ice Fang",
      "Rock Smash",
      "Bulldoze",
      "Focus Energy",
      "Rest",
      "Iron Head",
      "Iron Tail",
      "Water Pulse",
      "Icy Wind",
      "Giga Impact",
      "Aqua Tail",
      "Stone Edge",
      "Outrage",
      "Hyper Beam",
      "Flamethrower",
      "Thunderbolt",
      "Ice Beam",
      "Dark Pulse"
    ],
    "eggMoves": [
      "Lash Out",
      "Scale Shot"
    ],
    "evolutionMoves": [
      "Bite"
    ],
    "tmTRMoves": [
      "Flamethrower",
      "Uproar",
      "Taunt",
      "Icy Wind",
      "Iron Head",
      "Surf",
      "Ice Fang",
      "Iron Tail",
      "Hydro Pump",
      "Body Slam",
      "Bulldoze",
      "Substitute",
      "Dragon Dance",
      "Attract",
      "Ice Beam",
      "Thunder Wave",
      "Crunch",
      "Payback",
      "Power Whip",
      "Brine",
      "Avalanche",
      "Outrage",
      "Dive",
      "Brutal Swing",
      "Endure",
      "Whirlpool",
      "Muddy Water",
      "Fire Blast",
      "Snore",
      "Facade",
      "Waterfall",
      "Dark Pulse",
      "Stone Edge",
      "Rest",
      "Earthquake",
      "Scary Face",
      "Round",
      "Sandstorm",
      "Bounce",
      "Hurricane",
      "Hail",
      "Giga Impact",
      "Dragon Pulse",
      "Protect",
      "Rain Dance",
      "Thunder",
      "Hyper Beam",
      "Scald",
      "Sleep Talk",
      "Thunderbolt",
      "Blizzard"
    ],
    "tutorMoves": {
      "Regular": [
        "Lash Out",
        "Scale Shot"
      ],
      "Transfer": [
        "Rock Smash",
        "Secret Power",
        "Bubble Beam",
        "Natural Gift",
        "Confide",
        "Curse",
        "Incinerate",
        "Double-Edge",
        "Take Down",
        "Hidden Power",
        "Water Pulse",
        "Bide",
        "Double Team",
        "Spite",
        "Bind",
        "Toxic",
        "Rage",
        "Headbutt",
        "Dragon Tail",
        "Skull Bash",
        "Dragon Rage",
        "Swagger",
        "Water Gun",
        "Return",
        "Mimic",
        "Dragon Breath",
        "Captivate",
        "Roar",
        "Reflect",
        "Torment",
        "Strength",
        "Zap Cannon",
        "Frustration"
      ]
    }
  }
}