{
  "pixelmonName": "Hattrem",
  "spDef": 73,
  "spAtt": 86,
  "speed": 49,
  "defence": 65,
  "attack": 40,
  "hp": 57,
  "catchRate": 120,
  "malePercent": 0,
  "nationalPokedexNumber": 857,
  "spawnLevel": 32,
  "spawnLevelRange": 38,
  "baseExp": 130,
  "baseFriendship": 50,
  "rarity": {
    "day": 10,
    "dawndusk": 0,
    "night": 0
  },
  "type1": "Psychic",
  "height": 1.0,
  "width": 1.0,
  "length": 1.0,
  "giScale": 1.0,
  "canFly": false,
  "isRideable": false,
  "preEvolutions": [
    "Hatenna"
  ],
  "experienceGroup": "Slow",
  "aggression": {
    "timid": 50,
    "passive": 0,
    "aggressive": 50
  },
  "spawnLocations": [],
  "biomeIDs": [],
  "evGain": {
    "HP": 0,
    "Attack": 0,
    "Defence": 0,
    "SpecialAttack": 2,
    "SpecialDefence": 0,
    "Speed": 0
  },
  "canSurf": false,
  "maxGroupSize": 1,
  "minGroupSize": 1,
  "hoverHeight": 0.0,
  "doesHover": false,
  "id": 1021,
  "baseFormID": 1021,
  "weight": 4.8,
  "pokemon": "Hattrem",
  "abilities": [
    "Healer",
    "Anticipation",
    "MagicBounce"
  ],
  "eggGroups": [
    "Fairy"
  ],
  "eggCycles": 40,
  "form": -1,
  "evolutionDefs": [
    {
      "targetId": 1022,
      "evolveLevel": 42
    }
  ],
  "moves": {
    "levelMoves": {
      "1": [
        "Disarming Voice",
        "Brutal Swing",
        "Life Dew",
        "Play Nice",
        "Confusion"
      ],
      "51": [
        "Healing Wish"
      ],
      "20": [
        "Psybeam"
      ],
      "37": [
        "Calm Mind"
      ],
      "25": [
        "Heal Pulse"
      ],
      "44": [
        "Psychic"
      ],
      "30": [
        "Dazzling Gleam"
      ],
      "15": [
        "Aromatherapy"
      ]
    },
    "eggMoves": [
      "After You",
      "Nuzzle",
      "Aromatic Mist",
      "Quash"
    ],
    "evolutionMoves": [
      "Brutal Swing"
    ],
    "tmTRMoves": [
      "Giga Drain",
      "Snore",
      "Facade",
      "Play Rough",
      "Dazzling Gleam",
      "Dark Pulse",
      "Light Screen",
      "Stored Power",
      "Magical Leaf",
      "Rest",
      "Charm",
      "Round",
      "Imprison",
      "Substitute",
      "Attract",
      "Skill Swap",
      "Thunder Wave",
      "Helping Hand",
      "Safeguard",
      "Protect",
      "Psyshock",
      "Baton Pass",
      "Calm Mind",
      "Mystical Fire",
      "Psychic",
      "Brutal Swing",
      "Endure",
      "Sleep Talk",
      "Draining Kiss"
    ],
    "tutorMoves": {
      "Regular": [
        "Expanding Force"
      ]
    }
  }
}