{
  "pixelmonName": "Heatran",
  "spDef": 106,
  "spAtt": 130,
  "speed": 77,
  "defence": 106,
  "attack": 90,
  "hp": 91,
  "catchRate": 3,
  "malePercent": 50,
  "nationalPokedexNumber": 485,
  "spawnLevel": 50,
  "spawnLevelRange": 0,
  "baseExp": 215,
  "baseFriendship": 100,
  "rarity": {
    "day": 0,
    "dawndusk": -1,
    "night": 0
  },
  "type1": "Fire",
  "type2": "Steel",
  "height": 1.3,
  "width": 1.7,
  "length": 1.7,
  "giScale": 1.0,
  "canFly": false,
  "isRideable": true,
  "preEvolutions": [],
  "experienceGroup": "Slow",
  "aggression": {
    "timid": 80,
    "passive": 0,
    "aggressive": 20
  },
  "spawnLocations": [
    "Land",
    "UnderGround"
  ],
  "biomeIDs": [
    167
  ],
  "evGain": {
    "HP": 0,
    "Attack": 0,
    "Defence": 0,
    "SpecialAttack": 3,
    "SpecialDefence": 0,
    "Speed": 0
  },
  "canSurf": false,
  "maxGroupSize": 1,
  "minGroupSize": 1,
  "hoverHeight": 0.0,
  "doesHover": false,
  "id": 563,
  "baseFormID": 563,
  "weight": 430.0,
  "pokemon": "Heatran",
  "abilities": [
    "FlashFire",
    null,
    "FlameBody"
  ],
  "eggGroups": [
    "Undiscovered"
  ],
  "eggCycles": 11,
  "form": -1,
  "evolutionDefs": [],
  "moves": {
    "levelMoves": {
      "1": [
        "Leer",
        "Fire Spin"
      ],
      "66": [
        "Stone Edge"
      ],
      "36": [
        "Crunch"
      ],
      "6": [
        "Metal Claw"
      ],
      "72": [
        "Magma Storm"
      ],
      "42": [
        "Lava Plume"
      ],
      "12": [
        "Ancient Power"
      ],
      "48": [
        "Metal Sound"
      ],
      "18": [
        "Fire Fang"
      ],
      "54": [
        "Earth Power"
      ],
      "24": [
        "Scary Face"
      ],
      "60": [
        "Heat Wave"
      ],
      "30": [
        "Iron Head"
      ]
    },
    "eggMoves": [
      "Scorching Sands",
      "Burning Jealousy",
      "Steel Roller"
    ],
    "evolutionMoves": [],
    "tmTRMoves": [
      "Snore",
      "Facade",
      "Flamethrower",
      "Uproar",
      "Taunt",
      "Heavy Slam",
      "Dark Pulse",
      "Stone Edge",
      "Overheat",
      "Fire Fang",
      "Stomping Tantrum",
      "Solar Beam",
      "Iron Head",
      "Rest",
      "Earthquake",
      "Rock Slide",
      "Earth Power",
      "Scary Face",
      "Round",
      "Body Slam",
      "Heat Wave",
      "Bulldoze",
      "Iron Defense",
      "Substitute",
      "Attract",
      "Giga Impact",
      "Crunch",
      "Body Press",
      "Payback",
      "Dragon Pulse",
      "Protect",
      "Dig",
      "Self-Destruct",
      "Hyper Beam",
      "Sunny Day",
      "Will-O-Wisp",
      "Flash Cannon",
      "Rock Tomb",
      "Endure",
      "Sleep Talk",
      "Stealth Rock",
      "Fire Spin",
      "Heat Crash",
      "Fire Blast"
    ],
    "tutorMoves": {
      "Regular": [
        "Scorching Sands",
        "Burning Jealousy",
        "Steel Roller"
      ],
      "Transfer": [
        "Rock Smash",
        "Secret Power",
        "Bug Bite",
        "Natural Gift",
        "Confide",
        "Incinerate",
        "Explosion",
        "Hidden Power",
        "Double Team",
        "Mud-Slap",
        "Toxic",
        "Rock Climb",
        "Headbutt",
        "Swagger",
        "Flame Charge",
        "Return",
        "Nature Power",
        "Captivate",
        "Roar",
        "Torment",
        "Strength",
        "Frustration"
      ]
    }
  }
}