{
  "pixelmonName": "Heliolisk",
  "spDef": 94,
  "spAtt": 109,
  "speed": 109,
  "defence": 52,
  "attack": 55,
  "hp": 62,
  "catchRate": 75,
  "malePercent": 50,
  "nationalPokedexNumber": 695,
  "spawnLevel": 45,
  "spawnLevelRange": 15,
  "baseExp": 168,
  "baseFriendship": 0,
  "rarity": {
    "day": 0,
    "dawndusk": 0,
    "night": 40
  },
  "type1": "Electric",
  "type2": "Normal",
  "height": 1.0,
  "width": 1.0,
  "length": 1.0,
  "giScale": 1.0,
  "canFly": false,
  "isRideable": false,
  "preEvolutions": [
    "Helioptile"
  ],
  "experienceGroup": "MediumFast",
  "aggression": {
    "timid": 80,
    "passive": 0,
    "aggressive": 20
  },
  "spawnLocations": [
    "Land"
  ],
  "biomeIDs": [
    2
  ],
  "evGain": {
    "HP": 0,
    "Attack": 0,
    "Defence": 0,
    "SpecialAttack": 1,
    "SpecialDefence": 0,
    "Speed": 1
  },
  "canSurf": false,
  "maxGroupSize": 1,
  "minGroupSize": 1,
  "hoverHeight": 0.0,
  "doesHover": false,
  "id": 762,
  "baseFormID": 762,
  "weight": 21.0,
  "pokemon": "Heliolisk",
  "abilities": [
    "DrySkin",
    "SandVeil",
    "SolarPower"
  ],
  "eggGroups": [
    "Monster",
    "Dragon"
  ],
  "eggCycles": 21,
  "form": -1,
  "evolutionDefs": [],
  "moves": {
    "levelMoves": {
      "1": [
        "Mud-Slap",
        "Quick Attack",
        "Thunder",
        "Tail Whip",
        "Charge",
        "Eerie Impulse",
        "Volt Switch",
        "Parabolic Charge",
        "Discharge",
        "Thunder Shock",
        "Electrify",
        "Pound",
        "Bulldoze",
        "Thunderbolt",
        "Thunder Wave"
      ]
    },
    "eggMoves": [
      "Dragon Tail",
      "Glare",
      "Dragon Rush"
    ],
    "evolutionMoves": [],
    "tmTRMoves": [
      "Light Screen",
      "Volt Switch",
      "Eerie Impulse",
      "Breaking Swipe",
      "Surf",
      "Iron Tail",
      "Agility",
      "Bulldoze",
      "Substitute",
      "Attract",
      "Electroweb",
      "Thunder Wave",
      "Mega Punch",
      "Sunny Day",
      "Electric Terrain",
      "Rock Tomb",
      "Brutal Swing",
      "Endure",
      "Swift",
      "Thunder Punch",
      "Low Sweep",
      "Fire Punch",
      "Weather Ball",
      "Snore",
      "Facade",
      "Dark Pulse",
      "Grass Knot",
      "U-turn",
      "Solar Beam",
      "Mega Kick",
      "Rest",
      "Rock Slide",
      "Round",
      "Sandstorm",
      "Ally Switch",
      "Giga Impact",
      "Hyper Voice",
      "Dragon Pulse",
      "Protect",
      "Dig",
      "Rain Dance",
      "Thunder",
      "Wild Charge",
      "Hyper Beam",
      "Focus Blast",
      "Low Kick",
      "Sleep Talk",
      "Electro Ball",
      "Thunderbolt"
    ],
    "tutorMoves": {
      "Regular": [
        "Rising Voltage",
        "Scale Shot"
      ],
      "Transfer": [
        "Secret Power",
        "Psych Up",
        "Confide",
        "Camouflage",
        "Cut",
        "Hidden Power",
        "Magnet Rise",
        "Double Team",
        "Shock Wave",
        "Toxic",
        "Razor Wind",
        "Swagger",
        "Charge Beam",
        "Flash",
        "Signal Beam",
        "Return",
        "Frustration"
      ]
    }
  }
}