{
  "pixelmonName": "Heracross",
  "spDef": 95,
  "spAtt": 40,
  "speed": 85,
  "defence": 75,
  "attack": 125,
  "hp": 80,
  "catchRate": 45,
  "malePercent": 50,
  "nationalPokedexNumber": 214,
  "spawnLevel": 10,
  "spawnLevelRange": 50,
  "baseExp": 200,
  "baseFriendship": 70,
  "rarity": {
    "day": 0,
    "dawndusk": 75,
    "night": 0
  },
  "type1": "Bug",
  "type2": "Fighting",
  "height": 1.5,
  "width": 1.0,
  "length": 1.0,
  "giScale": 1.0,
  "canFly": false,
  "isRideable": false,
  "preEvolutions": [],
  "experienceGroup": "Slow",
  "aggression": {
    "timid": 80,
    "passive": 0,
    "aggressive": 20
  },
  "spawnLocations": [
    "Land"
  ],
  "biomeIDs": [
    4,
    5,
    18,
    19,
    27,
    28,
    29,
    32,
    33,
    132,
    133,
    155,
    156,
    157,
    160,
    161
  ],
  "evGain": {
    "HP": 0,
    "Attack": 2,
    "Defence": 0,
    "SpecialAttack": 0,
    "SpecialDefence": 0,
    "Speed": 0
  },
  "canSurf": false,
  "maxGroupSize": 2,
  "minGroupSize": 1,
  "hoverHeight": 0.0,
  "doesHover": false,
  "id": 329,
  "baseFormID": 329,
  "weight": 54.0,
  "pokemon": "Heracross",
  "abilities": [
    "Swarm",
    "Guts",
    "Moxie"
  ],
  "eggGroups": [
    "Bug"
  ],
  "eggCycles": 26,
  "form": -1,
  "evolutionDefs": [],
  "moves": {
    "levelMoves": {
      "1": [
        "Leer",
        "Tackle"
      ],
      "35": [
        "Pin Missile"
      ],
      "5": [
        "Fury Attack"
      ],
      "40": [
        "Throat Chop"
      ],
      "10": [
        "Endure"
      ],
      "45": [
        "Thrash"
      ],
      "15": [
        "Aerial Ace"
      ],
      "50": [
        "Swords Dance"
      ],
      "20": [
        "Horn Attack"
      ],
      "55": [
        "Megahorn"
      ],
      "25": [
        "Counter"
      ],
      "60": [
        "Close Combat"
      ],
      "30": [
        "Brick Break"
      ]
    },
    "alphaMoves":[
      "False Swipe",
      "Rock Smash",
      "Spikes",
      "Bulldoze",
      "Aerial Ace",
      "Bulk Up",
      "Calm Mind",
      "Rest",
      "Rock Slide",
      "Shadow Claw",
      "Giga Impact",
      "High Horsepower",
      "Megahorn",
      "Stone Edge",
      "Outrage",
      "Hyper Beam"
    ],
    "eggMoves": [
      "Flail",
      "Take Down",
      "Night Slash",
      "Feint",
      "Seismic Toss",
      "Harden",
      "Double-Edge"
    ],
    "evolutionMoves": [],
    "tmTRMoves": [
      "Pin Missile",
      "Snore",
      "Facade",
      "Assurance",
      "Stone Edge",
      "Retaliate",
      "Swords Dance",
      "Revenge",
      "Rock Blast",
      "Bulk Up",
      "Throat Chop",
      "Close Combat",
      "Megahorn",
      "Rest",
      "Earthquake",
      "Work Up",
      "Rock Slide",
      "Bullet Seed",
      "Round",
      "Body Slam",
      "Bulldoze",
      "Iron Defense",
      "Substitute",
      "Brick Break",
      "Attract",
      "Giga Impact",
      "Helping Hand",
      "False Swipe",
      "Protect",
      "Venoshock",
      "Dig",
      "Rain Dance",
      "High Horsepower",
      "Thief",
      "Hyper Beam",
      "Sunny Day",
      "Focus Blast",
      "Spikes",
      "Fling",
      "Rock Tomb",
      "Brutal Swing",
      "Low Kick",
      "Endure",
      "Sleep Talk",
      "Reversal",
      "Shadow Claw",
      "Smart Strike"
    ],
    "tutorMoves": {
      "Regular": [
        "Coaching"
      ],
      "Transfer": [
        "Rock Smash",
        "Secret Power",
        "Bug Bite",
        "Detect",
        "Natural Gift",
        "Confide",
        "Chip Away",
        "Curse",
        "Cut",
        "Hidden Power",
        "Vacuum Wave",
        "Smack Down",
        "Bide",
        "Double Team",
        "Focus Punch",
        "Toxic",
        "Struggle Bug",
        "Headbutt",
        "Arm Thrust",
        "Swagger",
        "Return",
        "Mimic",
        "Captivate",
        "Knock Off",
        "Pursuit",
        "Fury Cutter",
        "Strength",
        "Frustration"
      ]
    }
  }
}