{
  "pixelmonName": "Herdier",
  "spDef": 65,
  "spAtt": 35,
  "speed": 60,
  "defence": 65,
  "attack": 80,
  "hp": 65,
  "catchRate": 120,
  "malePercent": 50,
  "nationalPokedexNumber": 507,
  "spawnLevel": 16,
  "spawnLevelRange": 16,
  "baseExp": 130,
  "baseFriendship": 70,
  "rarity": {
    "day": 90,
    "dawndusk": 0,
    "night": 0
  },
  "type1": "Normal",
  "height": 0.9,
  "width": 0.7,
  "length": 0.7,
  "giScale": 1.0,
  "canFly": false,
  "isRideable": false,
  "preEvolutions": [
    "Lillipup"
  ],
  "experienceGroup": "MediumSlow",
  "aggression": {
    "timid": 80,
    "passive": 0,
    "aggressive": 20
  },
  "spawnLocations": [
    "Land"
  ],
  "biomeIDs": [
    1
  ],
  "evGain": {
    "HP": 0,
    "Attack": 2,
    "Defence": 0,
    "SpecialAttack": 0,
    "SpecialDefence": 0,
    "Speed": 0
  },
  "canSurf": false,
  "maxGroupSize": 1,
  "minGroupSize": 1,
  "hoverHeight": 0.0,
  "doesHover": false,
  "id": 584,
  "baseFormID": 584,
  "weight": 14.7,
  "pokemon": "Herdier",
  "abilities": [
    "Intimidate",
    "SandRush",
    "Scrappy"
  ],
  "eggGroups": [
    "Field"
  ],
  "eggCycles": 16,
  "form": -1,
  "evolutionDefs": [
    {
      "targetId": 585,
      "evolveLevel": 32
    }
  ],
  "moves": {
    "levelMoves": {
      "48": [
        "Reversal"
      ],
      "1": [
        "Leer",
        "Tackle",
        "Work Up",
        "Bite"
      ],
      "66": [
        "Giga Impact"
      ],
      "19": [
        "Baby-Doll Eyes"
      ],
      "36": [
        "Take Down"
      ],
      "54": [
        "Roar"
      ],
      "24": [
        "Play Rough"
      ],
      "42": [
        "Helping Hand"
      ],
      "12": [
        "Retaliate"
      ],
      "60": [
        "Last Resort"
      ],
      "30": [
        "Crunch"
      ]
    },
    "eggMoves": [
      "Mud-Slap",
      "After You",
      "Lick",
      "Yawn",
      "Covet",
      "Howl"
    ],
    "evolutionMoves": [],
    "tmTRMoves": [
      "Snore",
      "Facade",
      "Uproar",
      "Play Rough",
      "Snarl",
      "Fire Fang",
      "Retaliate",
      "Surf",
      "Rest",
      "Thunder Fang",
      "Ice Fang",
      "Work Up",
      "Charm",
      "Round",
      "Shadow Ball",
      "Substitute",
      "Attract",
      "Giga Impact",
      "Thunder Wave",
      "Crunch",
      "Hyper Voice",
      "Helping Hand",
      "Payback",
      "Protect",
      "Dig",
      "Rain Dance",
      "Wild Charge",
      "Sunny Day",
      "Psychic Fangs",
      "Rock Tomb",
      "Endure",
      "Sleep Talk",
      "Reversal",
      "Thunderbolt"
    ],
    "tutorMoves": {
      "Transfer": [
        "Rock Smash",
        "Secret Power",
        "Confide",
        "Hidden Power",
        "Double Team",
        "Shock Wave",
        "Toxic",
        "Sand Attack",
        "Aerial Ace",
        "Swagger",
        "Return",
        "Odor Sleuth",
        "Pursuit",
        "Strength",
        "Frustration"
      ]
    }
  }
}