{
  "pixelmonName": "Incineroar",
  "spDef": 90,
  "spAtt": 80,
  "speed": 60,
  "defence": 90,
  "attack": 115,
  "hp": 95,
  "catchRate": 45,
  "malePercent": 88,
  "nationalPokedexNumber": 727,
  "spawnLevel": 35,
  "spawnLevelRange": 25,
  "baseExp": 239,
  "baseFriendship": 70,
  "rarity": {
    "day": 0,
    "dawndusk": 0,
    "night": 10
  },
  "type1": "Fire",
  "type2": "Dark",
  "height": 1.8,
  "width": 1.0,
  "length": 1.0,
  "giScale": 1.0,
  "canFly": false,
  "isRideable": false,
  "preEvolutions": [
    "Torracat",
    "Litten"
  ],
  "experienceGroup": "MediumSlow",
  "aggression": {
    "timid": 80,
    "passive": 0,
    "aggressive": 20
  },
  "spawnLocations": [
    "Land"
  ],
  "biomeIDs": [
    1
  ],
  "evGain": {
    "HP": 0,
    "Attack": 3,
    "Defence": 0,
    "SpecialAttack": 0,
    "SpecialDefence": 0,
    "Speed": 0
  },
  "canSurf": false,
  "maxGroupSize": 1,
  "minGroupSize": 1,
  "hoverHeight": 0.0,
  "doesHover": false,
  "id": 857,
  "baseFormID": 857,
  "weight": 83.0,
  "pokemon": "Incineroar",
  "abilities": [
    "Blaze",
    null,
    "Intimidate"
  ],
  "eggGroups": [
    "Field"
  ],
  "eggCycles": 15,
  "form": -1,
  "evolutionDefs": [],
  "moves": {
    "levelMoves": {
      "32": [
        "Swagger"
      ],
      "1": [
        "Lick",
        "Scratch",
        "Cross Chop",
        "Growl",
        "Ember",
        "Darkest Lariat",
        "Bulk Up",
        "Throat Chop"
      ],
      "51": [
        "Thrash"
      ],
      "20": [
        "Double Kick"
      ],
      "9": [
        "Roar"
      ],
      "25": [
        "Fire Fang"
      ],
      "58": [
        "Flare Blitz"
      ],
      "12": [
        "Fury Swipes"
      ],
      "44": [
        "Flamethrower"
      ],
      "30": [
        "Scary Face"
      ],
      "15": [
        "Bite"
      ]
    },
    "eggMoves": [
      "Parting Shot",
      "Power Trip",
      "Fake Out"
    ],
    "evolutionMoves": [
      "Darkest Lariat"
    ],
    "tmTRMoves": [
      "Assurance",
      "Flamethrower",
      "Taunt",
      "Leech Life",
      "Overheat",
      "Fire Fang",
      "Swords Dance",
      "Revenge",
      "Throat Chop",
      "Close Combat",
      "Iron Head",
      "Work Up",
      "Nasty Plot",
      "Body Slam",
      "Heat Wave",
      "Bulldoze",
      "Substitute",
      "Attract",
      "Crunch",
      "Drain Punch",
      "Mega Punch",
      "Sunny Day",
      "Darkest Lariat",
      "Outrage",
      "Fling",
      "Brutal Swing",
      "Endure",
      "Fire Spin",
      "Heat Crash",
      "Blaze Kick",
      "Thunder Punch",
      "Low Sweep",
      "Fire Punch",
      "Fire Blast",
      "Snore",
      "Facade",
      "Snarl",
      "Dark Pulse",
      "U-turn",
      "Stomping Tantrum",
      "Bulk Up",
      "Mega Kick",
      "Rest",
      "Earthquake",
      "Pay Day",
      "Scary Face",
      "Round",
      "Superpower",
      "Brick Break",
      "Acrobatics",
      "Giga Impact",
      "Protect",
      "Hyper Beam",
      "Will-O-Wisp",
      "Focus Blast",
      "Flare Blitz",
      "Low Kick",
      "Sleep Talk",
      "Reversal",
      "Shadow Claw"
    ],
    "tutorMoves": {
      "Regular": [
        "Scorching Sands",
        "Lash Out",
        "Burning Jealousy"
      ],
      "Transfer": [
        "Snatch",
        "Confide",
        "Quash",
        "Leer",
        "Hidden Power",
        "Double Team",
        "Bind",
        "Blast Burn",
        "Flame Charge",
        "Knock Off",
        "Torment",
        "Covet",
        "Frustration",
        "Fire Pledge",
        "Dual Chop",
        "Focus Punch",
        "Toxic",
        "Embargo",
        "Endeavor",
        "Return"
      ]
    }
  }
}