{
  "pixelmonName": "Larvitar",
  "spDef": 50,
  "spAtt": 45,
  "speed": 41,
  "defence": 50,
  "attack": 64,
  "hp": 50,
  "catchRate": 45,
  "malePercent": 50,
  "nationalPokedexNumber": 246,
  "spawnLevel": 5,
  "spawnLevelRange": 24,
  "baseExp": 67,
  "baseFriendship": 35,
  "rarity": {
    "day": 0,
    "dawndusk": 0,
    "night": 120
  },
  "type1": "Rock",
  "type2": "Ground",
  "height": 0.6,
  "width": 0.7,
  "length": 0.7,
  "giScale": 1.0,
  "canFly": false,
  "isRideable": false,
  "preEvolutions": [],
  "experienceGroup": "Slow",
  "aggression": {
    "timid": 80,
    "passive": 0,
    "aggressive": 20
  },
  "spawnLocations": [
    "Land",
    "UnderGround"
  ],
  "biomeIDs": [
    3,
    3,
    34,
    37,
    38,
    39,
    131,
    162,
    165,
    166,
    167
  ],
  "evGain": {
    "HP": 0,
    "Attack": 1,
    "Defence": 0,
    "SpecialAttack": 0,
    "SpecialDefence": 0,
    "Speed": 0
  },
  "canSurf": false,
  "maxGroupSize": 3,
  "minGroupSize": 1,
  "hoverHeight": 0.0,
  "doesHover": false,
  "id": 356,
  "baseFormID": 356,
  "weight": 72.0,
  "pokemon": "Larvitar",
  "abilities": [
    "Guts",
    null,
    "SandVeil"
  ],
  "eggGroups": [
    "Monster"
  ],
  "eggCycles": 41,
  "form": -1,
  "evolutionDefs": [
    {
      "targetId": 357,
      "evolveLevel": 30
    }
  ],
  "moves": {
    "levelMoves": {
      "1": [
        "Leer",
        "Tackle"
      ],
      "33": [
        "Stone Edge"
      ],
      "3": [
        "Rock Throw"
      ],
      "36": [
        "Thrash"
      ],
      "6": [
        "Payback"
      ],
      "39": [
        "Sandstorm"
      ],
      "9": [
        "Bite"
      ],
      "42": [
        "Hyper Beam"
      ],
      "12": [
        "Scary Face"
      ],
      "15": [
        "Rock Slide"
      ],
      "18": [
        "Stomping Tantrum"
      ],
      "21": [
        "Screech"
      ],
      "24": [
        "Dark Pulse"
      ],
      "27": [
        "Crunch"
      ],
      "31": [
        "Earthquake"
      ]
    },
    "eggMoves": [
      "Curse",
      "Ancient Power",
      "Stomp"
    ],
    "evolutionMoves": [],
    "tmTRMoves": [
      "Snore",
      "Facade",
      "Assurance",
      "Uproar",
      "Taunt",
      "Focus Energy",
      "Snarl",
      "Dark Pulse",
      "Stone Edge",
      "Retaliate",
      "Stomping Tantrum",
      "Screech",
      "Iron Head",
      "Rest",
      "Sand Tomb",
      "Earthquake",
      "Iron Tail",
      "Rock Slide",
      "Earth Power",
      "Scary Face",
      "Round",
      "Body Slam",
      "Sandstorm",
      "Bulldoze",
      "Iron Defense",
      "Substitute",
      "Superpower",
      "Brick Break",
      "Dragon Dance",
      "Attract",
      "Crunch",
      "Payback",
      "Protect",
      "Dig",
      "Rain Dance",
      "Hyper Beam",
      "Sunny Day",
      "Outrage",
      "Rock Tomb",
      "Endure",
      "Sleep Talk",
      "Stealth Rock",
      "Muddy Water"
    ],
    "tutorMoves": {
      "Transfer": [
        "Rock Smash",
        "Secret Power",
        "Detect",
        "Natural Gift",
        "Confide",
        "Chip Away",
        "Double-Edge",
        "Hidden Power",
        "Power-Up Punch",
        "Smack Down",
        "Double Team",
        "Spite",
        "Mud-Slap",
        "Toxic",
        "Headbutt",
        "Swagger",
        "Return",
        "Mimic",
        "Captivate",
        "Rock Polish",
        "Pursuit",
        "Torment",
        "Frustration"
      ]
    }
  }
}