{
  "pixelmonName": "Leafeon",
  "spDef": 65,
  "spAtt": 60,
  "speed": 95,
  "defence": 130,
  "attack": 110,
  "hp": 65,
  "catchRate": 45,
  "malePercent": 87,
  "nationalPokedexNumber": 470,
  "spawnLevel": 45,
  "spawnLevelRange": 5,
  "baseExp": 184,
  "baseFriendship": 35,
  "rarity": {
    "day": 0,
    "dawndusk": 0,
    "night": 0
  },
  "type1": "Grass",
  "height": 1.0,
  "width": 1.0,
  "length": 1.0,
  "giScale": 1.0,
  "canFly": false,
  "isRideable": true,
  "preEvolutions": [
    "Eevee"
  ],
  "experienceGroup": "MediumFast",
  "aggression": {
    "timid": 80,
    "passive": 0,
    "aggressive": 20
  },
  "spawnLocations": [
    "Land"
  ],
  "biomeIDs": [
    4,
    18
  ],
  "evGain": {
    "HP": 0,
    "Attack": 0,
    "Defence": 2,
    "SpecialAttack": 0,
    "SpecialDefence": 0,
    "Speed": 0
  },
  "canSurf": false,
  "ridingOffsets": {
    "standing": {
      "x": 0.0,
      "y": -0.5,
      "z": 0.0
    },
    "moving": {
      "x": 0.0,
      "y": -0.5,
      "z": 0.0
    }
  },
  "maxGroupSize": 1,
  "minGroupSize": 1,
  "hoverHeight": 0.0,
  "doesHover": false,
  "id": 33,
  "baseFormID": 33,
  "weight": 25.5,
  "pokemon": "Leafeon",
  "abilities": [
    "LeafGuard",
    null,
    "Chlorophyll"
  ],
  "eggGroups": [
    "Field"
  ],
  "eggCycles": 36,
  "form": -1,
  "evolutionDefs": [],
  "moves": {
    "levelMoves": {
      "1": [
        "Helping Hand",
        "Tail Whip",
        "Take Down",
        "Bite",
        "Growl",
        "Baton Pass",
        "Copycat",
        "Tackle",
        "Razor Leaf",
        "Charm",
        "Swift",
        "Covet",
        "Double-Edge"
      ],
      "50": [
        "Leaf Blade"
      ],
      "35": [
        "Sunny Day"
      ],
      "20": [
        "Leech Seed"
      ],
      "5": [
        "Sand Attack"
      ],
      "55": [
        "Last Resort"
      ],
      "40": [
        "Giga Drain"
      ],
      "25": [
        "Magical Leaf"
      ],
      "10": [
        "Quick Attack"
      ],
      "45": [
        "Swords Dance"
      ],
      "30": [
        "Synthesis"
      ],
      "15": [
        "Baby-Doll Eyes"
      ]
    },
		"alphaMoves":[
      "Swift",
	  "Rock Smash",
	  "Aerial Ace",
	  "Magical Leaf",
	  "Focus Energy",
	  "Calm Mind",
	  "Rest",
	  "Baby-Doll Eyes",
	  "X-Scissor",
	  "Iron Tail",
	  "Energy Ball",
	  "Shadow Ball",
	  "Giga Impact",
	  "Hyper Beam"
    ],
    "eggMoves": [
      "Mud-Slap",
      "Flail",
      "Curse",
      "Yawn",
      "Double Kick",
      "Tickle",
      "Detect",
      "Wish"
    ],
    "evolutionMoves": [
      "Razor Leaf"
    ],
    "tmTRMoves": [
      "Giga Drain",
      "Weather Ball",
      "Snore",
      "Facade",
      "Focus Energy",
      "Grass Knot",
      "Retaliate",
      "Swords Dance",
      "Solar Beam",
      "Stored Power",
      "Magical Leaf",
      "Rest",
      "Seed Bomb",
      "Pay Day",
      "Iron Tail",
      "Work Up",
      "Charm",
      "Bullet Seed",
      "Round",
      "Body Slam",
      "Shadow Ball",
      "Leaf Storm",
      "Substitute",
      "Leaf Blade",
      "Solar Blade",
      "Attract",
      "Giga Impact",
      "Hyper Voice",
      "Helping Hand",
      "Energy Ball",
      "Protect",
      "Dig",
      "Rain Dance",
      "Fake Tears",
      "Hyper Beam",
      "Sunny Day",
      "Baton Pass",
      "X-Scissor",
      "Endure",
      "Sleep Talk",
      "Swift"
    ],
    "tutorMoves": {
      "Regular": [
        "Grassy Glide"
      ],
      "Transfer": [
        "Rock Smash",
        "Secret Power",
        "Grass Whistle",
        "Natural Gift",
        "Confide",
        "Hidden Power",
        "Echoed Voice",
        "Synchronoise",
        "Double Team",
        "Heal Bell",
        "Worry Seed",
        "Toxic",
        "Aerial Ace",
        "Headbutt",
        "Swagger",
        "Flash",
        "Return",
        "Nature Power",
        "Captivate",
        "Knock Off",
        "Roar",
        "Fury Cutter",
        "Strength",
        "Frustration",
        "Laser Focus"
      ],
      "Event": [
        "Celebrate"
      ]
    }
  }
}