{
  "pixelmonName": "Lileep",
  "spDef": 87,
  "spAtt": 61,
  "speed": 23,
  "defence": 77,
  "attack": 41,
  "hp": 66,
  "catchRate": 45,
  "malePercent": 87,
  "nationalPokedexNumber": 345,
  "spawnLevel": 30,
  "spawnLevelRange": 10,
  "baseExp": 99,
  "baseFriendship": 70,
  "rarity": {
    "day": 0,
    "dawndusk": 0,
    "night": 0
  },
  "type1": "Rock",
  "type2": "Grass",
  "height": 1.0,
  "width": 1.0,
  "length": 1.0,
  "giScale": 0.7,
  "canFly": false,
  "isRideable": false,
  "preEvolutions": [],
  "experienceGroup": "Erratic",
  "aggression": {
    "timid": 80,
    "passive": 0,
    "aggressive": 20
  },
  "spawnLocations": [
    "Land"
  ],
  "biomeIDs": [
    0
  ],
  "evGain": {
    "HP": 0,
    "Attack": 0,
    "Defence": 0,
    "SpecialAttack": 0,
    "SpecialDefence": 1,
    "Speed": 0
  },
  "canSurf": false,
  "maxGroupSize": 1,
  "minGroupSize": 1,
  "hoverHeight": 0.0,
  "doesHover": false,
  "id": 16,
  "baseFormID": 16,
  "weight": 23.8,
  "pokemon": "Lileep",
  "abilities": [
    "SuctionCups",
    null,
    "StormDrain"
  ],
  "eggGroups": [
    "Water3"
  ],
  "eggCycles": 31,
  "form": -1,
  "evolutionDefs": [
    {
      "targetId": 28,
      "evolveLevel": 40
    }
  ],
  "moves": {
    "levelMoves": {
      "16": [
        "Ancient Power"
      ],
      "32": [
        "Gastro Acid"
      ],
      "1": [
        "Wrap",
        "Astonish"
      ],
      "4": [
        "Acid"
      ],
      "20": [
        "Mega Drain"
      ],
      "36": [
        "Giga Drain"
      ],
      "8": [
        "Confuse Ray"
      ],
      "24": [
        "Brine"
      ],
      "41": [
        "Spit Up",
        "Swallow",
        "Stockpile"
      ],
      "12": [
        "Ingrain"
      ],
      "28": [
        "Amnesia"
      ],
      "44": [
        "Energy Ball"
      ]
    },
    "eggMoves": [
      "Bind",
      "Curse",
      "Mirror Coat",
      "Recover",
      "Tickle"
    ],
    "evolutionMoves": [],
    "tmTRMoves": [
      "Giga Drain",
      "Snore",
      "Facade",
      "Sludge Bomb",
      "Grass Knot",
      "Swords Dance",
      "Solar Beam",
      "Rock Blast",
      "Rest",
      "Seed Bomb",
      "Rock Slide",
      "Earth Power",
      "Bullet Seed",
      "Round",
      "Body Slam",
      "Sandstorm",
      "Amnesia",
      "Mud Shot",
      "Substitute",
      "Attract",
      "Energy Ball",
      "Protect",
      "Sunny Day",
      "Brine",
      "Rock Tomb",
      "Endure",
      "Sleep Talk",
      "Stealth Rock"
    ],
    "tutorMoves": {
      "Regular": [
        "Meteor Beam"
      ],
      "Transfer": [
        "Secret Power",
        "Psych Up",
        "Natural Gift",
        "Confide",
        "Synthesis",
        "Double-Edge",
        "Hidden Power",
        "Smack Down",
        "Double Team",
        "Infestation",
        "Mud-Slap",
        "Worry Seed",
        "Toxic",
        "Barrier",
        "Swagger",
        "Pain Split",
        "Flash",
        "Return",
        "Mimic",
        "Constrict",
        "Captivate",
        "Rock Polish",
        "Wring Out",
        "String Shot",
        "Frustration"
      ]
    }
  }
}