{
  "pixelmonName": "Lurantis",
  "spDef": 90,
  "spAtt": 80,
  "speed": 45,
  "defence": 90,
  "attack": 105,
  "hp": 70,
  "catchRate": 75,
  "malePercent": 50,
  "nationalPokedexNumber": 754,
  "spawnLevel": 35,
  "spawnLevelRange": 15,
  "baseExp": 168,
  "baseFriendship": 70,
  "rarity": {
    "day": 30,
    "dawndusk": 0,
    "night": 30
  },
  "type1": "Grass",
  "height": 0.9,
  "width": 0.7,
  "length": 0.3,
  "giScale": 1.0,
  "canFly": false,
  "isRideable": false,
  "preEvolutions": [
    "Fomantis"
  ],
  "experienceGroup": "MediumFast",
  "aggression": {
    "timid": 85,
    "passive": 0,
    "aggressive": 15
  },
  "spawnLocations": [
    "Land"
  ],
  "biomeIDs": [
    18,
    132
  ],
  "evGain": {
    "HP": 0,
    "Attack": 2,
    "Defence": 0,
    "SpecialAttack": 0,
    "SpecialDefence": 0,
    "Speed": 0
  },
  "canSurf": false,
  "maxGroupSize": 1,
  "minGroupSize": 1,
  "hoverHeight": 0.0,
  "doesHover": false,
  "id": 915,
  "baseFormID": 915,
  "weight": 18.5,
  "pokemon": "Lurantis",
  "abilities": [
    "LeafGuard",
    null,
    "Contrary"
  ],
  "eggGroups": [
    "Grass"
  ],
  "eggCycles": 20,
  "form": -1,
  "evolutionDefs": [],
  "moves": {
    "levelMoves": {
      "1": [
        "Growth",
        "Petal Blizzard",
        "Night Slash",
        "Leafage",
        "Ingrain",
        "Dual Chop",
        "Solar Beam",
        "Fury Cutter"
      ],
      "51": [
        "Sunny Day"
      ],
      "20": [
        "Sweet Scent"
      ],
      "37": [
        "Synthesis"
      ],
      "25": [
        "Slash"
      ],
      "44": [
        "Leaf Blade"
      ],
      "30": [
        "X-Scissor"
      ],
      "15": [
        "Razor Leaf"
      ],
      "63": [
        "Solar Blade"
      ]
    },
    "eggMoves": [
      "Defog",
      "Worry Seed",
      "Aromatherapy"
    ],
    "evolutionMoves": [
      "Petal Blizzard"
    ],
    "tmTRMoves": [
      "Giga Drain",
      "Weather Ball",
      "Snore",
      "Facade",
      "Cross Poison",
      "Leech Life",
      "Grass Knot",
      "Swords Dance",
      "Solar Beam",
      "Magical Leaf",
      "Rest",
      "Seed Bomb",
      "Bullet Seed",
      "Round",
      "Leaf Storm",
      "Grassy Terrain",
      "Substitute",
      "Superpower",
      "Leaf Blade",
      "Poison Jab",
      "Solar Blade",
      "Brick Break",
      "Attract",
      "Giga Impact",
      "Payback",
      "Energy Ball",
      "Safeguard",
      "False Swipe",
      "Protect",
      "Hyper Beam",
      "Sunny Day",
      "X-Scissor",
      "Fling",
      "Endure",
      "Sleep Talk",
      "Psycho Cut",
      "Low Sweep"
    ],
    "tutorMoves": {
      "Regular": [
        "Grassy Glide"
      ],
      "Transfer": [
        "Bug Bite",
        "Confide",
        "Hidden Power",
        "Double Team",
        "Toxic",
        "Aerial Ace",
        "Swagger",
        "Signal Beam",
        "Return",
        "Nature Power",
        "Knock Off",
        "Frustration",
        "Laser Focus"
      ]
    }
  }
}