{
  "pixelmonName": "Machoke",
  "spDef": 60,
  "spAtt": 50,
  "speed": 45,
  "defence": 70,
  "attack": 100,
  "hp": 80,
  "catchRate": 90,
  "malePercent": 75,
  "nationalPokedexNumber": 67,
  "spawnLevel": 28,
  "spawnLevelRange": 11,
  "baseExp": 146,
  "baseFriendship": 70,
  "rarity": {
    "day": 45,
    "dawndusk": 0,
    "night": 0
  },
  "type1": "Fighting",
  "height": 1.5,
  "width": 1.0,
  "length": 1.0,
  "giScale": 0.5,
  "canFly": false,
  "isRideable": false,
  "preEvolutions": [
    "Machop"
  ],
  "experienceGroup": "MediumSlow",
  "aggression": {
    "timid": 80,
    "passive": 0,
    "aggressive": 20
  },
  "spawnLocations": [
    "Land"
  ],
  "biomeIDs": [
    3,
    3,
    34,
    131,
    162
  ],
  "evGain": {
    "HP": 0,
    "Attack": 2,
    "Defence": 0,
    "SpecialAttack": 0,
    "SpecialDefence": 0,
    "Speed": 0
  },
  "canSurf": false,
  "maxGroupSize": 2,
  "minGroupSize": 1,
  "hoverHeight": 0.0,
  "doesHover": false,
  "id": 150,
  "baseFormID": 150,
  "weight": 70.5,
  "pokemon": "Machoke",
  "abilities": [
    "Guts",
    "NoGuard",
    "Steadfast"
  ],
  "eggGroups": [
    "Humanlike"
  ],
  "eggCycles": 21,
  "form": -1,
  "evolutionDefs": [
    {
      "targetId": 151,
      "evolveCondition": "Trade:Machamp"
    }
  ],
  "moves": {
    "levelMoves": {
      "16": [
        "Knock Off"
      ],
      "48": [
        "Seismic Toss"
      ],
      "1": [
        "Leer",
        "Focus Energy",
        "Low Kick",
        "Revenge"
      ],
      "66": [
        "Double-Edge"
      ],
      "20": [
        "Scary Face"
      ],
      "36": [
        "Dual Chop"
      ],
      "54": [
        "Dynamic Punch"
      ],
      "24": [
        "Vital Throw"
      ],
      "42": [
        "Bulk Up"
      ],
      "12": [
        "Low Sweep"
      ],
      "60": [
        "Cross Chop"
      ],
      "31": [
        "Strength"
      ]
    },
    "alphaMoves":[
      "Rock Smash",
      "Bulldoze",
      "Focus Energy",
      "Bulk Up",
      "Rest",
      "Fire Punch",
      "Thunder Punch",
      "Ice Punch",
      "Poison Jab",
      "Rock Slide",
      "Flamethrower"
    ],
    "eggMoves": [
      "Counter",
      "Submission",
      "Quick Guard",
      "Tickle",
      "Bullet Punch"
    ],
    "evolutionMoves": [],
    "tmTRMoves": [
      "Snore",
      "Facade",
      "Flamethrower",
      "Heavy Slam",
      "Focus Energy",
      "Metronome",
      "Light Screen",
      "Retaliate",
      "Stomping Tantrum",
      "Revenge",
      "Bulk Up",
      "Close Combat",
      "Mega Kick",
      "Rest",
      "Encore",
      "Earthquake",
      "Work Up",
      "Rock Slide",
      "Scary Face",
      "Round",
      "Body Slam",
      "Bulldoze",
      "Substitute",
      "Superpower",
      "Poison Jab",
      "Brick Break",
      "Attract",
      "Helping Hand",
      "Payback",
      "Protect",
      "Dig",
      "Rain Dance",
      "Mega Punch",
      "Thief",
      "Sunny Day",
      "Focus Blast",
      "Fling",
      "Rock Tomb",
      "Low Kick",
      "Endure",
      "Sleep Talk",
      "Reversal",
      "Thunder Punch",
      "Low Sweep",
      "Fire Punch",
      "Ice Punch",
      "Fire Blast"
    ],
    "tutorMoves": {
      "Regular": [
        "Coaching"
      ],
      "Transfer": [
        "Detect",
        "Natural Gift",
        "Confide",
        "Incinerate",
        "Hidden Power",
        "Power-Up Punch",
        "Bide",
        "Double Team",
        "Rage",
        "Headbutt",
        "Skull Bash",
        "Swagger",
        "Rolling Kick",
        "Mimic",
        "Captivate",
        "Meditate",
        "Wake-Up Slap",
        "Role Play",
        "Smelling Salts",
        "Frustration",
        "Rock Smash",
        "Secret Power",
        "Curse",
        "Karate Chop",
        "Take Down",
        "Vacuum Wave",
        "Fissure",
        "Smack Down",
        "Mud-Slap",
        "Focus Punch",
        "Toxic",
        "Rock Climb",
        "Power Trick",
        "Return",
        "Foresight"
      ]
    }
  }
}