{
  "pixelmonName": "Magearna",
  "spDef": 115,
  "spAtt": 130,
  "speed": 65,
  "defence": 115,
  "attack": 95,
  "hp": 80,
  "catchRate": 3,
  "malePercent": -1,
  "nationalPokedexNumber": 801,
  "spawnLevel": 70,
  "spawnLevelRange": 0,
  "baseExp": 120,
  "baseFriendship": 0,
  "rarity": {
    "day": -1,
    "dawndusk": 0,
    "night": 0
  },
  "type1": "Steel",
  "type2": "Fairy",
  "height": 0.99,
  "width": 1.0,
  "length": 1.0,
  "giScale": 1.0,
  "canFly": false,
  "isRideable": false,
  "preEvolutions": [],
  "experienceGroup": "Slow",
  "aggression": {
    "timid": 80,
    "passive": 0,
    "aggressive": 20
  },
  "spawnLocations": [
    "Land"
  ],
  "biomeIDs": [
    132
  ],
  "evGain": {
    "HP": 0,
    "Attack": 0,
    "Defence": 0,
    "SpecialAttack": 3,
    "SpecialDefence": 0,
    "Speed": 0
  },
  "canSurf": false,
  "maxGroupSize": 1,
  "minGroupSize": 1,
  "hoverHeight": 0.0,
  "doesHover": false,
  "id": 891,
  "baseFormID": 891,
  "weight": 80.5,
  "pokemon": "Magearna",
  "abilities": [
    "SoulHeart",
    null,
    null
  ],
  "eggGroups": [
    "Undiscovered"
  ],
  "eggCycles": 120,
  "form": -1,
  "evolutionDefs": [],
  "moves": {
    "levelMoves": {
      "1": [
        "Helping Hand",
        "Gyro Ball"
      ],
      "66": [
        "Aura Sphere"
      ],
      "36": [
        "Aurora Beam"
      ],
      "6": [
        "Defense Curl"
      ],
      "72": [
        "Flash Cannon"
      ],
      "42": [
        "Mind Reader"
      ],
      "12": [
        "Rollout"
      ],
      "78": [
        "Pain Split"
      ],
      "48": [
        "Shift Gear"
      ],
      "18": [
        "Iron Defense"
      ],
      "84": [
        "Zap Cannon"
      ],
      "54": [
        "Crafty Shield"
      ],
      "24": [
        "Gear Up"
      ],
      "90": [
        "Fleur Cannon"
      ],
      "60": [
        "Iron Head"
      ],
      "30": [
        "Psybeam"
      ]
    },
    "eggMoves": [
      "Steel Roller",
      "Misty Explosion"
    ],
    "evolutionMoves": [],
    "tmTRMoves": [
      "Snore",
      "Dazzling Gleam",
      "Light Screen",
      "Volt Switch",
      "Eerie Impulse",
      "Grass Knot",
      "Solar Beam",
      "Iron Head",
      "Stored Power",
      "Rest",
      "Encore",
      "Agility",
      "Aura Sphere",
      "Round",
      "Shadow Ball",
      "Iron Defense",
      "Imprison",
      "Substitute",
      "Brick Break",
      "Power Swap",
      "Electroweb",
      "Ice Beam",
      "Giga Impact",
      "Thunder Wave",
      "Helping Hand",
      "Energy Ball",
      "False Swipe",
      "Protect",
      "Guard Swap",
      "Tri Attack",
      "Self-Destruct",
      "Trick",
      "Hyper Beam",
      "Baton Pass",
      "Gyro Ball",
      "Flash Cannon",
      "Focus Blast",
      "Calm Mind",
      "Reflect",
      "Endure",
      "Speed Swap",
      "Zen Headbutt",
      "Electro Ball",
      "Thunderbolt",
      "Draining Kiss",
      "Trick Room"
    ],
    "tutorMoves": {
      "Regular": [
        "Steel Roller",
        "Misty Explosion",
        "Steel Beam"
      ],
      "Transfer": [
        "After You",
        "Confide",
        "Trump Card",
        "Explosion",
        "Hidden Power",
        "Magnet Rise",
        "Heart Swap",
        "Lucky Chant",
        "Echoed Voice",
        "Synchronoise",
        "Double Team",
        "Heal Bell",
        "Shock Wave",
        "Embargo",
        "Mirror Shot",
        "Swagger",
        "Charge Beam",
        "Signal Beam",
        "Last Resort",
        "Sonic Boom",
        "Return",
        "Frustration"
      ]
    }
  }
}