{
  "pixelmonName": "Magnezone",
  "spDef": 90,
  "spAtt": 130,
  "speed": 60,
  "defence": 115,
  "attack": 70,
  "hp": 70,
  "catchRate": 30,
  "malePercent": -1,
  "nationalPokedexNumber": 462,
  "spawnLevel": 35,
  "spawnLevelRange": 15,
  "baseExp": 211,
  "baseFriendship": 70,
  "rarity": {
    "day": 0,
    "dawndusk": 0,
    "night": 0
  },
  "type1": "Electric",
  "type2": "Steel",
  "height": 1.0,
  "width": 1.2,
  "length": 1.2,
  "giScale": 1.0,
  "canFly": false,
  "isRideable": false,
  "preEvolutions": [
    "Magneton",
    "Magnemite"
  ],
  "experienceGroup": "MediumFast",
  "aggression": {
    "timid": 80,
    "passive": 0,
    "aggressive": 20
  },
  "spawnLocations": [
    "Land"
  ],
  "biomeIDs": [
    3,
    3,
    34,
    131,
    162
  ],
  "evGain": {
    "HP": 0,
    "Attack": 0,
    "Defence": 0,
    "SpecialAttack": 3,
    "SpecialDefence": 0,
    "Speed": 0
  },
  "canSurf": false,
  "maxGroupSize": 1,
  "minGroupSize": 1,
  "hoverHeight": 1.0,
  "doesHover": true,
  "id": 543,
  "baseFormID": 543,
  "weight": 180.0,
  "pokemon": "Magnezone",
  "abilities": [
    "MagnetPull",
    "Sturdy",
    "Analytic"
  ],
  "eggGroups": [
    "Mineral"
  ],
  "eggCycles": 21,
  "form": -1,
  "evolutionDefs": [],
  "moves": {
    "levelMoves": {
      "16": [
        "Gyro Ball"
      ],
      "64": [
        "Zap Cannon"
      ],
      "1": [
        "Magnetic Flux",
        "Supersonic",
        "Electric Terrain",
        "Tackle",
        "Tri Attack",
        "Thunder Shock",
        "Mirror Coat",
        "Thunder Wave"
      ],
      "34": [
        "Flash Cannon"
      ],
      "20": [
        "Spark"
      ],
      "52": [
        "Light Screen"
      ],
      "24": [
        "Screech"
      ],
      "40": [
        "Discharge"
      ],
      "58": [
        "Lock-On"
      ],
      "12": [
        "Electro Ball"
      ],
      "28": [
        "Magnet Rise"
      ],
      "46": [
        "Metal Sound"
      ]
    },
    "alphaMoves":[
      "Swift",
      "Tri Attack",
      "Rest",
      "Iron Head",
      "Charge Beam",
      "Flash Cannon",
      "Giga Impact",
      "Wild Charge",
      "Hyper Beam",
      "Thunderbolt",
      "Steel Beam"
    ],
    "eggMoves": [
      "Steel Roller",
      "Rising Voltage"
    ],
    "evolutionMoves": [],
    "tmTRMoves": [
      "Snore",
      "Facade",
      "Heavy Slam",
      "Light Screen",
      "Volt Switch",
      "Screech",
      "Iron Head",
      "Rest",
      "Round",
      "Iron Defense",
      "Substitute",
      "Electroweb",
      "Ally Switch",
      "Giga Impact",
      "Thunder Wave",
      "Body Press",
      "Protect",
      "Rain Dance",
      "Thunder",
      "Tri Attack",
      "Self-Destruct",
      "Wild Charge",
      "Hyper Beam",
      "Sunny Day",
      "Gyro Ball",
      "Flash Cannon",
      "Electric Terrain",
      "Reflect",
      "Endure",
      "Sleep Talk",
      "Swift",
      "Electro Ball",
      "Thunderbolt"
    ],
    "tutorMoves": {
      "Regular": [
        "Steel Roller",
        "Rising Voltage",
        "Steel Beam"
      ],
      "Transfer": [
        "Secret Power",
        "Psych Up",
        "Magnet Bomb",
        "Natural Gift",
        "Confide",
        "Explosion",
        "Hidden Power",
        "Magic Coat",
        "Recycle",
        "Double Team",
        "Shock Wave",
        "Toxic",
        "Barrier",
        "Mirror Shot",
        "Swagger",
        "Charge Beam",
        "Flash",
        "Rollout",
        "Signal Beam",
        "Gravity",
        "Sonic Boom",
        "Return",
        "Frustration"
      ]
    }
  }
}