{
  "pixelmonName": "Manaphy",
  "spDef": 100,
  "spAtt": 100,
  "speed": 100,
  "defence": 100,
  "attack": 100,
  "hp": 100,
  "catchRate": 3,
  "malePercent": -1,
  "nationalPokedexNumber": 490,
  "spawnLevel": 70,
  "spawnLevelRange": 0,
  "baseExp": 270,
  "baseFriendship": 70,
  "rarity": {
    "day": -1,
    "dawndusk": 0,
    "night": 0
  },
  "type1": "Water",
  "height": 0.3,
  "width": 0.7,
  "length": 0.7,
  "giScale": 1.0,
  "canFly": false,
  "isRideable": false,
  "preEvolutions": [],
  "experienceGroup": "Slow",
  "aggression": {
    "timid": 80,
    "passive": 0,
    "aggressive": 20
  },
  "spawnLocations": [
    "Water"
  ],
  "biomeIDs": [
    24
  ],
  "evGain": {
    "HP": 3,
    "Attack": 0,
    "Defence": 0,
    "SpecialAttack": 0,
    "SpecialDefence": 0,
    "Speed": 0
  },
  "canSurf": true,
  "maxGroupSize": 1,
  "minGroupSize": 1,
  "hoverHeight": 0.0,
  "doesHover": false,
  "id": 568,
  "baseFormID": 568,
  "weight": 1.4,
  "pokemon": "Manaphy",
  "abilities": [
    "Hydration",
    null,
    null
  ],
  "eggGroups": [
    "Water1",
    "Fairy"
  ],
  "eggCycles": 11,
  "form": -1,
  "evolutionDefs": [],
  "moves": {
    "levelMoves": {
      "16": [
        "Supersonic"
      ],
      "1": [
        "Bubble",
        "Water Sport",
        "Tail Glow"
      ],
      "69": [
        "Rain Dance"
      ],
      "54": [
        "Aqua Ring"
      ],
      "39": [
        "Whirlpool"
      ],
      "24": [
        "Bubble Beam"
      ],
      "9": [
        "Charm"
      ],
      "76": [
        "Heart Swap"
      ],
      "61": [
        "Dive"
      ],
      "46": [
        "Water Pulse"
      ],
      "31": [
        "Acid Armor"
      ]
    },
    "eggMoves": [
      "Helping Hand",
      "Last Resort",
      "Snore",
      "Uproar",
      "Knock Off",
      "Icy Wind",
      "Water Pulse",
      "Bounce",
      "Liquidation",
      "Heal Bell",
      "Covet",
      "Signal Beam",
      "Skill Swap"
    ],
    "evolutionMoves": [],
    "tmTRMoves": [
      "Hyper Beam",
      "Giga Impact",
      "Light Screen",
      "Reflect",
      "Safeguard",
      "Rest",
      "Snore",
      "Protect",
      "Icy Wind",
      "Charm",
      "Rain Dance",
      "Hail",
      "Whirlpool",
      "Facade",
      "Helping Hand",
      "Dive",
      "Bounce",
      "Brine",
      "U-turn",
      "Fling",
      "Round",
      "Surf",
      "Ice Beam",
      "Blizzard",
      "Psychic",
      "Waterfall",
      "Substitute",
      "Endure",
      "Sleep Talk",
      "Shadow Ball",
      "Uproar",
      "Skill Swap",
      "Calm Mind",
      "Energy Ball",
      "Grass Knot",
      "Scald",
      "Dazzling Gleam",
      "Liquidation"
    ],
    "tutorMoves": {
      "Regular": [
        "Helping Hand",
        "Last Resort",
        "Snore",
        "Uproar",
        "Knock Off",
        "Icy Wind",
        "Water Pulse",
        "Bounce",
        "Liquidation",
        "Heal Bell",
        "Covet",
        "Signal Beam",
        "Skill Swap"
      ],
      "Transfer": [
        "Secret Power",
        "Psych Up",
        "Natural Gift",
        "Confide",
        "Hidden Power",
        "Ancient Power",
        "Double Team",
        "Swift",
        "Mud-Slap",
        "Toxic",
        "Swagger",
        "Flash",
        "Return",
        "Frustration"
      ]
    }
  }
}