{
  "pixelmonName": "Mandibuzz",
  "spDef": 95,
  "spAtt": 55,
  "speed": 80,
  "defence": 105,
  "attack": 65,
  "hp": 110,
  "catchRate": 60,
  "malePercent": 0,
  "nationalPokedexNumber": 630,
  "spawnLevel": 54,
  "spawnLevelRange": 6,
  "baseExp": 179,
  "baseFriendship": 35,
  "rarity": {
    "day": 0,
    "dawndusk": 0,
    "night": 40
  },
  "type1": "Dark",
  "type2": "Flying",
  "height": 1.2,
  "width": 1.0,
  "length": 1.0,
  "giScale": 1.0,
  "canFly": true,
  "isRideable": true,
  "preEvolutions": [
    "Vullaby"
  ],
  "experienceGroup": "Slow",
  "aggression": {
    "timid": 80,
    "passive": 0,
    "aggressive": 20
  },
  "spawnLocations": [
    "Land"
  ],
  "biomeIDs": [
    2,
    17,
    130,
    2,
    130,
    17,
    2,
    17,
    130
  ],
  "evGain": {
    "HP": 0,
    "Attack": 0,
    "Defence": 0,
    "SpecialAttack": 2,
    "SpecialDefence": 0,
    "Speed": 0
  },
  "canSurf": false,
  "ridingOffsets": {
    "standing": {
      "x": 0.0,
      "y": -0.5,
      "z": 0.0
    },
    "moving": {
      "x": 0.0,
      "y": -0.5,
      "z": 0.0
    }
  },
  "maxGroupSize": 1,
  "minGroupSize": 1,
  "hoverHeight": 0.0,
  "doesHover": false,
  "id": 700,
  "baseFormID": 700,
  "weight": 39.5,
  "pokemon": "Mandibuzz",
  "abilities": [
    "BigPecks",
    "Overcoat",
    "WeakArmor"
  ],
  "eggGroups": [
    "Flying"
  ],
  "eggCycles": 21,
  "form": -1,
  "evolutionDefs": [],
  "moves": {
    "levelMoves": {
      "48": [
        "Dark Pulse"
      ],
      "64": [
        "Defog"
      ],
      "80": [
        "Brave Bird"
      ],
      "1": [
        "Leer",
        "Bone Rush",
        "Flatter",
        "Sky Attack",
        "Toxic",
        "Pluck",
        "Gust"
      ],
      "18": [
        "Tailwind"
      ],
      "36": [
        "Whirlwind"
      ],
      "24": [
        "Knock Off"
      ],
      "72": [
        "Attract"
      ],
      "57": [
        "Nasty Plot"
      ],
      "42": [
        "Air Slash"
      ],
      "30": [
        "Iron Defense"
      ]
    },
    "eggMoves": [
      "Roost",
      "Toxic",
      "Mean Look"
    ],
    "evolutionMoves": [
      "Bone Rush"
    ],
    "tmTRMoves": [
      "Snore",
      "Facade",
      "Assurance",
      "Taunt",
      "Snarl",
      "Dark Pulse",
      "Air Slash",
      "U-turn",
      "Retaliate",
      "Brave Bird",
      "Fly",
      "Rest",
      "Nasty Plot",
      "Scary Face",
      "Round",
      "Shadow Ball",
      "Heat Wave",
      "Iron Defense",
      "Substitute",
      "Attract",
      "Giga Impact",
      "Payback",
      "Protect",
      "Rain Dance",
      "Thief",
      "Fake Tears",
      "Hyper Beam",
      "Sunny Day",
      "Foul Play",
      "Rock Tomb",
      "Steel Wing",
      "Endure",
      "Sleep Talk",
      "Swift"
    ],
    "tutorMoves": {
      "Regular": [
        "Lash Out",
        "Dual Wingbeat"
      ],
      "Transfer": [
        "Rock Smash",
        "Secret Power",
        "Psych Up",
        "Snatch",
        "Confide",
        "Incinerate",
        "Fury Attack",
        "Cut",
        "Hidden Power",
        "Block",
        "Double Team",
        "Punishment",
        "Aerial Ace",
        "Embargo",
        "Swagger",
        "Return",
        "Faint Attack",
        "Torment",
        "Frustration",
        "Mirror Move"
      ]
    }
  }
}