{
  "pixelmonName": "Maractus",
  "spDef": 67,
  "spAtt": 106,
  "speed": 60,
  "defence": 67,
  "attack": 86,
  "hp": 75,
  "catchRate": 255,
  "malePercent": 50,
  "nationalPokedexNumber": 556,
  "spawnLevel": 15,
  "spawnLevelRange": 30,
  "baseExp": 161,
  "baseFriendship": 70,
  "rarity": {
    "day": 75,
    "dawndusk": 0,
    "night": 0
  },
  "type1": "Grass",
  "height": 1.0,
  "width": 1.0,
  "length": 1.0,
  "giScale": 1.0,
  "canFly": false,
  "isRideable": false,
  "preEvolutions": [],
  "experienceGroup": "MediumFast",
  "aggression": {
    "timid": 80,
    "passive": 0,
    "aggressive": 20
  },
  "spawnLocations": [
    "Land"
  ],
  "biomeIDs": [
    2,
    17,
    130
  ],
  "evGain": {
    "HP": 0,
    "Attack": 0,
    "Defence": 0,
    "SpecialAttack": 2,
    "SpecialDefence": 0,
    "Speed": 0
  },
  "canSurf": false,
  "maxGroupSize": 1,
  "minGroupSize": 1,
  "hoverHeight": 0.0,
  "doesHover": false,
  "id": 631,
  "baseFormID": 631,
  "weight": 28.0,
  "pokemon": "Maractus",
  "abilities": [
    "WaterAbsorb",
    "Chlorophyll",
    "StormDrain"
  ],
  "eggGroups": [
    "Grass"
  ],
  "eggCycles": 21,
  "form": -1,
  "evolutionDefs": [],
  "moves": {
    "levelMoves": {
      "32": [
        "Synthesis"
      ],
      "1": [
        "After You",
        "Absorb",
        "Peck",
        "Ingrain",
        "Spiky Shield"
      ],
      "4": [
        "Growth"
      ],
      "36": [
        "Petal Blizzard"
      ],
      "8": [
        "Mega Drain"
      ],
      "40": [
        "Cotton Spore"
      ],
      "12": [
        "Leech Seed"
      ],
      "44": [
        "Sunny Day"
      ],
      "16": [
        "Sucker Punch"
      ],
      "48": [
        "Solar Beam"
      ],
      "20": [
        "Pin Missile"
      ],
      "52": [
        "Acupressure"
      ],
      "24": [
        "Giga Drain"
      ],
      "56": [
        "Petal Dance"
      ],
      "28": [
        "Sweet Scent"
      ],
      "60": [
        "Cotton Guard"
      ]
    },
    "eggMoves": [
      "Worry Seed",
      "Wood Hammer"
    ],
    "evolutionMoves": [],
    "tmTRMoves": [
      "Pin Missile",
      "Giga Drain",
      "Weather Ball",
      "Snore",
      "Facade",
      "Assurance",
      "Uproar",
      "Grass Knot",
      "Solar Beam",
      "Throat Chop",
      "Screech",
      "Rest",
      "Seed Bomb",
      "Bullet Seed",
      "Round",
      "Leaf Storm",
      "Bounce",
      "Grassy Terrain",
      "Substitute",
      "Poison Jab",
      "Attract",
      "Hyper Voice",
      "Helping Hand",
      "Energy Ball",
      "Safeguard",
      "Protect",
      "Drain Punch",
      "Rain Dance",
      "Sunny Day",
      "Spikes",
      "Endure",
      "Sleep Talk"
    ],
    "tutorMoves": {
      "Regular": [
        "Grassy Glide"
      ],
      "Transfer": [
        "Secret Power",
        "Grass Whistle",
        "Confide",
        "Hidden Power",
        "Double Team",
        "Toxic",
        "Aerial Ace",
        "Swagger",
        "Needle Arm",
        "Endeavor",
        "Return",
        "Nature Power",
        "Knock Off",
        "Frustration"
      ]
    }
  }
}