{
  "pixelmonName": "Meowstic",
  "spDef": 81,
  "spAtt": 83,
  "speed": 104,
  "defence": 76,
  "attack": 48,
  "hp": 74,
  "catchRate": 75,
  "malePercent": 100,
  "nationalPokedexNumber": 678,
  "spawnLevel": 30,
  "spawnLevelRange": 10,
  "baseExp": 163,
  "baseFriendship": 0,
  "rarity": {
    "day": 0,
    "dawndusk": 0,
    "night": 50
  },
  "type1": "Psychic",
  "height": 0.6,
  "width": 0.6,
  "length": 0.6,
  "giScale": 1.0,
  "canFly": false,
  "isRideable": false,
  "preEvolutions": [
    "Espurr"
  ],
  "experienceGroup": "MediumFast",
  "aggression": {
    "timid": 80,
    "passive": 0,
    "aggressive": 20
  },
  "spawnLocations": [
    "Land"
  ],
  "biomeIDs": [
    34
  ],
  "evGain": {
    "HP": 0,
    "Attack": 0,
    "Defence": 0,
    "SpecialAttack": 0,
    "SpecialDefence": 0,
    "Speed": 2
  },
  "canSurf": false,
  "maxGroupSize": 1,
  "minGroupSize": 1,
  "hoverHeight": 0.0,
  "doesHover": false,
  "id": 770,
  "baseFormID": 770,
  "weight": 8.5,
  "pokemon": "Meowstic",
  "abilities": [
    "KeenEye",
    "Infiltrator",
    "Prankster"
  ],
  "eggGroups": [
    "Field"
  ],
  "eggCycles": 21,
  "form": -1,
  "evolutionDefs": [],
  "moves": {
    "levelMoves": {
      "1": [
        "Disarming Voice",
        "Magical Leaf",
        "Leer",
        "Scratch",
        "Fake Out",
        "Mean Look"
      ],
      "34": [
        "Reflect",
        "Light Screen"
      ],
      "39": [
        "Psyshock"
      ],
      "9": [
        "Confusion"
      ],
      "12": [
        "Helping Hand",
        "Stored Power"
      ],
      "44": [
        "Imprison",
        "Extrasensory"
      ],
      "15": [
        "Charm",
        "Charge Beam"
      ],
      "49": [
        "Shadow Ball",
        "Quick Guard"
      ],
      "18": [
        "Covet"
      ],
      "21": [
        "Psybeam"
      ],
      "54": [
        "Psychic"
      ],
      "24": [
        "Sucker Punch"
      ],
      "59": [
        "Future Sight",
        "Misty Terrain"
      ],
      "29": [
        "Role Play"
      ]
    },
    "eggMoves": [
      "Yawn",
      "Tickle"
    ],
    "evolutionMoves": [],
    "tmTRMoves": [
      "Play Rough",
      "Light Screen",
      "Magical Leaf",
      "Wonder Room",
      "Iron Tail",
      "Work Up",
      "Nasty Plot",
      "Imprison",
      "Substitute",
      "Attract",
      "Thunder Wave",
      "Payback",
      "Future Sight",
      "Fake Tears",
      "Sunny Day",
      "Calm Mind",
      "Psychic Terrain",
      "Endure",
      "Swift",
      "Zen Headbutt",
      "Trick Room",
      "Snore",
      "Facade",
      "Dark Pulse",
      "Magic Room",
      "Stored Power",
      "Rest",
      "Pay Day",
      "Charm",
      "Round",
      "Misty Terrain",
      "Shadow Ball",
      "Skill Swap",
      "Ally Switch",
      "Giga Impact",
      "Helping Hand",
      "Energy Ball",
      "Safeguard",
      "Protect",
      "Dig",
      "Rain Dance",
      "Psyshock",
      "Trick",
      "Hyper Beam",
      "Tail Slap",
      "Psychic",
      "Reflect",
      "Sleep Talk",
      "Thunderbolt"
    ],
    "tutorMoves": {
      "Regular": [
        "Expanding Force"
      ],
      "Transfer": [
        "Secret Power",
        "Psych Up",
        "Dream Eater",
        "Snatch",
        "Confide",
        "Me First",
        "Cut",
        "Hidden Power",
        "Magic Coat",
        "Power-Up Punch",
        "Echoed Voice",
        "Recycle",
        "Double Team",
        "Heal Bell",
        "Shock Wave",
        "Telekinesis",
        "Toxic",
        "Barrier",
        "Swagger",
        "Flash",
        "Signal Beam",
        "Gravity",
        "Return",
        "Miracle Eye",
        "Torment",
        "Assist",
        "Frustration"
      ]
    }
  }
}