{
  "pixelmonName": "Metapod",
  "spDef": 25,
  "spAtt": 25,
  "speed": 30,
  "defence": 55,
  "attack": 20,
  "hp": 50,
  "catchRate": 120,
  "malePercent": 50,
  "nationalPokedexNumber": 11,
  "spawnLevel": 7,
  "spawnLevelRange": 3,
  "baseExp": 72,
  "baseFriendship": 70,
  "rarity": {
    "day": 0,
    "dawndusk": 100,
    "night": 0
  },
  "type1": "Bug",
  "height": 0.7,
  "width": 0.3,
  "length": 0.3,
  "giScale": 1.0,
  "canFly": false,
  "isRideable": false,
  "preEvolutions": [
    "Caterpie"
  ],
  "experienceGroup": "MediumFast",
  "aggression": {
    "timid": 80,
    "passive": 0,
    "aggressive": 20
  },
  "spawnLocations": [
    "Land"
  ],
  "biomeIDs": [
    4,
    18,
    129,
    132
  ],
  "evGain": {
    "HP": 0,
    "Attack": 0,
    "Defence": 2,
    "SpecialAttack": 0,
    "SpecialDefence": 0,
    "Speed": 0
  },
  "canSurf": false,
  "maxGroupSize": 1,
  "minGroupSize": 1,
  "hoverHeight": 0.0,
  "doesHover": false,
  "id": 133,
  "baseFormID": 133,
  "weight": 9.9,
  "pokemon": "Metapod",
  "abilities": [
    "ShedSkin",
    null,
    null
  ],
  "eggGroups": [
    "Bug"
  ],
  "eggCycles": 11,
  "form": -1,
  "evolutionDefs": [
    {
      "targetId": 134,
      "evolveLevel": 10
    }
  ],
  "moves": {
    "levelMoves": {
      "1": [
        "Harden"
      ]
    },
    "eggMoves": [],
    "evolutionMoves": [
      "Harden"
    ],
    "tmTRMoves": [
      "Iron Defense",
      "Electroweb"
    ],
    "tutorMoves": {
      "Transfer": [
        "Tackle",
        "String Shot",
        "Bug Bite"
      ]
    }
  }
}