{
  "pixelmonName": "Morpeko",
  "spDef": 58,
  "spAtt": 70,
  "speed": 97,
  "defence": 58,
  "attack": 95,
  "hp": 58,
  "catchRate": 180,
  "malePercent": 50,
  "nationalPokedexNumber": 877,
  "spawnLevel": 20,
  "spawnLevelRange": 10,
  "baseExp": 153,
  "baseFriendship": 50,
  "rarity": {
    "day": 1,
    "dawndusk": 0,
    "night": 0
  },
  "type1": "Electric",
  "type2": "Dark",
  "height": 0.3,
  "width": 1.0,
  "length": 1.0,
  "giScale": 1.0,
  "canFly": false,
  "isRideable": false,
  "preEvolutions": [],
  "experienceGroup": "MediumFast",
  "aggression": {
    "timid": 80,
    "passive": 0,
    "aggressive": 20
  },
  "spawnLocations": [
    "Land"
  ],
  "biomeIDs": [
    21
  ],
  "evGain": {
    "HP": 0,
    "Attack": 0,
    "Defence": 0,
    "SpecialAttack": 0,
    "SpecialDefence": 0,
    "Speed": 2
  },
  "canSurf": false,
  "maxGroupSize": 1,
  "minGroupSize": 1,
  "hoverHeight": 0.0,
  "doesHover": false,
  "id": 1113,
  "baseFormID": 1112,
  "weight": 3.0,
  "pokemon": "Morpeko",
  "abilities": [
    "Hunger Switch",
    null,
    null
  ],
  "eggGroups": [
    "Field",
    "Fairy"
  ],
  "eggCycles": 6,
  "form": 1,
  "evolutionDefs": [],
  "moves": {
    "levelMoves": {
      "1": [
        "Tail Whip",
        "Thunder Shock"
      ],
      "35": [
        "Torment"
      ],
      "5": [
        "Leer"
      ],
      "40": [
        "Agility"
      ],
      "10": [
        "Power Trip"
      ],
      "45": [
        "Bullet Seed"
      ],
      "15": [
        "Quick Attack"
      ],
      "50": [
        "Crunch"
      ],
      "20": [
        "Flatter"
      ],
      "55": [
        "Aura Wheel"
      ],
      "25": [
        "Bite"
      ],
      "60": [
        "Thrash"
      ],
      "30": [
        "Spark"
      ]
    },
    "eggMoves": [
      "Parting Shot",
      "Rapid Spin",
      "Super Fang",
      "Fake Out",
      "Swagger",
      "Charge",
      "Tickle",
      "Quash"
    ],
    "evolutionMoves": [],
    "tmTRMoves": [
      "Snore",
      "Facade",
      "Assurance",
      "Uproar",
      "Taunt",
      "Snarl",
      "Dark Pulse",
      "Volt Switch",
      "Fire Fang",
      "Stomping Tantrum",
      "Revenge",
      "Rest",
      "Thunder Fang",
      "Seed Bomb",
      "Ice Fang",
      "Agility",
      "Nasty Plot",
      "Scary Face",
      "Bullet Seed",
      "Round",
      "Substitute",
      "Brick Break",
      "Attract",
      "Electroweb",
      "Thunder Wave",
      "Crunch",
      "Payback",
      "Protect",
      "Thunder",
      "Wild Charge",
      "Thief",
      "Fake Tears",
      "Psychic Fangs",
      "Outrage",
      "Fling",
      "Electric Terrain",
      "Foul Play",
      "Endure",
      "Sleep Talk",
      "Swift",
      "Electro Ball",
      "Thunderbolt",
      "Thunder Punch"
    ],
    "tutorMoves": {
      "Regular": [
        "Lash Out",
        "Rising Voltage"
      ]
    }
  }
}