{
  "pixelmonName": "Nihilego",
  "spDef": 131,
  "spAtt": 127,
  "speed": 103,
  "defence": 47,
  "attack": 53,
  "hp": 109,
  "catchRate": 45,
  "malePercent": -1,
  "nationalPokedexNumber": 793,
  "spawnLevel": 70,
  "spawnLevelRange": 0,
  "baseExp": 257,
  "baseFriendship": 0,
  "rarity": {
    "day": -1,
    "dawndusk": 0,
    "night": 0
  },
  "type1": "Rock",
  "type2": "Poison",
  "height": 1.0,
  "width": 1.0,
  "length": 1.0,
  "giScale": 0.6,
  "canFly": false,
  "isRideable": false,
  "preEvolutions": [],
  "experienceGroup": "Slow",
  "aggression": {
    "timid": 20,
    "passive": 0,
    "aggressive": 80
  },
  "spawnLocations": [],
  "biomeIDs": [],
  "evGain": {
    "HP": 0,
    "Attack": 0,
    "Defence": 0,
    "SpecialAttack": 0,
    "SpecialDefence": 3,
    "Speed": 0
  },
  "canSurf": false,
  "maxGroupSize": 1,
  "minGroupSize": 1,
  "hoverHeight": 0.0,
  "doesHover": false,
  "id": 979,
  "baseFormID": 979,
  "weight": 55.5,
  "pokemon": "Nihilego",
  "abilities": [
    "BeastBoost",
    null,
    null
  ],
  "eggGroups": [
    "Undiscovered"
  ],
  "eggCycles": 120,
  "form": -1,
  "evolutionDefs": [],
  "moves": {
    "levelMoves": {
      "1": [
        "Wrap",
        "Pound"
      ],
      "65": [
        "Wonder Room"
      ],
      "35": [
        "Headbutt"
      ],
      "5": [
        "Acid"
      ],
      "70": [
        "Head Smash"
      ],
      "40": [
        "Toxic Spikes"
      ],
      "10": [
        "Tickle"
      ],
      "45": [
        "Venom Drench"
      ],
      "15": [
        "Acid Spray"
      ],
      "50": [
        "Power Gem"
      ],
      "20": [
        "Clear Smog"
      ],
      "55": [
        "Stealth Rock"
      ],
      "25": [
        "Power Split",
        "Guard Split"
      ],
      "60": [
        "Mirror Coat"
      ],
      "30": [
        "Venoshock"
      ]
    },
    "eggMoves": [
      "Corrosive Gas",
      "Meteor Beam"
    ],
    "evolutionMoves": [],
    "tmTRMoves": [
      "Snore",
      "Facade",
      "Cross Poison",
      "Dazzling Gleam",
      "Sludge Bomb",
      "Light Screen",
      "Grass Knot",
      "Power Gem",
      "Iron Head",
      "Rest",
      "Wonder Room",
      "Rock Slide",
      "Sludge Wave",
      "Venom Drench",
      "Round",
      "Body Slam",
      "Sandstorm",
      "Substitute",
      "Poison Jab",
      "Gunk Shot",
      "Ally Switch",
      "Thunder Wave",
      "Safeguard",
      "Protect",
      "Venoshock",
      "Thunder",
      "Psyshock",
      "Psychic",
      "Foul Play",
      "Rock Tomb",
      "Brutal Swing",
      "Endure",
      "Sleep Talk",
      "Stealth Rock",
      "Hex",
      "Zen Headbutt",
      "Thunderbolt",
      "Toxic Spikes",
      "Trick Room"
    ],
    "tutorMoves": {
      "Regular": [
        "Corrosive Gas",
        "Meteor Beam"
      ],
      "Transfer": [
        "Confide",
        "Hidden Power",
        "Magic Coat",
        "Echoed Voice",
        "Double Team",
        "Spite",
        "Psywave",
        "Telekinesis",
        "Bind",
        "Worry Seed",
        "Toxic",
        "Swagger",
        "Charge Beam",
        "Pain Split",
        "Return",
        "Constrict",
        "Knock Off",
        "Role Play",
        "Reflect",
        "Frustration"
      ]
    }
  }
}