{
  "pixelmonName": "Ninjask",
  "spDef": 50,
  "spAtt": 50,
  "speed": 160,
  "defence": 45,
  "attack": 90,
  "hp": 61,
  "catchRate": 120,
  "malePercent": 50,
  "nationalPokedexNumber": 291,
  "spawnLevel": 20,
  "spawnLevelRange": 20,
  "baseExp": 155,
  "baseFriendship": 70,
  "rarity": {
    "day": 0,
    "dawndusk": 30,
    "night": 0
  },
  "type1": "Bug",
  "type2": "Flying",
  "height": 0.8,
  "width": 0.7,
  "length": 0.7,
  "giScale": 1.0,
  "canFly": false,
  "isRideable": false,
  "preEvolutions": [
    "Nincada"
  ],
  "experienceGroup": "Erratic",
  "aggression": {
    "timid": 80,
    "passive": 0,
    "aggressive": 20
  },
  "spawnLocations": [
    "Land"
  ],
  "biomeIDs": [
    27,
    28,
    132,
    155,
    156
  ],
  "evGain": {
    "HP": 0,
    "Attack": 0,
    "Defence": 0,
    "SpecialAttack": 0,
    "SpecialDefence": 0,
    "Speed": 2
  },
  "canSurf": false,
  "maxGroupSize": 2,
  "minGroupSize": 1,
  "hoverHeight": 1.0,
  "doesHover": true,
  "id": 397,
  "baseFormID": 397,
  "weight": 12.0,
  "pokemon": "Ninjask",
  "abilities": [
    "SpeedBoost",
    null,
    "Infiltrator"
  ],
  "eggGroups": [
    "Bug"
  ],
  "eggCycles": 16,
  "form": -1,
  "evolutionDefs": [],
  "moves": {
    "levelMoves": {
      "64": [
        "X-Scissor"
      ],
      "1": [
        "Mud-Slap",
        "False Swipe",
        "Metal Claw",
        "Dig",
        "Scratch",
        "Sand Attack",
        "Aerial Ace",
        "Baton Pass",
        "Double Team",
        "Fury Cutter",
        "Harden",
        "Screech"
      ],
      "50": [
        "Slash"
      ],
      "36": [
        "Fury Swipes"
      ],
      "23": [
        "Absorb"
      ],
      "57": [
        "Swords Dance"
      ],
      "43": [
        "Mind Reader"
      ],
      "29": [
        "Bug Bite"
      ],
      "15": [
        "Agility"
      ]
    },
    "eggMoves": [
      "Final Gambit",
      "Flail",
      "Night Slash",
      "Bug Bite",
      "Gust"
    ],
    "evolutionMoves": [
      "Double Team",
      "Fury Cutter",
      "Screech"
    ],
    "tmTRMoves": [
      "Giga Drain",
      "Snore",
      "Facade",
      "Uproar",
      "Air Slash",
      "Leech Life",
      "U-turn",
      "Swords Dance",
      "Solar Beam",
      "Screech",
      "Rest",
      "Bug Buzz",
      "Agility",
      "Round",
      "Shadow Ball",
      "Sandstorm",
      "Substitute",
      "Acrobatics",
      "Giga Impact",
      "False Swipe",
      "Protect",
      "Dig",
      "Thief",
      "Hyper Beam",
      "Sunny Day",
      "Baton Pass",
      "X-Scissor",
      "Endure",
      "Sleep Talk",
      "Swift"
    ],
    "tutorMoves": {
      "Regular": [
        "Skitter Smack",
        "Dual Wingbeat"
      ],
      "Transfer": [
        "Ominous Wind",
        "Silver Wind",
        "Secret Power",
        "Natural Gift",
        "Confide",
        "Defog",
        "Attract",
        "Double-Edge",
        "Cut",
        "Roost",
        "Hidden Power",
        "Air Cutter",
        "Hone Claws",
        "Spite",
        "Toxic",
        "Struggle Bug",
        "Swagger",
        "Flash",
        "Return",
        "Mimic",
        "Captivate",
        "Faint Attack",
        "String Shot",
        "Frustration",
        "Laser Focus"
      ]
    }
  }
}