{
  "pixelmonName": "Nuzleaf",
  "spDef": 40,
  "spAtt": 60,
  "speed": 60,
  "defence": 40,
  "attack": 70,
  "hp": 70,
  "catchRate": 120,
  "malePercent": 50,
  "nationalPokedexNumber": 274,
  "spawnLevel": 14,
  "spawnLevelRange": 36,
  "baseExp": 141,
  "baseFriendship": 70,
  "rarity": {
    "day": 0,
    "dawndusk": 0,
    "night": 90
  },
  "type1": "Grass",
  "type2": "Dark",
  "height": 1.0,
  "width": 1.0,
  "length": 1.0,
  "giScale": 1.0,
  "canFly": false,
  "isRideable": false,
  "preEvolutions": [
    "Seedot"
  ],
  "experienceGroup": "MediumSlow",
  "aggression": {
    "timid": 80,
    "passive": 0,
    "aggressive": 20
  },
  "spawnLocations": [
    "Land"
  ],
  "biomeIDs": [
    32,
    33,
    160,
    161
  ],
  "evGain": {
    "HP": 0,
    "Attack": 2,
    "Defence": 0,
    "SpecialAttack": 0,
    "SpecialDefence": 0,
    "Speed": 0
  },
  "canSurf": false,
  "maxGroupSize": 2,
  "minGroupSize": 1,
  "hoverHeight": 0.0,
  "doesHover": false,
  "id": 380,
  "baseFormID": 380,
  "weight": 28.0,
  "pokemon": "Nuzleaf",
  "abilities": [
    "Chlorophyll",
    "EarlyBird",
    "Pickpocket"
  ],
  "eggGroups": [
    "Field",
    "Grass"
  ],
  "eggCycles": 16,
  "form": -1,
  "evolutionDefs": [
    {
      "targetId": 0,
      "formTo": -1,
      "evolveCondition": "Leafstone:Shiftry"
    }
  ],
  "moves": {
    "levelMoves": {
      "1": [
        "Tackle",
        "Explosion",
        "Synthesis",
        "Air Cutter",
        "Razor Leaf",
        "Astonish",
        "Fake Out",
        "Swagger",
        "Absorb",
        "Torment",
        "Harden"
      ],
      "18": [
        "Mega Drain"
      ],
      "50": [
        "Sucker Punch"
      ],
      "36": [
        "Sunny Day"
      ],
      "24": [
        "Payback"
      ],
      "9": [
        "Growth"
      ],
      "57": [
        "Leaf Blade"
      ],
      "43": [
        "Extrasensory"
      ],
      "12": [
        "Rollout"
      ],
      "30": [
        "Nature Power"
      ]
    },
    "eggMoves": [
      "Defog",
      "Quick Attack",
      "Worry Seed",
      "Take Down",
      "Night Slash",
      "Leech Seed"
    ],
    "evolutionMoves": [
      "Razor Leaf"
    ],
    "tmTRMoves": [
      "Giga Drain",
      "Snore",
      "Facade",
      "Assurance",
      "Beat Up",
      "Snarl",
      "Dark Pulse",
      "Grass Knot",
      "Retaliate",
      "Swords Dance",
      "Solar Beam",
      "Mega Kick",
      "Rest",
      "Seed Bomb",
      "Rock Slide",
      "Nasty Plot",
      "Bullet Seed",
      "Round",
      "Body Slam",
      "Shadow Ball",
      "Amnesia",
      "Grassy Terrain",
      "Substitute",
      "Leaf Blade",
      "Solar Blade",
      "Brick Break",
      "Power Swap",
      "Attract",
      "Payback",
      "Energy Ball",
      "False Swipe",
      "Protect",
      "Dig",
      "Self-Destruct",
      "Thief",
      "Hyper Beam",
      "Sunny Day",
      "Fling",
      "Foul Play",
      "Rock Tomb",
      "Low Kick",
      "Endure",
      "Sleep Talk",
      "Swift",
      "Low Sweep"
    ],
    "tutorMoves": {
      "Regular": [
        "Lash Out",
        "Grassy Glide"
      ],
      "Transfer": [
        "Rock Smash",
        "Secret Power",
        "Psych Up",
        "Natural Gift",
        "Confide",
        "Double-Edge",
        "Cut",
        "Hidden Power",
        "Power-Up Punch",
        "Double Team",
        "Spite",
        "Mud-Slap",
        "Toxic",
        "Headbutt",
        "Razor Wind",
        "Embargo",
        "Defense Curl",
        "Flash",
        "Return",
        "Mimic",
        "Captivate",
        "Fury Cutter",
        "Faint Attack",
        "Pound",
        "Strength",
        "Frustration"
      ]
    }
  }
}