{
  "pixelmonName": "Oricorio",
  "spDef": 70,
  "spAtt": 98,
  "speed": 93,
  "defence": 70,
  "attack": 70,
  "hp": 75,
  "catchRate": 45,
  "malePercent": 25,
  "nationalPokedexNumber": 741,
  "spawnLevel": 12,
  "spawnLevelRange": 24,
  "baseExp": 167,
  "baseFriendship": 70,
  "rarity": {
    "day": 40,
    "dawndusk": 40,
    "night": 40
  },
  "type1": "Ghost",
  "type2": "Flying",
  "height": 0.6,
  "width": 0.6,
  "length": 0.6,
  "giScale": 1.0,
  "canFly": true,
  "isRideable": false,
  "preEvolutions": [],
  "experienceGroup": "MediumFast",
  "aggression": {
    "timid": 85,
    "passive": 0,
    "aggressive": 15
  },
  "spawnLocations": [
    "Land"
  ],
  "biomeIDs": [],
  "evGain": {
    "HP": 0,
    "Attack": 0,
    "Defence": 0,
    "SpecialAttack": 2,
    "SpecialDefence": 0,
    "Speed": 0
  },
  "canSurf": false,
  "maxGroupSize": 2,
  "minGroupSize": 1,
  "hoverHeight": 0.0,
  "doesHover": false,
  "id": 905,
  "baseFormID": 905,
  "weight": 3.4,
  "pokemon": "Oricorio",
  "abilities": [
    "Dancer",
    null,
    null
  ],
  "eggGroups": [
    "Flying"
  ],
  "eggCycles": 20,
  "form": 3,
  "evolutionDefs": [],
  "moves": {
    "levelMoves": {
      "1": [
        "Pound"
      ],
      "33": [
        "Captivate"
      ],
      "4": [
        "Growl"
      ],
      "36": [
        "Air Slash"
      ],
      "6": [
        "Peck"
      ],
      "40": [
        "Revelation Dance"
      ],
      "10": [
        "Helping Hand"
      ],
      "43": [
        "Mirror Move"
      ],
      "13": [
        "Air Cutter"
      ],
      "46": [
        "Agility"
      ],
      "16": [
        "Baton Pass"
      ],
      "50": [
        "Hurricane"
      ],
      "20": [
        "Feather Dance"
      ],
      "23": [
        "Double Slap"
      ],
      "26": [
        "Teeter Dance"
      ],
      "30": [
        "Roost"
      ]
    },
    "eggMoves": [
      "Safeguard",
      "Captivate",
      "Pluck",
      "Tailwind"
    ],
    "evolutionMoves": [],
    "tmTRMoves": [
      "Fly",
      "Safeguard",
      "Rest",
      "Snore",
      "Protect",
      "Icy Wind",
      "Steel Wing",
      "Attract",
      "Sandstorm",
      "Facade",
      "Helping Hand",
      "U-turn",
      "Round",
      "Acrobatics",
      "Air Slash",
      "Swords Dance",
      "Agility",
      "Substitute",
      "Endure",
      "Sleep Talk",
      "Baton Pass",
      "Taunt",
      "Calm Mind",
      "Work Up",
      "Hurricane"
    ],
    "tutorMoves": {
      "Regular": [
        "Defog",
        "Helping Hand",
        "Snore",
        "Sky Attack",
        "Icy Wind",
        "Covet",
        "Tailwind",
        "Role Play"
      ],
      "Transfer": [
        "Confide",
        "Quash",
        "Hidden Power",
        "Double Team",
        "Toxic",
        "Aerial Ace",
        "Embargo",
        "Swagger",
        "Return",
        "Frustration"
      ]
    }
  }
}