{
  "pixelmonName": "Petilil",
  "spDef": 50,
  "spAtt": 70,
  "speed": 30,
  "defence": 50,
  "attack": 35,
  "hp": 45,
  "catchRate": 190,
  "malePercent": 0,
  "nationalPokedexNumber": 548,
  "spawnLevel": 5,
  "spawnLevelRange": 30,
  "baseExp": 56,
  "baseFriendship": 70,
  "rarity": {
    "day": 70,
    "dawndusk": 0,
    "night": 0
  },
  "type1": "Grass",
  "height": 0.5,
  "width": 0.7,
  "length": 0.7,
  "giScale": 1.0,
  "canFly": false,
  "isRideable": false,
  "preEvolutions": [],
  "experienceGroup": "MediumFast",
  "aggression": {
    "timid": 80,
    "passive": 0,
    "aggressive": 20
  },
  "spawnLocations": [
    "Land"
  ],
  "biomeIDs": [
    129,
    132
  ],
  "evGain": {
    "HP": 0,
    "Attack": 0,
    "Defence": 0,
    "SpecialAttack": 1,
    "SpecialDefence": 0,
    "Speed": 0
  },
  "canSurf": false,
  "maxGroupSize": 1,
  "minGroupSize": 1,
  "hoverHeight": 0.0,
  "doesHover": false,
  "id": 625,
  "baseFormID": 625,
  "weight": 6.6,
  "pokemon": "Petilil",
  "abilities": [
    "Chlorophyll",
    "OwnTempo",
    "LeafGuard"
  ],
  "eggGroups": [
    "Grass"
  ],
  "eggCycles": 21,
  "form": -1,
  "evolutionDefs": [
    {
      "targetId": 626,
      "evolveCondition": "Sunstone:Lilligant"
    }
  ],
  "moves": {
    "levelMoves": {
      "1": [
        "Growth",
        "Absorb"
      ],
      "33": [
        "Synthesis"
      ],
      "3": [
        "Helping Hand"
      ],
      "36": [
        "Sunny Day"
      ],
      "6": [
        "Stun Spore"
      ],
      "39": [
        "Entrainment"
      ],
      "9": [
        "Mega Drain"
      ],
      "42": [
        "Leaf Storm"
      ],
      "12": [
        "Aromatherapy"
      ],
      "15": [
        "Magical Leaf"
      ],
      "18": [
        "Sleep Powder"
      ],
      "21": [
        "Giga Drain"
      ],
      "24": [
        "Leech Seed"
      ],
      "27": [
        "After You"
      ],
      "30": [
        "Energy Ball"
      ]
    },
    "alphaMoves":[
      "Magical Leaf",
      "Rest",
      "Baby-Doll Eyes",
      "Energy Ball"
    ],
    "eggMoves": [
      "Worry Seed",
      "Sweet Scent",
      "Healing Wish",
      "Ingrain"
    ],
    "evolutionMoves": [],
    "tmTRMoves": [
      "Giga Drain",
      "Helping Hand",
      "Energy Ball",
      "Safeguard",
      "Snore",
      "Protect",
      "Facade",
      "Sunny Day",
      "Grass Knot",
      "Solar Beam",
      "Magical Leaf",
      "Rest",
      "Seed Bomb",
      "Encore",
      "Endure",
      "Sleep Talk",
      "Charm",
      "Round",
      "Leaf Storm",
      "Substitute",
      "Pollen Puff",
      "Attract"
    ],
    "tutorMoves": {
      "Regular": [
        "Grassy Glide"
      ],
      "Transfer": [
        "Secret Power",
        "Grass Whistle",
        "Dream Eater",
        "Natural Gift",
        "Confide",
        "Cut",
        "Hidden Power",
        "Bide",
        "Double Team",
        "Heal Bell",
        "Toxic",
        "Swagger",
        "Flash",
        "Return",
        "Nature Power",
        "Covet",
        "Frustration",
        "Laser Focus"
      ]
    }
  }
}