{
  "pixelmonName": "Piplup",
  "spDef": 56,
  "spAtt": 61,
  "speed": 40,
  "defence": 53,
  "attack": 51,
  "hp": 53,
  "catchRate": 45,
  "malePercent": 87,
  "nationalPokedexNumber": 393,
  "spawnLevel": 5,
  "spawnLevelRange": 5,
  "baseExp": 66,
  "baseFriendship": 70,
  "rarity": {
    "day": 0,
    "dawndusk": 10,
    "night": 10
  },
  "type1": "Water",
  "height": 0.4,
  "width": 1.0,
  "length": 2.0,
  "giScale": 1.0,
  "canFly": false,
  "isRideable": false,
  "preEvolutions": [],
  "experienceGroup": "MediumSlow",
  "aggression": {
    "timid": 0,
    "passive": 50,
    "aggressive": 50
  },
  "spawnLocations": [
    "Land"
  ],
  "biomeIDs": [
    10,
    11,
    12,
    13,
    26,
    30,
    31,
    140,
    158
  ],
  "evGain": {
    "HP": 0,
    "Attack": 0,
    "Defence": 0,
    "SpecialAttack": 1,
    "SpecialDefence": 0,
    "Speed": 0
  },
  "canSurf": false,
  "maxGroupSize": 1,
  "minGroupSize": 1,
  "hoverHeight": 0.0,
  "doesHover": false,
  "id": 480,
  "baseFormID": 480,
  "weight": 5.2,
  "pokemon": "Piplup",
  "abilities": [
    "Torrent",
    null,
    "Defiant"
  ],
  "eggGroups": [
    "Water1",
    "Field"
  ],
  "eggCycles": 21,
  "form": -1,
  "evolutionDefs": [
    {
      "targetId": 481,
      "evolveLevel": 16
    }
  ],
  "moves": {
    "levelMoves": {
      "32": [
        "Whirlpool"
      ],
      "1": [
        "Pound"
      ],
      "4": [
        "Growl"
      ],
      "36": [
        "Mist"
      ],
      "39": [
        "Drill Peck"
      ],
      "8": [
        "Bubble"
      ],
      "11": [
        "Water Sport"
      ],
      "43": [
        "Hydro Pump"
      ],
      "15": [
        "Peck"
      ],
      "18": [
        "Bubble Beam"
      ],
      "22": [
        "Bide"
      ],
      "25": [
        "Fury Attack"
      ],
      "29": [
        "Brine"
      ]
    },
    "alphaMoves":[
      "Rock Smash",
      "Aerial Ace",
      "Stealth Rock",
      "Rest",
      "Baby-Doll Eyes",
      "Water Pulse",
      "Icy Wind",
      "Ice Beam"
    ],
    "eggMoves": [
      "Double Hit",
      "Mud-Slap",
      "Snore",
      "Icy Wind",
      "Supersonic",
      "Flail",
      "Power Trip",
      "Yawn",
      "Agility",
      "Bide",
      "Hydro Pump",
      "Aqua Ring",
      "Feather Dance",
      "Mud Sport"
    ],
    "evolutionMoves": [],
    "tmTRMoves": [
      "Dig",
      "Rest",
      "Snore",
      "Protect",
      "Icy Wind",
      "Attract",
      "Rain Dance",
      "Hail",
      "Whirlpool",
      "Facade",
      "Brick Break",
      "Dive",
      "Rock Tomb",
      "Brine",
      "Fling",
      "Round",
      "Hydro Pump",
      "Surf",
      "Ice Beam",
      "Blizzard",
      "Agility",
      "Waterfall",
      "Substitute",
      "Endure",
      "Sleep Talk",
      "Stealth Rock",
      "Grass Knot",
      "Scald",
      "Work Up"
    ],
    "tutorMoves": {
      "Regular": [
        "Defog",
        "Water Pledge",
        "Snore",
        "Water Pulse",
        "Stealth Rock",
        "Icy Wind",
        "Covet",
        "Signal Beam"
      ],
      "Transfer": [
        "Secret Power",
        "Natural Gift",
        "Confide",
        "Pluck",
        "Quash",
        "Cut",
        "Hidden Power",
        "Echoed Voice",
        "Double Team",
        "Toxic",
        "Aerial Ace",
        "Headbutt",
        "Swagger",
        "Return",
        "Captivate",
        "Frustration"
      ]
    }
  }
}