{
  "pixelmonName": "Porygon-Z",
  "spDef": 75,
  "spAtt": 135,
  "speed": 90,
  "defence": 70,
  "attack": 80,
  "hp": 85,
  "catchRate": 30,
  "malePercent": -1,
  "nationalPokedexNumber": 474,
  "spawnLevel": 30,
  "spawnLevelRange": 10,
  "baseExp": 185,
  "baseFriendship": 70,
  "rarity": {
    "day": 0,
    "dawndusk": 0,
    "night": 0
  },
  "type1": "Normal",
  "height": 0.9,
  "width": 0.8,
  "length": 0.8,
  "giScale": 1.0,
  "canFly": false,
  "isRideable": false,
  "preEvolutions": [
    "Porygon2",
    "Porygon"
  ],
  "experienceGroup": "MediumFast",
  "aggression": {
    "timid": 80,
    "passive": 0,
    "aggressive": 20
  },
  "spawnLocations": [
    "Land"
  ],
  "biomeIDs": [
    134,
    149
  ],
  "evGain": {
    "HP": 0,
    "Attack": 0,
    "Defence": 0,
    "SpecialAttack": 3,
    "SpecialDefence": 0,
    "Speed": 0
  },
  "canSurf": false,
  "maxGroupSize": 1,
  "minGroupSize": 1,
  "hoverHeight": 0.0,
  "doesHover": false,
  "id": 553,
  "baseFormID": 553,
  "weight": 34.0,
  "pokemon": "PorygonZ",
  "abilities": [
    "Adaptability",
    "Download",
    "Analytic"
  ],
  "eggGroups": [
    "Mineral"
  ],
  "eggCycles": 21,
  "form": -1,
  "evolutionDefs": [],
  "moves": {
    "levelMoves": {
      "1": [
        "Tackle",
        "Magnet Rise",
        "Nasty Plot",
        "Recycle",
        "Defense Curl",
        "Conversion",
        "Trick Room"
      ],
      "65": [
        "Hyper Beam"
      ],
      "50": [
        "Magic Coat"
      ],
      "35": [
        "Recover"
      ],
      "20": [
        "Psybeam"
      ],
      "55": [
        "Lock-On"
      ],
      "40": [
        "Discharge"
      ],
      "25": [
        "Conversion 2"
      ],
      "60": [
        "Zap Cannon"
      ],
      "45": [
        "Tri Attack"
      ],
      "30": [
        "Agility"
      ],
      "15": [
        "Thunder Shock"
      ]
    },
    "alphaMoves":[
      "Aerial Ace",
      "Swift",
      "Tri Attack",
      "Power Shift",
      "Rest",
      "Zen Headbutt",
      "Iron Tail",
      "Charge Beam",
      "Icy Wind",
      "Shadow Ball",
      "Giga Impact",
      "Hyper Beam",
      "Thunderbolt",
      "Ice Beam",
      "Psychic",
      "Dark Pulse"
    ],
    "eggMoves": [],
    "evolutionMoves": [],
    "tmTRMoves": [
      "Snore",
      "Facade",
      "Uproar",
      "Dark Pulse",
      "Eerie Impulse",
      "Solar Beam",
      "Icy Wind",
      "Rest",
      "Wonder Room",
      "Iron Tail",
      "Agility",
      "Nasty Plot",
      "Round",
      "Shadow Ball",
      "Substitute",
      "Power Swap",
      "Electroweb",
      "Ice Beam",
      "Ally Switch",
      "Giga Impact",
      "Thunder Wave",
      "Protect",
      "Guard Swap",
      "Rain Dance",
      "Thunder",
      "Tri Attack",
      "Thief",
      "Psyshock",
      "Trick",
      "Hyper Beam",
      "Sunny Day",
      "Psychic",
      "Foul Play",
      "Endure",
      "Sleep Talk",
      "Speed Swap",
      "Swift",
      "Zen Headbutt",
      "Thunderbolt",
      "Trick Room",
      "Blizzard"
    ],
    "tutorMoves": {
      "Transfer": [
        "Secret Power",
        "Psych Up",
        "Dream Eater",
        "Natural Gift",
        "Confide",
        "Hidden Power",
        "Double Team",
        "Shock Wave",
        "Telekinesis",
        "Toxic",
        "Aerial Ace",
        "Embargo",
        "Swagger",
        "Charge Beam",
        "Sharpen",
        "Pain Split",
        "Flash",
        "Signal Beam",
        "Gravity",
        "Last Resort",
        "Return",
        "Frustration"
      ]
    }
  }
}