{
  "pixelmonName": "Pupitar",
  "spDef": 70,
  "spAtt": 65,
  "speed": 51,
  "defence": 70,
  "attack": 84,
  "hp": 70,
  "catchRate": 45,
  "malePercent": 50,
  "nationalPokedexNumber": 247,
  "spawnLevel": 30,
  "spawnLevelRange": 24,
  "baseExp": 144,
  "baseFriendship": 35,
  "rarity": {
    "day": 0,
    "dawndusk": 0,
    "night": 60
  },
  "type1": "Rock",
  "type2": "Ground",
  "height": 1.2,
  "width": 1.0,
  "length": 1.0,
  "giScale": 1.0,
  "canFly": false,
  "isRideable": false,
  "preEvolutions": [
    "Larvitar"
  ],
  "experienceGroup": "Slow",
  "aggression": {
    "timid": 80,
    "passive": 0,
    "aggressive": 20
  },
  "spawnLocations": [
    "Land",
    "UnderGround"
  ],
  "biomeIDs": [
    3,
    3,
    34,
    37,
    38,
    39,
    131,
    162,
    165,
    166,
    167
  ],
  "evGain": {
    "HP": 0,
    "Attack": 2,
    "Defence": 0,
    "SpecialAttack": 0,
    "SpecialDefence": 0,
    "Speed": 0
  },
  "canSurf": false,
  "maxGroupSize": 2,
  "minGroupSize": 1,
  "hoverHeight": 0.0,
  "doesHover": false,
  "id": 357,
  "baseFormID": 357,
  "weight": 152.0,
  "pokemon": "Pupitar",
  "abilities": [
    "ShedSkin",
    null,
    null
  ],
  "eggGroups": [
    "Monster"
  ],
  "eggCycles": 41,
  "form": -1,
  "evolutionDefs": [
    {
      "targetId": 358,
      "evolveLevel": 55
    }
  ],
  "moves": {
    "levelMoves": {
      "1": [
        "Payback",
        "Leer",
        "Tackle",
        "Rock Throw",
        "Iron Defense"
      ],
      "33": [
        "Earthquake"
      ],
      "37": [
        "Stone Edge"
      ],
      "9": [
        "Bite"
      ],
      "42": [
        "Thrash"
      ],
      "12": [
        "Scary Face"
      ],
      "15": [
        "Rock Slide"
      ],
      "47": [
        "Sandstorm"
      ],
      "18": [
        "Stomping Tantrum"
      ],
      "52": [
        "Hyper Beam"
      ],
      "21": [
        "Screech"
      ],
      "24": [
        "Dark Pulse"
      ],
      "27": [
        "Crunch"
      ]
    },
    "eggMoves": [
      "Curse",
      "Ancient Power",
      "Stomp"
    ],
    "evolutionMoves": [
      "Iron Defense"
    ],
    "tmTRMoves": [
      "Snore",
      "Facade",
      "Assurance",
      "Uproar",
      "Taunt",
      "Focus Energy",
      "Snarl",
      "Dark Pulse",
      "Stone Edge",
      "Retaliate",
      "Stomping Tantrum",
      "Screech",
      "Iron Head",
      "Rest",
      "Sand Tomb",
      "Earthquake",
      "Iron Tail",
      "Rock Slide",
      "Earth Power",
      "Scary Face",
      "Round",
      "Body Slam",
      "Sandstorm",
      "Bulldoze",
      "Iron Defense",
      "Substitute",
      "Superpower",
      "Brick Break",
      "Dragon Dance",
      "Attract",
      "Crunch",
      "Payback",
      "Protect",
      "Dig",
      "Rain Dance",
      "Hyper Beam",
      "Sunny Day",
      "Outrage",
      "Rock Tomb",
      "Endure",
      "Sleep Talk",
      "Stealth Rock",
      "Muddy Water"
    ],
    "tutorMoves": {
      "Transfer": [
        "Rock Smash",
        "Secret Power",
        "Detect",
        "Natural Gift",
        "Confide",
        "Chip Away",
        "Double-Edge",
        "Hidden Power",
        "Power-Up Punch",
        "Smack Down",
        "Double Team",
        "Spite",
        "Mud-Slap",
        "Toxic",
        "Headbutt",
        "Swagger",
        "Return",
        "Mimic",
        "Captivate",
        "Rock Polish",
        "Pursuit",
        "Torment",
        "Frustration"
      ]
    }
  }
}