{
  "pixelmonName": "Raticate",
  "spDef": 80,
  "spAtt": 40,
  "speed": 77,
  "defence": 70,
  "attack": 71,
  "hp": 75,
  "catchRate": 127,
  "malePercent": 50,
  "nationalPokedexNumber": 20,
  "spawnLevel": 20,
  "spawnLevelRange": 12,
  "baseExp": 116,
  "baseFriendship": 70,
  "rarity": {
    "day": 0,
    "dawndusk": 0,
    "night": 20
  },
  "type1": "Dark",
  "type2": "Normal",
  "height": 0.71,
  "width": 1.0,
  "length": 1.0,
  "giScale": 1.0,
  "canFly": false,
  "isRideable": false,
  "preEvolutions": [
    "Rattata"
  ],
  "experienceGroup": "MediumFast",
  "aggression": {
    "timid": 80,
    "passive": 0,
    "aggressive": 20
  },
  "spawnLocations": [
    "Land"
  ],
  "biomeIDs": [
    1,
    129
  ],
  "evGain": {
    "HP": 0,
    "Attack": 0,
    "Defence": 0,
    "SpecialAttack": 0,
    "SpecialDefence": 0,
    "Speed": 2
  },
  "canSurf": false,
  "maxGroupSize": 1,
  "minGroupSize": 1,
  "hoverHeight": 0.0,
  "doesHover": false,
  "id": 877,
  "baseFormID": 38,
  "weight": 25.5,
  "pokemon": "Raticate",
  "abilities": [
    "Gluttony",
    "Hustle",
    "ThickFat"
  ],
  "eggGroups": [
    "Field"
  ],
  "eggCycles": 15,
  "form": 3,
  "evolutionDefs": [],
  "moves": {
    "levelMoves": {
      "1": [
        "Quick Attack",
        "Tackle",
        "Counter",
        "Focus Energy",
        "Tail Whip",
        "Scary Face",
        "Fury Swipes",
        "Swords Dance"
      ],
      "34": [
        "Sucker Punch",
        "Super Fang"
      ],
      "3": [
        "Tail Whip"
      ],
      "4": [
        "Quick Attack"
      ],
      "6": [
        "Quick Attack"
      ],
      "7": [
        "Focus Energy"
      ],
      "39": [
        "Double-Edge"
      ],
      "9": [
        "Focus Energy"
      ],
      "10": [
        "Bite"
      ],
      "42": [
        "Double-Edge"
      ],
      "44": [
        "Endeavor"
      ],
      "12": [
        "Bite"
      ],
      "13": [
        "Pursuit"
      ],
      "15": [
        "Super Fang"
      ],
      "16": [
        "Hyper Fang"
      ],
      "18": [
        "Crunch"
      ],
      "19": [
        "Assurance"
      ],
      "24": [
        "Crunch"
      ],
      "26": [
        "Hyper Fang"
      ],
      "29": [
        "Sucker Punch"
      ]
    },
    "eggMoves": [
      "Final Gambit",
      "Uproar",
      "Counter",
      "Switcheroo",
      "Reversal",
      "Fury Swipes",
      "Swallow",
      "Revenge",
      "Stockpile",
      "Snatch",
      "Me First"
    ],
    "evolutionMoves": [],
    "tmTRMoves": [
      "Hyper Beam",
      "Giga Impact",
      "Thunder Wave",
      "Dig",
      "Screech",
      "Rest",
      "Thief",
      "Snore",
      "Protect",
      "Scary Face",
      "Icy Wind",
      "Attract",
      "Rain Dance",
      "Sunny Day",
      "Beat Up",
      "Facade",
      "Revenge",
      "Assurance",
      "Venoshock",
      "Round",
      "Retaliate",
      "Snarl",
      "Stomping Tantrum",
      "Swords Dance",
      "Body Slam",
      "Ice Beam",
      "Blizzard",
      "Thunderbolt",
      "Thunder",
      "Focus Energy",
      "Substitute",
      "Reversal",
      "Sludge Bomb",
      "Endure",
      "Sleep Talk",
      "Iron Tail",
      "Crunch",
      "Shadow Ball",
      "Uproar",
      "Taunt",
      "Bulk Up",
      "Close Combat",
      "Dark Pulse",
      "Zen Headbutt",
      "Grass Knot",
      "Sludge Wave",
      "Throat Chop",
      "Psychic Fangs"
    ],
    "tutorMoves": {
      "Regular": [
        "Endeavor",
        "Last Resort",
        "Snore",
        "Uproar",
        "Super Fang",
        "Knock Off",
        "Stomping Tantrum",
        "Icy Wind",
        "Throat Chop",
        "Snatch",
        "Iron Tail",
        "Zen Headbutt",
        "Covet",
        "Shock Wave"
      ],
      "Transfer": [
        "Confide",
        "Quash",
        "Hidden Power",
        "Double Team",
        "Toxic",
        "U-turn",
        "Headbutt",
        "Embargo",
        "Swagger",
        "Return",
        "Roar",
        "Shadow Claw",
        "Torment",
        "Frustration"
      ]
    }
  }
}