{
  "pixelmonName": "Ribombee",
  "spDef": 70,
  "spAtt": 95,
  "speed": 124,
  "defence": 60,
  "attack": 55,
  "hp": 60,
  "catchRate": 75,
  "malePercent": 50,
  "nationalPokedexNumber": 743,
  "spawnLevel": 25,
  "spawnLevelRange": 10,
  "baseExp": 162,
  "baseFriendship": 70,
  "rarity": {
    "day": 60,
    "dawndusk": 0,
    "night": 0
  },
  "type1": "Bug",
  "type2": "Fairy",
  "height": 0.2,
  "width": 0.2,
  "length": 0.1,
  "giScale": 1.0,
  "canFly": false,
  "isRideable": false,
  "preEvolutions": [
    "Cutiefly"
  ],
  "experienceGroup": "MediumFast",
  "aggression": {
    "timid": 90,
    "passive": 0,
    "aggressive": 10
  },
  "spawnLocations": [
    "Land"
  ],
  "biomeIDs": [
    129
  ],
  "evGain": {
    "HP": 0,
    "Attack": 0,
    "Defence": 0,
    "SpecialAttack": 0,
    "SpecialDefence": 0,
    "Speed": 2
  },
  "canSurf": false,
  "maxGroupSize": 1,
  "minGroupSize": 1,
  "hoverHeight": 1.0,
  "doesHover": true,
  "id": 907,
  "baseFormID": 907,
  "weight": 0.5,
  "pokemon": "Ribombee",
  "abilities": [
    "HoneyGather",
    "ShieldDust",
    "SweetVeil"
  ],
  "eggGroups": [
    "Bug",
    "Fairy"
  ],
  "eggCycles": 20,
  "form": -1,
  "evolutionDefs": [],
  "moves": {
    "levelMoves": {
      "32": [
        "Aromatherapy"
      ],
      "48": [
        "Dazzling Gleam"
      ],
      "64": [
        "Quiver Dance"
      ],
      "1": [
        "Stun Spore",
        "Sweet Scent",
        "Absorb",
        "Fairy Wind",
        "Pollen Puff",
        "Covet"
      ],
      "18": [
        "Draining Kiss"
      ],
      "24": [
        "Struggle Bug"
      ],
      "40": [
        "Switcheroo"
      ],
      "56": [
        "Bug Buzz"
      ]
    },
    "eggMoves": [
      "Sticky Web",
      "Aromatic Mist",
      "Moonblast"
    ],
    "evolutionMoves": [
      "Pollen Puff"
    ],
    "tmTRMoves": [
      "Snore",
      "Facade",
      "Play Rough",
      "Dazzling Gleam",
      "Leech Life",
      "Light Screen",
      "Magic Room",
      "U-turn",
      "Solar Beam",
      "Magical Leaf",
      "Rest",
      "Bug Buzz",
      "Wonder Room",
      "Charm",
      "Round",
      "Imprison",
      "Substitute",
      "Pollen Puff",
      "Acrobatics",
      "Attract",
      "Skill Swap",
      "Ally Switch",
      "Giga Impact",
      "Helping Hand",
      "Energy Ball",
      "Safeguard",
      "Protect",
      "Thief",
      "Fake Tears",
      "Trick",
      "Hyper Beam",
      "Sunny Day",
      "Baton Pass",
      "Calm Mind",
      "Psychic",
      "Reflect",
      "Endure",
      "Sleep Talk",
      "Speed Swap",
      "Swift",
      "Draining Kiss"
    ],
    "tutorMoves": {
      "Regular": [
        "Dual Wingbeat"
      ],
      "Transfer": [
        "After You",
        "Silver Wind",
        "Psych Up",
        "Bug Bite",
        "Bestow",
        "Dream Eater",
        "Tailwind",
        "Powder",
        "Confide",
        "Defog",
        "Roost",
        "Hidden Power",
        "Double Team",
        "Infestation",
        "Telekinesis",
        "Toxic",
        "Aerial Ace",
        "Swagger",
        "Signal Beam",
        "Last Resort",
        "Return",
        "Nature Power",
        "Frustration"
      ]
    }
  }
}