{
  "pixelmonName": "Rockruff",
  "spDef": 40,
  "spAtt": 30,
  "speed": 60,
  "defence": 40,
  "attack": 65,
  "hp": 45,
  "catchRate": 190,
  "malePercent": 50,
  "nationalPokedexNumber": 744,
  "spawnLevel": 3,
  "spawnLevelRange": 21,
  "baseExp": 56,
  "baseFriendship": 70,
  "rarity": {
    "day": 30,
    "dawndusk": 0,
    "night": 0
  },
  "type1": "Rock",
  "height": 0.51,
  "width": 1.0,
  "length": 1.0,
  "giScale": 1.0,
  "canFly": false,
  "isRideable": false,
  "preEvolutions": [],
  "experienceGroup": "MediumFast",
  "aggression": {
    "timid": 80,
    "passive": 0,
    "aggressive": 20
  },
  "spawnLocations": [
    "Land"
  ],
  "biomeIDs": [
    5,
    19,
    32,
    33
  ],
  "evGain": {
    "HP": 0,
    "Attack": 1,
    "Defence": 0,
    "SpecialAttack": 0,
    "SpecialDefence": 0,
    "Speed": 0
  },
  "canSurf": false,
  "maxGroupSize": 2,
  "minGroupSize": 1,
  "hoverHeight": 0.0,
  "doesHover": false,
  "id": 862,
  "baseFormID": 862,
  "weight": 9.2,
  "pokemon": "Rockruff",
  "abilities": [
    "KeenEye",
    "VitalSpirit",
    "OwnTempo",
    "Steadfast"
  ],
  "eggGroups": [
    "Field"
  ],
  "eggCycles": 15,
  "form": -1,
  "evolutionDefs": [
    {
      "targetId": 863,
      "evolveLevel": 25,
      "evolveCondition": "Time:Day:Lycanroc"
    },
    {
      "targetId": 864,
      "formTo": 1,
      "evolveLevel": 25,
      "evolveCondition": "Time:Night:Lycanroc"
    },
    {
      "targetId": 952,
      "formTo": 2,
      "evolveLevel": 25,
      "evolveCondition": "Time:Dusk:Lycanroc"
    }
  ],
  "moves": {
    "levelMoves": {
      "32": [
        "Rock Slide"
      ],
      "1": [
        "Leer",
        "Tackle"
      ],
      "4": [
        "Sand Attack"
      ],
      "36": [
        "Crunch"
      ],
      "8": [
        "Double Team"
      ],
      "40": [
        "Scary Face"
      ],
      "12": [
        "Rock Throw"
      ],
      "44": [
        "Stealth Rock"
      ],
      "16": [
        "Howl"
      ],
      "48": [
        "Stone Edge"
      ],
      "20": [
        "Bite"
      ],
      "24": [
        "Rock Tomb"
      ],
      "28": [
        "Roar"
      ]
    },
    "eggMoves": [
      "Endeavor",
      "Last Resort",
      "Thrash"
    ],
    "evolutionMoves": [],
    "tmTRMoves": [
      "Snore",
      "Facade",
      "Taunt",
      "Play Rough",
      "Snarl",
      "Stone Edge",
      "Fire Fang",
      "Stomping Tantrum",
      "Swords Dance",
      "Iron Head",
      "Rest",
      "Thunder Fang",
      "Iron Tail",
      "Rock Slide",
      "Earth Power",
      "Scary Face",
      "Round",
      "Iron Defense",
      "Substitute",
      "Attract",
      "Crunch",
      "Hyper Voice",
      "Protect",
      "Rock Tomb",
      "Endure",
      "Sleep Talk",
      "Stealth Rock",
      "Zen Headbutt"
    ],
    "tutorMoves": {
      "Transfer": [
        "Crush Claw",
        "Confide",
        "Hidden Power",
        "Echoed Voice",
        "Toxic",
        "Rock Climb",
        "Swagger",
        "Return",
        "Odor Sleuth",
        "Rock Polish",
        "Sucker Punch",
        "Covet",
        "Frustration"
      ],
      "Event": [
        "Happy Hour"
      ]
    }
  }
}