{
  "pixelmonName": "Sandaconda",
  "spDef": 70,
  "spAtt": 65,
  "speed": 71,
  "defence": 125,
  "attack": 107,
  "hp": 72,
  "catchRate": 120,
  "malePercent": 50,
  "nationalPokedexNumber": 844,
  "spawnLevel": 36,
  "spawnLevelRange": 50,
  "baseExp": 179,
  "baseFriendship": 50,
  "rarity": {
    "day": 1,
    "dawndusk": 0,
    "night": 0
  },
  "type1": "Ground",
  "height": 1.2,
  "width": 1.0,
  "length": 1.0,
  "giScale": 1.0,
  "canFly": false,
  "isRideable": false,
  "preEvolutions": [
    "Silicobra"
  ],
  "experienceGroup": "MediumFast",
  "aggression": {
    "timid": 50,
    "passive": 0,
    "aggressive": 50
  },
  "spawnLocations": [
    "Land"
  ],
  "biomeIDs": [
    21
  ],
  "evGain": {
    "HP": 0,
    "Attack": 0,
    "Defence": 2,
    "SpecialAttack": 0,
    "SpecialDefence": 0,
    "Speed": 0
  },
  "canSurf": false,
  "maxGroupSize": 1,
  "minGroupSize": 1,
  "hoverHeight": 0.0,
  "doesHover": false,
  "id": 1081,
  "baseFormID": 1081,
  "weight": 65.5,
  "pokemon": "Sandaconda",
  "abilities": [
    "SandSpit",
    "ShedSkin",
    "SandVeil"
  ],
  "eggGroups": [
    "Field",
    "Dragon"
  ],
  "eggCycles": 6,
  "form": -1,
  "evolutionDefs": [],
  "moves": {
    "levelMoves": {
      "1": [
        "Wrap",
        "Skull Bash",
        "Brutal Swing",
        "Minimize",
        "Sand Attack"
      ],
      "49": [
        "Coil"
      ],
      "35": [
        "Sandstorm"
      ],
      "51": [
        "Sand Tomb"
      ],
      "20": [
        "Headbutt"
      ],
      "25": [
        "Glare"
      ],
      "42": [
        "Slam"
      ],
      "30": [
        "Dig"
      ],
      "15": [
        "Bulldoze"
      ]
    },
    "eggMoves": [
      "Mud-Slap",
      "Last Resort",
      "Poison Tail",
      "Dragon Rush",
      "Belch"
    ],
    "evolutionMoves": [],
    "tmTRMoves": [
      "Snore",
      "Facade",
      "Stone Edge",
      "Fire Fang",
      "Rock Blast",
      "Screech",
      "Iron Head",
      "Rest",
      "Sand Tomb",
      "Earthquake",
      "Rock Slide",
      "Earth Power",
      "Round",
      "Sandstorm",
      "Bulldoze",
      "Iron Defense",
      "Mud Shot",
      "Substitute",
      "Hurricane",
      "Attract",
      "Giga Impact",
      "Body Press",
      "Protect",
      "Dig",
      "High Horsepower",
      "Hyper Beam",
      "Drill Run",
      "Outrage",
      "Rock Tomb",
      "Brutal Swing",
      "Endure",
      "Sleep Talk",
      "Stealth Rock",
      "Zen Headbutt"
    ],
    "tutorMoves": {
      "Regular": [
        "Scorching Sands",
        "Skitter Smack",
        "Scale Shot"
      ]
    }
  }
}