{
  "pixelmonName": "Serperior",
  "spDef": 95,
  "spAtt": 75,
  "speed": 113,
  "defence": 95,
  "attack": 75,
  "hp": 75,
  "catchRate": 45,
  "malePercent": 87,
  "nationalPokedexNumber": 497,
  "spawnLevel": 36,
  "spawnLevelRange": 9,
  "baseExp": 238,
  "baseFriendship": 70,
  "rarity": {
    "day": 5,
    "dawndusk": 0,
    "night": 0
  },
  "type1": "Grass",
  "height": 0.4,
  "width": 0.4,
  "length": 3.3,
  "giScale": 1.0,
  "canFly": false,
  "isRideable": true,
  "preEvolutions": [
    "Servine",
    "Snivy"
  ],
  "experienceGroup": "MediumSlow",
  "aggression": {
    "timid": 80,
    "passive": 0,
    "aggressive": 20
  },
  "spawnLocations": [
    "Land"
  ],
  "biomeIDs": [
    4,
    18
  ],
  "evGain": {
    "HP": 0,
    "Attack": 0,
    "Defence": 0,
    "SpecialAttack": 0,
    "SpecialDefence": 0,
    "Speed": 3
  },
  "canSurf": false,
  "ridingOffsets": {
    "standing": {
      "x": 0.0,
      "y": -1.0,
      "z": -0.9
    }
  },
  "maxGroupSize": 1,
  "minGroupSize": 1,
  "hoverHeight": 0.0,
  "doesHover": false,
  "id": 574,
  "baseFormID": 574,
  "weight": 63.0,
  "pokemon": "Serperior",
  "abilities": [
    "Overgrow",
    null,
    "Contrary"
  ],
  "eggGroups": [
    "Field",
    "Grass"
  ],
  "eggCycles": 21,
  "form": -1,
  "evolutionDefs": [],
  "moves": {
    "levelMoves": {
      "32": [
        "Leaf Blade"
      ],
      "1": [
        "Leer",
        "Tackle",
        "Wrap",
        "Vine Whip"
      ],
      "4": [
        "Leer"
      ],
      "38": [
        "Coil"
      ],
      "7": [
        "Vine Whip"
      ],
      "10": [
        "Wrap"
      ],
      "44": [
        "Giga Drain"
      ],
      "13": [
        "Growth"
      ],
      "16": [
        "Leaf Tornado"
      ],
      "50": [
        "Wring Out"
      ],
      "20": [
        "Leech Seed"
      ],
      "24": [
        "Mega Drain"
      ],
      "56": [
        "Gastro Acid"
      ],
      "28": [
        "Slam"
      ],
      "62": [
        "Leaf Storm"
      ]
    },
    "eggMoves": [
      "Magical Leaf",
      "Glare",
      "Iron Tail",
      "Sweet Scent",
      "Captivate",
      "Mirror Coat",
      "Grassy Terrain",
      "Pursuit",
      "Twister",
      "Mean Look",
      "Natural Gift"
    ],
    "evolutionMoves": [],
    "tmTRMoves": [
      "Hyper Beam",
      "Giga Impact",
      "Magical Leaf",
      "Solar Beam",
      "Light Screen",
      "Reflect",
      "Safeguard",
      "Rest",
      "Snore",
      "Protect",
      "Giga Drain",
      "Attract",
      "Sunny Day",
      "Facade",
      "Round",
      "Grassy Terrain",
      "Brutal Swing",
      "Swords Dance",
      "Substitute",
      "Outrage",
      "Endure",
      "Sleep Talk",
      "Iron Tail",
      "Taunt",
      "Calm Mind",
      "Leaf Blade",
      "Seed Bomb",
      "Dragon Pulse",
      "Energy Ball",
      "Leaf Storm",
      "Grass Knot",
      "Work Up"
    ],
    "tutorMoves": {
      "Regular": [
        "Giga Drain",
        "Dragon Pulse",
        "Grass Pledge",
        "Bind",
        "Snore",
        "Worry Seed",
        "Knock Off",
        "Snatch",
        "Defog",
        "Outrage",
        "Seed Bomb",
        "Synthesis",
        "Iron Tail",
        "Aqua Tail",
        "Gastro Acid",
        "Frenzy Plant"
      ],
      "Transfer": [
        "Rock Smash",
        "Secret Power",
        "Confide",
        "Cut",
        "Hidden Power",
        "Double Team",
        "Toxic",
        "Aerial Ace",
        "Dragon Tail",
        "Swagger",
        "Flash",
        "Return",
        "Nature Power",
        "Torment",
        "Strength",
        "Frustration"
      ],
      "Event": [
        "Hold Back"
      ]
    }
  }
}