{
  "pixelmonName": "Shelmet",
  "spDef": 65,
  "spAtt": 40,
  "speed": 25,
  "defence": 85,
  "attack": 40,
  "hp": 50,
  "catchRate": 200,
  "malePercent": 50,
  "nationalPokedexNumber": 616,
  "spawnLevel": 5,
  "spawnLevelRange": 20,
  "baseExp": 61,
  "baseFriendship": 70,
  "rarity": {
    "day": 0,
    "dawndusk": 100,
    "night": 0
  },
  "type1": "Bug",
  "height": 0.4,
  "width": 0.7,
  "length": 0.7,
  "giScale": 1.0,
  "canFly": false,
  "isRideable": false,
  "preEvolutions": [],
  "experienceGroup": "MediumFast",
  "aggression": {
    "timid": 80,
    "passive": 0,
    "aggressive": 20
  },
  "spawnLocations": [
    "Land"
  ],
  "biomeIDs": [
    6,
    134,
    26,
    25
  ],
  "evGain": {
    "HP": 0,
    "Attack": 0,
    "Defence": 1,
    "SpecialAttack": 0,
    "SpecialDefence": 0,
    "Speed": 0
  },
  "canSurf": false,
  "maxGroupSize": 1,
  "minGroupSize": 1,
  "hoverHeight": 0.0,
  "doesHover": false,
  "id": 686,
  "baseFormID": 686,
  "weight": 7.7,
  "pokemon": "Shelmet",
  "abilities": [
    "Hydration",
    "ShellArmour",
    "Overcoat"
  ],
  "eggGroups": [
    "Bug"
  ],
  "eggCycles": 16,
  "form": -1,
  "evolutionDefs": [
    {
      "targetId": 687,
      "evolveCondition": "Trade:Karrablast:Accelgor"
    }
  ],
  "moves": {
    "levelMoves": {
      "32": [
        "Guard Swap"
      ],
      "1": [
        "Protect",
        "Absorb"
      ],
      "4": [
        "Acid"
      ],
      "36": [
        "Body Slam"
      ],
      "8": [
        "Curse"
      ],
      "40": [
        "Recover"
      ],
      "12": [
        "Mega Drain"
      ],
      "44": [
        "Bug Buzz"
      ],
      "16": [
        "Struggle Bug"
      ],
      "48": [
        "Final Gambit"
      ],
      "20": [
        "Yawn"
      ],
      "24": [
        "Acid Armor"
      ],
      "28": [
        "Giga Drain"
      ]
    },
    "eggMoves": [
      "Feint",
      "Mind Reader",
      "Guard Split",
      "Double-Edge"
    ],
    "evolutionMoves": [],
    "tmTRMoves": [
      "Giga Drain",
      "Energy Ball",
      "Snore",
      "Protect",
      "Facade",
      "Guard Swap",
      "Venoshock",
      "Rain Dance",
      "Leech Life",
      "Sludge Bomb",
      "Baton Pass",
      "Spikes",
      "Rest",
      "Encore",
      "Bug Buzz",
      "Endure",
      "Sleep Talk",
      "Round",
      "Body Slam",
      "Mud Shot",
      "Substitute",
      "Toxic Spikes",
      "Attract"
    ],
    "tutorMoves": {
      "Regular": [
        "Skitter Smack"
      ],
      "Transfer": [
        "Secret Power",
        "Bug Bite",
        "Confide",
        "Hidden Power",
        "Bide",
        "Double Team",
        "Infestation",
        "Mud-Slap",
        "Toxic",
        "Swagger",
        "Signal Beam",
        "Return",
        "Pursuit",
        "Gastro Acid",
        "Frustration"
      ]
    }
  }
}