{
  "pixelmonName": "Shuckle",
  "spDef": 230,
  "spAtt": 10,
  "speed": 5,
  "defence": 230,
  "attack": 10,
  "hp": 20,
  "catchRate": 190,
  "malePercent": 50,
  "nationalPokedexNumber": 213,
  "spawnLevel": 5,
  "spawnLevelRange": 40,
  "baseExp": 80,
  "baseFriendship": 70,
  "rarity": {
    "day": 150,
    "dawndusk": 150,
    "night": 150
  },
  "type1": "Bug",
  "type2": "Rock",
  "height": 0.6,
  "width": 0.7,
  "length": 0.7,
  "giScale": 1.0,
  "canFly": false,
  "isRideable": false,
  "preEvolutions": [],
  "experienceGroup": "MediumSlow",
  "aggression": {
    "timid": 80,
    "passive": 0,
    "aggressive": 20
  },
  "spawnLocations": [
    "Land",
    "UnderGround"
  ],
  "biomeIDs": [
    3,
    3,
    34,
    131,
    162,
    37,
    38,
    39,
    165,
    166,
    167
  ],
  "evGain": {
    "HP": 0,
    "Attack": 0,
    "Defence": 1,
    "SpecialAttack": 0,
    "SpecialDefence": 1,
    "Speed": 0
  },
  "canSurf": false,
  "maxGroupSize": 1,
  "minGroupSize": 1,
  "hoverHeight": 0.0,
  "doesHover": false,
  "id": 328,
  "baseFormID": 328,
  "weight": 20.5,
  "pokemon": "Shuckle",
  "abilities": [
    "Sturdy",
    "Gluttony",
    "Contrary"
  ],
  "eggGroups": [
    "Bug"
  ],
  "eggCycles": 21,
  "form": -1,
  "evolutionDefs": [],
  "moves": {
    "levelMoves": {
      "1": [
        "Wrap",
        "Withdraw"
      ],
      "65": [
        "Shell Smash"
      ],
      "35": [
        "Power Split",
        "Guard Split"
      ],
      "5": [
        "Rollout"
      ],
      "40": [
        "Rock Slide"
      ],
      "10": [
        "Struggle Bug"
      ],
      "45": [
        "Gastro Acid"
      ],
      "15": [
        "Rock Throw"
      ],
      "50": [
        "Sticky Web"
      ],
      "20": [
        "Safeguard"
      ],
      "55": [
        "Power Trick"
      ],
      "25": [
        "Rest"
      ],
      "60": [
        "Stone Edge"
      ],
      "30": [
        "Bug Bite"
      ]
    },
    "eggMoves": [
      "Final Gambit",
      "Acid",
      "Acupressure",
      "Toxic",
      "Sweet Scent",
      "Knock Off",
      "Defense Curl",
      "Infestation",
      "Covet"
    ],
    "evolutionMoves": [],
    "tmTRMoves": [
      "Snore",
      "Facade",
      "Sludge Bomb",
      "Stone Edge",
      "Rock Blast",
      "Rest",
      "Sand Tomb",
      "Encore",
      "Earthquake",
      "Rock Slide",
      "Sludge Wave",
      "Earth Power",
      "Round",
      "Body Slam",
      "Sandstorm",
      "Bulldoze",
      "Iron Defense",
      "Mud Shot",
      "Substitute",
      "Attract",
      "Helping Hand",
      "Safeguard",
      "Protect",
      "Venoshock",
      "Dig",
      "Sunny Day",
      "Gyro Ball",
      "Rock Tomb",
      "Endure",
      "Sleep Talk",
      "Stealth Rock",
      "Reversal"
    ],
    "tutorMoves": {
      "Regular": [
        "Skitter Smack",
        "Meteor Beam",
        "Steel Roller"
      ],
      "Transfer": [
        "Rock Smash",
        "After You",
        "Secret Power",
        "Natural Gift",
        "Confide",
        "Curse",
        "Double-Edge",
        "Hidden Power",
        "Ancient Power",
        "Smack Down",
        "Bide",
        "Double Team",
        "Mud-Slap",
        "Bind",
        "Headbutt",
        "Swagger",
        "Flash",
        "Return",
        "Constrict",
        "Mimic",
        "Captivate",
        "Rock Polish",
        "String Shot",
        "Strength",
        "Frustration"
      ]
    }
  }
}