{
  "pixelmonName": "Silvally",
  "spDef": 95,
  "spAtt": 95,
  "speed": 95,
  "defence": 95,
  "attack": 95,
  "hp": 95,
  "catchRate": 3,
  "malePercent": -1,
  "nationalPokedexNumber": 773,
  "spawnLevel": 70,
  "spawnLevelRange": 0,
  "baseExp": 114,
  "baseFriendship": 70,
  "rarity": {
    "day": -1,
    "dawndusk": 0,
    "night": 0
  },
  "type1": "Water",
  "height": 2.3,
  "width": 2.3,
  "length": 2.3,
  "giScale": 1.0,
  "canFly": false,
  "isRideable": true,
  "preEvolutions": [
    "TypeNull"
  ],
  "experienceGroup": "Slow",
  "aggression": {
    "timid": 80,
    "passive": 0,
    "aggressive": 20
  },
  "spawnLocations": [
    "Land"
  ],
  "biomeIDs": [
    32
  ],
  "evGain": {
    "HP": 3,
    "Attack": 9,
    "Defence": 9,
    "SpecialAttack": 9,
    "SpecialDefence": 9,
    "Speed": 9
  },
  "canSurf": false,
  "ridingOffsets": {
    "standing": {
      "x": 0.0,
      "y": -1.2,
      "z": 0.0
    }
  },
  "maxGroupSize": 1,
  "minGroupSize": 1,
  "hoverHeight": 0.0,
  "doesHover": false,
  "id": 1053,
  "baseFormID": 948,
  "weight": 100.5,
  "pokemon": "Silvally",
  "abilities": [
    "RKSSystem",
    null,
    null
  ],
  "eggGroups": [
    "Undiscovered"
  ],
  "eggCycles": 120,
  "form": 3,
  "evolutionDefs": [],
  "moves": {
    "levelMoves": {
      "1": [
        "Tackle",
        "Thunder Fang",
        "Explosion",
        "Ice Fang",
        "Multi-Attack",
        "Bite",
        "Aerial Ace",
        "Scary Face",
        "Poison Fang",
        "Fire Fang",
        "Imprison",
        "Iron Head"
      ],
      "50": [
        "Take Down"
      ],
      "35": [
        "Tri Attack"
      ],
      "20": [
        "Metal Sound"
      ],
      "55": [
        "Double-Edge"
      ],
      "40": [
        "X-Scissor"
      ],
      "25": [
        "Crush Claw"
      ],
      "60": [
        "Parting Shot"
      ],
      "45": [
        "Crunch"
      ],
      "30": [
        "Air Slash"
      ],
      "15": [
        "Double Hit"
      ]
    },
    "eggMoves": [
      "Terrain Pulse"
    ],
    "evolutionMoves": [
      "Multi-Attack"
    ],
    "tmTRMoves": [
      "Flamethrower",
      "Fire Fang",
      "Swords Dance",
      "Icy Wind",
      "Iron Head",
      "Surf",
      "Ice Fang",
      "Work Up",
      "Heat Wave",
      "Imprison",
      "Substitute",
      "Ice Beam",
      "Thunder Wave",
      "Crunch",
      "Payback",
      "Tri Attack",
      "Self-Destruct",
      "Sunny Day",
      "Psychic Fangs",
      "Dragon Claw",
      "Flash Cannon",
      "Outrage",
      "Steel Wing",
      "Endure",
      "Swift",
      "Zen Headbutt",
      "Snore",
      "Facade",
      "Snarl",
      "Air Slash",
      "U-turn",
      "Rest",
      "Thunder Fang",
      "Rock Slide",
      "Scary Face",
      "Round",
      "Shadow Ball",
      "Sandstorm",
      "Iron Defense",
      "Hail",
      "Giga Impact",
      "Hyper Voice",
      "Protect",
      "Rain Dance",
      "Hyper Beam",
      "X-Scissor",
      "Sleep Talk",
      "Reversal",
      "Shadow Claw",
      "Thunderbolt"
    ],
    "tutorMoves": {
      "Regular": [
        "Terrain Pulse"
      ],
      "Transfer": [
        "Fire Pledge",
        "Draco Meteor",
        "Tailwind",
        "Confide",
        "Defog",
        "Water Pledge",
        "Hidden Power",
        "Magic Coat",
        "Double Team",
        "Punishment",
        "Toxic",
        "Rage",
        "Razor Wind",
        "Swagger",
        "Flame Charge",
        "Signal Beam",
        "Heal Block",
        "Grass Pledge",
        "Last Resort",
        "Return",
        "Roar",
        "Pursuit",
        "Frustration",
        "Laser Focus"
      ]
    }
  }
}