{
  "pixelmonName": "Skiddo",
  "spDef": 57,
  "spAtt": 62,
  "speed": 52,
  "defence": 48,
  "attack": 65,
  "hp": 66,
  "catchRate": 200,
  "malePercent": 50,
  "nationalPokedexNumber": 672,
  "spawnLevel": 2,
  "spawnLevelRange": 30,
  "baseExp": 70,
  "baseFriendship": 0,
  "rarity": {
    "day": 50,
    "dawndusk": 0,
    "night": 0
  },
  "type1": "Grass",
  "height": 0.9,
  "width": 0.9,
  "length": 0.9,
  "giScale": 1.0,
  "canFly": false,
  "isRideable": false,
  "preEvolutions": [],
  "experienceGroup": "MediumFast",
  "aggression": {
    "timid": 80,
    "passive": 0,
    "aggressive": 20
  },
  "spawnLocations": [
    "Land"
  ],
  "biomeIDs": [
    27,
    34
  ],
  "evGain": {
    "HP": 1,
    "Attack": 0,
    "Defence": 0,
    "SpecialAttack": 0,
    "SpecialDefence": 0,
    "Speed": 0
  },
  "canSurf": false,
  "maxGroupSize": 1,
  "minGroupSize": 1,
  "hoverHeight": 0.0,
  "doesHover": false,
  "id": 780,
  "baseFormID": 780,
  "weight": 31.0,
  "pokemon": "Skiddo",
  "abilities": [
    "SapSipper",
    null,
    "GrassPelt"
  ],
  "eggGroups": [
    "Field"
  ],
  "eggCycles": 21,
  "form": -1,
  "evolutionDefs": [
    {
      "targetId": 756,
      "evolveLevel": 32
    }
  ],
  "moves": {
    "levelMoves": {
      "1": [
        "Tackle",
        "Growth"
      ],
      "34": [
        "Bulk Up"
      ],
      "38": [
        "Double-Edge"
      ],
      "7": [
        "Vine Whip"
      ],
      "9": [
        "Tail Whip"
      ],
      "42": [
        "Horn Leech"
      ],
      "12": [
        "Leech Seed"
      ],
      "13": [
        "Razor Leaf"
      ],
      "45": [
        "Leaf Blade"
      ],
      "16": [
        "Worry Seed"
      ],
      "50": [
        "Milk Drink"
      ],
      "20": [
        "Synthesis"
      ],
      "22": [
        "Take Down"
      ],
      "26": [
        "Bulldoze"
      ],
      "30": [
        "Seed Bomb"
      ]
    },
    "eggMoves": [
      "Milk Drink",
      "Defense Curl",
      "Rollout",
      "Grassy Terrain"
    ],
    "evolutionMoves": [],
    "tmTRMoves": [
      "Solar Beam",
      "Dig",
      "Rest",
      "Rock Slide",
      "Snore",
      "Protect",
      "Giga Drain",
      "Attract",
      "Rain Dance",
      "Sunny Day",
      "Facade",
      "Brick Break",
      "Payback",
      "Round",
      "Retaliate",
      "Bulldoze",
      "Grassy Terrain",
      "Surf",
      "Substitute",
      "Endure",
      "Sleep Talk",
      "Iron Tail",
      "Bulk Up",
      "Leaf Blade",
      "Seed Bomb",
      "Energy Ball",
      "Zen Headbutt",
      "Grass Knot",
      "Work Up",
      "Wild Charge"
    ],
    "tutorMoves": {
      "Regular": [
        "Giga Drain",
        "Seed Bomb",
        "Snore",
        "Worry Seed",
        "Synthesis",
        "Iron Tail",
        "Zen Headbutt"
      ],
      "Transfer": [
        "Rock Smash",
        "Secret Power",
        "Confide",
        "Hidden Power",
        "Double Team",
        "Toxic",
        "Swagger",
        "Return",
        "Nature Power",
        "Roar",
        "Strength",
        "Frustration"
      ]
    }
  }
}