{
  "pixelmonName": "Skiploom",
  "spDef": 65,
  "spAtt": 45,
  "speed": 80,
  "defence": 50,
  "attack": 45,
  "hp": 55,
  "catchRate": 120,
  "malePercent": 50,
  "nationalPokedexNumber": 188,
  "spawnLevel": 18,
  "spawnLevelRange": 8,
  "baseExp": 136,
  "baseFriendship": 70,
  "rarity": {
    "day": 120,
    "dawndusk": 0,
    "night": 0
  },
  "type1": "Grass",
  "type2": "Flying",
  "height": 0.6,
  "width": 0.5,
  "length": 0.5,
  "giScale": 1.0,
  "canFly": false,
  "isRideable": false,
  "preEvolutions": [
    "Hoppip"
  ],
  "experienceGroup": "MediumSlow",
  "aggression": {
    "timid": 80,
    "passive": 0,
    "aggressive": 20
  },
  "spawnLocations": [
    "Land"
  ],
  "biomeIDs": [
    1,
    129
  ],
  "evGain": {
    "HP": 0,
    "Attack": 0,
    "Defence": 0,
    "SpecialAttack": 0,
    "SpecialDefence": 0,
    "Speed": 2
  },
  "canSurf": false,
  "maxGroupSize": 4,
  "minGroupSize": 1,
  "hoverHeight": 1.0,
  "doesHover": true,
  "id": 124,
  "baseFormID": 124,
  "weight": 1.0,
  "pokemon": "Skiploom",
  "abilities": [
    "Chlorophyll",
    "LeafGuard",
    "Infiltrator"
  ],
  "eggGroups": [
    "Fairy",
    "Grass"
  ],
  "eggCycles": 21,
  "form": -1,
  "evolutionDefs": [
    {
      "targetId": 125,
      "evolveLevel": 27
    }
  ],
  "moves": {
    "levelMoves": {
      "32": [
        "Acrobatics"
      ],
      "1": [
        "Tackle",
        "Synthesis",
        "Tail Whip",
        "Splash",
        "Absorb"
      ],
      "4": [
        "Synthesis"
      ],
      "36": [
        "Rage Powder"
      ],
      "6": [
        "Tail Whip"
      ],
      "8": [
        "Tackle"
      ],
      "40": [
        "Cotton Spore"
      ],
      "10": [
        "Fairy Wind"
      ],
      "12": [
        "Poison Powder"
      ],
      "44": [
        "U-turn"
      ],
      "14": [
        "Stun Spore"
      ],
      "16": [
        "Sleep Powder"
      ],
      "48": [
        "Worry Seed"
      ],
      "20": [
        "Bullet Seed"
      ],
      "52": [
        "Giga Drain"
      ],
      "24": [
        "Leech Seed"
      ],
      "56": [
        "Bounce"
      ],
      "28": [
        "Mega Drain"
      ],
      "60": [
        "Memento"
      ]
    },
    "eggMoves": [
      "Helping Hand",
      "Seed Bomb",
      "Worry Seed",
      "Encore",
      "Endure",
      "Aromatherapy",
      "Amnesia",
      "Confusion",
      "Cotton Guard",
      "Grassy Terrain",
      "Double-Edge",
      "Strength Sap"
    ],
    "evolutionMoves": [],
    "tmTRMoves": [
      "Pay Day",
      "Solar Beam",
      "Reflect",
      "Rest",
      "Snore",
      "Protect",
      "Giga Drain",
      "Attract",
      "Sunny Day",
      "Facade",
      "Helping Hand",
      "Bullet Seed",
      "Bounce",
      "U-turn",
      "Round",
      "Acrobatics",
      "Grassy Terrain",
      "Swords Dance",
      "Amnesia",
      "Substitute",
      "Endure",
      "Sleep Talk",
      "Baton Pass",
      "Encore",
      "Seed Bomb",
      "Energy Ball",
      "Leaf Storm",
      "Grass Knot",
      "Dazzling Gleam"
    ],
    "tutorMoves": {
      "Regular": [
        "Giga Drain",
        "Helping Hand",
        "Seed Bomb",
        "Snore",
        "Worry Seed",
        "Synthesis",
        "Bounce"
      ],
      "Transfer": [
        "Silver Wind",
        "Secret Power",
        "Growl",
        "Psych Up",
        "Natural Gift",
        "Confide",
        "Curse",
        "Hidden Power",
        "Double Team",
        "Infestation",
        "Toxic",
        "Aerial Ace",
        "Headbutt",
        "Swagger",
        "Defense Curl",
        "Flash",
        "Return",
        "Sweet Scent",
        "Mimic",
        "Captivate",
        "Frustration"
      ]
    }
  }
}