{
  "pixelmonName": "Smoochum",
  "spDef": 65,
  "spAtt": 85,
  "speed": 65,
  "defence": 15,
  "attack": 30,
  "hp": 45,
  "catchRate": 45,
  "malePercent": 0,
  "nationalPokedexNumber": 238,
  "spawnLevel": 5,
  "spawnLevelRange": 24,
  "baseExp": 87,
  "baseFriendship": 70,
  "rarity": {
    "day": 0,
    "dawndusk": 0,
    "night": 0
  },
  "type1": "Ice",
  "type2": "Psychic",
  "height": 0.4,
  "width": 0.7,
  "length": 0.7,
  "giScale": 1.0,
  "canFly": false,
  "isRideable": false,
  "preEvolutions": [],
  "experienceGroup": "MediumFast",
  "aggression": {
    "timid": 80,
    "passive": 0,
    "aggressive": 20
  },
  "spawnLocations": [
    "Land"
  ],
  "biomeIDs": [
    30,
    31,
    158
  ],
  "evGain": {
    "HP": 0,
    "Attack": 0,
    "Defence": 0,
    "SpecialAttack": 1,
    "SpecialDefence": 0,
    "Speed": 0
  },
  "canSurf": false,
  "maxGroupSize": 2,
  "minGroupSize": 1,
  "hoverHeight": 0.0,
  "doesHover": false,
  "id": 350,
  "baseFormID": 350,
  "weight": 6.0,
  "pokemon": "Smoochum",
  "abilities": [
    "Oblivious",
    "Forewarn",
    "Hydration"
  ],
  "eggGroups": [
    "Undiscovered"
  ],
  "eggCycles": 26,
  "form": -1,
  "evolutionDefs": [
    {
      "targetId": 169,
      "evolveLevel": 30
    }
  ],
  "moves": {
    "levelMoves": {
      "32": [
        "Psychic"
      ],
      "1": [
        "Lick",
        "Pound"
      ],
      "4": [
        "Powder Snow"
      ],
      "36": [
        "Sweet Kiss"
      ],
      "8": [
        "Copycat"
      ],
      "40": [
        "Mean Look"
      ],
      "12": [
        "Confusion"
      ],
      "44": [
        "Perish Song"
      ],
      "16": [
        "Covet"
      ],
      "48": [
        "Blizzard"
      ],
      "20": [
        "Sing"
      ],
      "24": [
        "Fake Tears"
      ],
      "28": [
        "Ice Punch"
      ]
    },
    "eggMoves": [
      "Fake Out",
      "Wish",
      "Role Play"
    ],
    "evolutionMoves": [],
    "tmTRMoves": [
      "Snore",
      "Facade",
      "Uproar",
      "Metronome",
      "Light Screen",
      "Magic Room",
      "Grass Knot",
      "Icy Wind",
      "Mega Kick",
      "Stored Power",
      "Rest",
      "Encore",
      "Wonder Room",
      "Charm",
      "Nasty Plot",
      "Round",
      "Body Slam",
      "Shadow Ball",
      "Substitute",
      "Attract",
      "Hail",
      "Ice Beam",
      "Skill Swap",
      "Helping Hand",
      "Payback",
      "Protect",
      "Rain Dance",
      "Mega Punch",
      "Thief",
      "Fake Tears",
      "Psyshock",
      "Trick",
      "Avalanche",
      "Calm Mind",
      "Fling",
      "Psychic",
      "Reflect",
      "Endure",
      "Sleep Talk",
      "Zen Headbutt",
      "Draining Kiss",
      "Ice Punch",
      "Trick Room",
      "Blizzard"
    ],
    "tutorMoves": {
      "Transfer": [
        "Secret Power",
        "Psych Up",
        "Dream Eater",
        "Natural Gift",
        "Confide",
        "Counter",
        "Curse",
        "Frost Breath",
        "Heart Stamp",
        "Lovely Kiss",
        "Double-Edge",
        "Hidden Power",
        "Magic Coat",
        "Lucky Chant",
        "Echoed Voice",
        "Water Pulse",
        "Recycle",
        "Double Team",
        "Heal Bell",
        "Mud-Slap",
        "Toxic",
        "Seismic Toss",
        "Dynamic Punch",
        "Swagger",
        "Nightmare",
        "Flash",
        "Signal Beam",
        "Return",
        "Aurora Veil",
        "Sweet Scent",
        "Mimic",
        "Miracle Eye",
        "Captivate",
        "Meditate",
        "Wake-Up Slap",
        "Frustration"
      ]
    }
  }
}