{
  "pixelmonName": "Sobble",
  "spDef": 40,
  "spAtt": 70,
  "speed": 70,
  "defence": 40,
  "attack": 40,
  "hp": 50,
  "catchRate": 45,
  "malePercent": 87,
  "nationalPokedexNumber": 816,
  "spawnLevel": 2,
  "spawnLevelRange": 13,
  "baseExp": 62,
  "baseFriendship": 50,
  "rarity": {
    "day": 30,
    "dawndusk": 0,
    "night": 0
  },
  "type1": "Water",
  "height": 0.3,
  "width": 0.3,
  "length": 0.3,
  "giScale": 1.0,
  "canFly": false,
  "isRideable": false,
  "preEvolutions": [],
  "experienceGroup": "MediumSlow",
  "aggression": {
    "timid": 80,
    "passive": 0,
    "aggressive": 20
  },
  "spawnLocations": [],
  "biomeIDs": [],
  "evGain": {
    "HP": 0,
    "Attack": 0,
    "Defence": 0,
    "SpecialAttack": 0,
    "SpecialDefence": 1,
    "Speed": 1
  },
  "canSurf": false,
  "maxGroupSize": 2,
  "minGroupSize": 1,
  "hoverHeight": 0.0,
  "doesHover": false,
  "id": 1006,
  "baseFormID": 1006,
  "weight": 4.0,
  "pokemon": "Sobble",
  "abilities": [
    "Torrent",
    null,
    "Sniper"
  ],
  "eggGroups": [
    "Water1",
    "Field"
  ],
  "eggCycles": 21,
  "form": -1,
  "evolutionDefs": [
    {
      "targetId": 1007,
      "evolveLevel": 16
    }
  ],
  "moves": {
    "levelMoves": {
      "32": [
        "Soak"
      ],
      "1": [
        "Growl",
        "Pound"
      ],
      "17": [
        "Tearful Look"
      ],
      "20": [
        "Sucker Punch"
      ],
      "36": [
        "Rain Dance"
      ],
      "6": [
        "Water Gun"
      ],
      "8": [
        "Bind"
      ],
      "24": [
        "U-turn"
      ],
      "12": [
        "Water Pulse"
      ],
      "28": [
        "Liquidation"
      ]
    },
    "eggMoves": [
      "Ice Shard",
      "Haze",
      "Aqua Ring",
      "Mist",
      "Double Team",
      "Fell Stinger",
      "Aqua Jet"
    ],
    "evolutionMoves": [],
    "tmTRMoves": [
      "Weather Ball",
      "Snore",
      "Facade",
      "Light Screen",
      "U-turn",
      "Surf",
      "Rest",
      "Work Up",
      "Round",
      "Bounce",
      "Liquidation",
      "Mud Shot",
      "Substitute",
      "Attract",
      "Safeguard",
      "Protect",
      "Rain Dance",
      "Baton Pass",
      "Dive",
      "Reflect",
      "Endure",
      "Sleep Talk",
      "Whirlpool",
      "Muddy Water",
      "Swift"
    ],
    "tutorMoves": {}
  }
}