{
  "pixelmonName": "Spinda",
  "spDef": 60,
  "spAtt": 60,
  "speed": 60,
  "defence": 60,
  "attack": 60,
  "hp": 60,
  "catchRate": 255,
  "malePercent": 50,
  "nationalPokedexNumber": 327,
  "spawnLevel": 10,
  "spawnLevelRange": 15,
  "baseExp": 126,
  "baseFriendship": 70,
  "rarity": {
    "day": 0,
    "dawndusk": 200,
    "night": 0
  },
  "type1": "Normal",
  "height": 1.1,
  "width": 1.0,
  "length": 1.0,
  "giScale": 1.0,
  "canFly": false,
  "isRideable": false,
  "preEvolutions": [],
  "experienceGroup": "Fast",
  "aggression": {
    "timid": 80,
    "passive": 0,
    "aggressive": 20
  },
  "spawnLocations": [
    "Land"
  ],
  "biomeIDs": [
    3,
    3,
    34,
    131,
    162
  ],
  "evGain": {
    "HP": 0,
    "Attack": 0,
    "Defence": 0,
    "SpecialAttack": 1,
    "SpecialDefence": 0,
    "Speed": 0
  },
  "canSurf": false,
  "maxGroupSize": 1,
  "minGroupSize": 1,
  "hoverHeight": 0.0,
  "doesHover": false,
  "id": 431,
  "baseFormID": 431,
  "weight": 5.0,
  "pokemon": "Spinda",
  "abilities": [
    "OwnTempo",
    "TangledFeet",
    "Contrary"
  ],
  "eggGroups": [
    "Field",
    "Humanlike"
  ],
  "eggCycles": 21,
  "form": -1,
  "evolutionDefs": [],
  "moves": {
    "levelMoves": {
      "32": [
        "Teeter Dance"
      ],
      "1": [
        "Tackle"
      ],
      "5": [
        "Copycat"
      ],
      "37": [
        "Uproar"
      ],
      "41": [
        "Psych Up"
      ],
      "10": [
        "Faint Attack"
      ],
      "14": [
        "Psybeam"
      ],
      "46": [
        "Double-Edge"
      ],
      "50": [
        "Flail"
      ],
      "19": [
        "Hypnosis"
      ],
      "23": [
        "Dizzy Punch"
      ],
      "55": [
        "Thrash"
      ],
      "28": [
        "Sucker Punch"
      ]
    },
    "eggMoves": [
      "Fake Tears",
      "Trick",
      "Fake Out",
      "Spotlight",
      "Baton Pass",
      "Icy Wind",
      "Psycho Shift",
      "Wish",
      "Role Play",
      "Encore",
      "Rapid Spin",
      "Water Pulse",
      "Psycho Cut",
      "Smelling Salts",
      "Assist",
      "Guard Split",
      "Disable"
    ],
    "evolutionMoves": [],
    "tmTRMoves": [
      "Mega Punch",
      "Mega Kick",
      "Fire Punch",
      "Ice Punch",
      "Thunder Punch",
      "Dig",
      "Safeguard",
      "Rest",
      "Rock Slide",
      "Thief",
      "Snore",
      "Protect",
      "Icy Wind",
      "Attract",
      "Rain Dance",
      "Sunny Day",
      "Facade",
      "Swift",
      "Helping Hand",
      "Brick Break",
      "Rock Tomb",
      "Fling",
      "Drain Punch",
      "Psycho Cut",
      "Trick Room",
      "Round",
      "Retaliate",
      "Stomping Tantrum",
      "Body Slam",
      "Low Kick",
      "Psychic",
      "Metronome",
      "Substitute",
      "Endure",
      "Sleep Talk",
      "Baton Pass",
      "Encore",
      "Shadow Ball",
      "Uproar",
      "Trick",
      "Superpower",
      "Skill Swap",
      "Hyper Voice",
      "Calm Mind",
      "Zen Headbutt",
      "Work Up",
      "Wild Charge"
    ],
    "tutorMoves": {
      "Regular": [
        "Helping Hand",
        "Focus Punch",
        "Drain Punch",
        "Last Resort",
        "Snore",
        "Uproar",
        "Trick",
        "Stomping Tantrum",
        "Icy Wind",
        "Snatch",
        "Role Play",
        "Water Pulse",
        "Low Kick",
        "Recycle",
        "Zen Headbutt",
        "Covet",
        "Shock Wave",
        "Thunder Punch",
        "Skill Swap",
        "Fire Punch",
        "Hyper Voice",
        "Ice Punch"
      ],
      "Transfer": [
        "Dream Eater",
        "Natural Gift",
        "Confide",
        "Hidden Power",
        "Power-Up Punch",
        "Double Team",
        "Seismic Toss",
        "Headbutt",
        "Dynamic Punch",
        "Swagger",
        "Defense Curl",
        "Mimic",
        "Captivate",
        "Frustration",
        "Rock Smash",
        "Secret Power",
        "Counter",
        "Mud-Slap",
        "Toxic",
        "Flash",
        "Rollout",
        "Return",
        "Strength"
      ]
    }
  }
}