{
  "pixelmonName": "Steelix",
  "spDef": 65,
  "spAtt": 55,
  "speed": 30,
  "defence": 200,
  "attack": 85,
  "hp": 75,
  "catchRate": 25,
  "malePercent": 50,
  "nationalPokedexNumber": 208,
  "spawnLevel": 30,
  "spawnLevelRange": 30,
  "baseExp": 196,
  "baseFriendship": 70,
  "rarity": {
    "day": 0,
    "dawndusk": 0,
    "night": 0
  },
  "type1": "Steel",
  "type2": "Ground",
  "height": 1.5,
  "width": 1.0,
  "length": 9.2,
  "giScale": 1.0,
  "canFly": false,
  "isRideable": true,
  "preEvolutions": [
    "Onix"
  ],
  "experienceGroup": "MediumFast",
  "aggression": {
    "timid": 80,
    "passive": 0,
    "aggressive": 20
  },
  "spawnLocations": [
    "Land"
  ],
  "biomeIDs": [
    3,
    3,
    34,
    131,
    162,
    37,
    38,
    39,
    165,
    166,
    167
  ],
  "evGain": {
    "HP": 0,
    "Attack": 0,
    "Defence": 2,
    "SpecialAttack": 0,
    "SpecialDefence": 0,
    "Speed": 0
  },
  "canSurf": false,
  "ridingOffsets": {
    "standing": {
      "x": 0.0,
      "y": -1.0,
      "z": 0.0
    }
  },
  "maxGroupSize": 1,
  "minGroupSize": 1,
  "hoverHeight": 0.0,
  "doesHover": false,
  "id": 323,
  "baseFormID": 323,
  "weight": 400.0,
  "pokemon": "Steelix",
  "abilities": [
    "RockHead",
    "Sturdy",
    "SheerForce"
  ],
  "eggGroups": [
    "Mineral"
  ],
  "eggCycles": 26,
  "form": -1,
  "evolutionDefs": [],
  "moves": {
    "levelMoves": {
      "32": [
        "Stealth Rock"
      ],
      "1": [
        "Bind",
        "Tackle",
        "Thunder Fang",
        "Ice Fang",
        "Rock Throw",
        "Fire Fang",
        "Rock Polish",
        "Harden",
        "Crunch"
      ],
      "4": [
        "Smack Down"
      ],
      "36": [
        "Slam"
      ],
      "8": [
        "Autotomize"
      ],
      "40": [
        "Sandstorm"
      ],
      "12": [
        "Dragon Breath"
      ],
      "44": [
        "Dig"
      ],
      "16": [
        "Curse"
      ],
      "48": [
        "Iron Tail"
      ],
      "20": [
        "Rock Slide"
      ],
      "52": [
        "Stone Edge"
      ],
      "24": [
        "Screech"
      ],
      "56": [
        "Double-Edge"
      ],
      "28": [
        "Sand Tomb"
      ],
      "60": [
        "Magnet Rise"
      ]
    },
    "alphaMoves":[
      "Fire Fang",
      "Thunder Fang",
      "Ice Fang",
      "Ice Ball",
      "Rock Smash",
      "Bulldoze",
      "Stealth Rock",
      "Power Shift",
      "Rest",
      "Rock Slide",
      "Iron Head",
      "Iron Tail",
      "Earth Power",
      "Flash Cannon",
      "Giga Impact",
      "Aqua Tail",
      "High Horsepower",
      "Stone Edge",
      "Hyper Beam",
      "Dark Pulse",
      "Steel Beam"
    ],
    "eggMoves": [
      "Flail",
      "Dragon Tail",
      "Head Smash",
      "Wide Guard",
      "Block",
      "Defense Curl",
      "Rollout"
    ],
    "evolutionMoves": [],
    "tmTRMoves": [
      "Taunt",
      "Fire Fang",
      "Rock Blast",
      "Screech",
      "Breaking Swipe",
      "Iron Head",
      "Sand Tomb",
      "Ice Fang",
      "Iron Tail",
      "Body Slam",
      "Bulldoze",
      "Substitute",
      "Dragon Dance",
      "Attract",
      "Crunch",
      "Payback",
      "Self-Destruct",
      "Sunny Day",
      "Psychic Fangs",
      "Drill Run",
      "Flash Cannon",
      "Rock Tomb",
      "Brutal Swing",
      "Endure",
      "Snore",
      "Facade",
      "Heavy Slam",
      "Dark Pulse",
      "Stone Edge",
      "Stomping Tantrum",
      "Rest",
      "Thunder Fang",
      "Earthquake",
      "Rock Slide",
      "Earth Power",
      "Scary Face",
      "Round",
      "Sandstorm",
      "Iron Defense",
      "Giga Impact",
      "Body Press",
      "Dragon Pulse",
      "Protect",
      "Dig",
      "High Horsepower",
      "Hyper Beam",
      "Gyro Ball",
      "Sleep Talk",
      "Stealth Rock"
    ],
    "tutorMoves": {
      "Regular": [
        "Scorching Sands",
        "Meteor Beam",
        "Steel Roller",
        "Steel Beam"
      ],
      "Transfer": [
        "Natural Gift",
        "Confide",
        "Mud Sport",
        "Cut",
        "Hidden Power",
        "Ancient Power",
        "Double Team",
        "Rototiller",
        "Rage",
        "Headbutt",
        "Swagger",
        "Aqua Tail",
        "Mimic",
        "Captivate",
        "Roar",
        "Twister",
        "Torment",
        "Frustration",
        "Rock Smash",
        "Secret Power",
        "Psych Up",
        "Explosion",
        "Mud-Slap",
        "Toxic",
        "Rock Climb",
        "Return",
        "Nature Power",
        "Strength"
      ]
    }
  }
}