{
  "pixelmonName": "Sunflora",
  "spDef": 85,
  "spAtt": 105,
  "speed": 30,
  "defence": 55,
  "attack": 75,
  "hp": 75,
  "catchRate": 120,
  "malePercent": 50,
  "nationalPokedexNumber": 192,
  "spawnLevel": 10,
  "spawnLevelRange": 40,
  "baseExp": 146,
  "baseFriendship": 70,
  "rarity": {
    "day": 40,
    "dawndusk": 0,
    "night": 0
  },
  "type1": "Grass",
  "height": 0.8,
  "width": 0.6,
  "length": 0.3,
  "giScale": 1.0,
  "canFly": false,
  "isRideable": false,
  "preEvolutions": [
    "Sunkern"
  ],
  "experienceGroup": "MediumSlow",
  "aggression": {
    "timid": 80,
    "passive": 0,
    "aggressive": 20
  },
  "spawnLocations": [
    "Land"
  ],
  "biomeIDs": [
    129,
    132
  ],
  "evGain": {
    "HP": 0,
    "Attack": 0,
    "Defence": 0,
    "SpecialAttack": 2,
    "SpecialDefence": 0,
    "Speed": 0
  },
  "canSurf": false,
  "maxGroupSize": 3,
  "minGroupSize": 1,
  "hoverHeight": 0.0,
  "doesHover": false,
  "id": 195,
  "baseFormID": 195,
  "weight": 8.5,
  "pokemon": "Sunflora",
  "abilities": [
    "Chlorophyll",
    "SolarPower",
    "EarlyBird"
  ],
  "eggGroups": [
    "Grass"
  ],
  "eggCycles": 21,
  "form": -1,
  "evolutionDefs": [],
  "moves": {
    "levelMoves": {
      "1": [
        "Flower Shield",
        "Growth",
        "Pound",
        "Absorb"
      ],
      "34": [
        "Solar Beam"
      ],
      "4": [
        "Ingrain"
      ],
      "37": [
        "Double-Edge"
      ],
      "7": [
        "Grass Whistle"
      ],
      "40": [
        "Sunny Day"
      ],
      "10": [
        "Mega Drain"
      ],
      "43": [
        "Leaf Storm"
      ],
      "13": [
        "Leech Seed"
      ],
      "16": [
        "Razor Leaf"
      ],
      "50": [
        "Petal Blizzard"
      ],
      "19": [
        "Worry Seed"
      ],
      "22": [
        "Giga Drain"
      ],
      "25": [
        "Bullet Seed"
      ],
      "28": [
        "Petal Dance"
      ],
      "31": [
        "Natural Gift"
      ]
    },
    "eggMoves": [
      "Helping Hand",
      "Nature Power",
      "Sweet Scent",
      "Grass Whistle",
      "Ingrain",
      "Morning Sun",
      "Leech Seed",
      "Natural Gift",
      "Encore",
      "Curse",
      "Endure",
      "Bide",
      "Grassy Terrain"
    ],
    "evolutionMoves": [],
    "tmTRMoves": [
      "Hyper Beam",
      "Giga Impact",
      "Solar Beam",
      "Light Screen",
      "Safeguard",
      "Rest",
      "Snore",
      "Protect",
      "Giga Drain",
      "Attract",
      "Sunny Day",
      "Facade",
      "Helping Hand",
      "Weather Ball",
      "Bullet Seed",
      "Round",
      "Grassy Terrain",
      "Swords Dance",
      "Substitute",
      "Sludge Bomb",
      "Endure",
      "Sleep Talk",
      "Encore",
      "Uproar",
      "Leaf Blade",
      "Seed Bomb",
      "Energy Ball",
      "Earth Power",
      "Leaf Storm",
      "Grass Knot"
    ],
    "tutorMoves": {
      "Regular": [
        "Giga Drain",
        "Helping Hand",
        "After You",
        "Endeavor",
        "Seed Bomb",
        "Snore",
        "Uproar",
        "Worry Seed",
        "Synthesis",
        "Earth Power"
      ],
      "Transfer": [
        "Secret Power",
        "Confide",
        "Cut",
        "Hidden Power",
        "Double Team",
        "Toxic",
        "Swagger",
        "Flash",
        "Return",
        "Mimic",
        "Captivate",
        "Frustration"
      ]
    }
  }
}