{
  "pixelmonName": "Swalot",
  "spDef": 83,
  "spAtt": 73,
  "speed": 55,
  "defence": 83,
  "attack": 73,
  "hp": 100,
  "catchRate": 75,
  "malePercent": 50,
  "nationalPokedexNumber": 317,
  "spawnLevel": 30,
  "spawnLevelRange": 20,
  "baseExp": 168,
  "baseFriendship": 70,
  "rarity": {
    "day": 0,
    "dawndusk": 0,
    "night": 0
  },
  "type1": "Poison",
  "height": 1.7,
  "width": 1.0,
  "length": 1.0,
  "giScale": 1.0,
  "canFly": false,
  "isRideable": false,
  "preEvolutions": [
    "Gulpin"
  ],
  "experienceGroup": "Fluctuating",
  "aggression": {
    "timid": 80,
    "passive": 0,
    "aggressive": 20
  },
  "spawnLocations": [
    "Land"
  ],
  "biomeIDs": [
    6,
    134
  ],
  "evGain": {
    "HP": 2,
    "Attack": 0,
    "Defence": 0,
    "SpecialAttack": 0,
    "SpecialDefence": 0,
    "Speed": 0
  },
  "canSurf": false,
  "maxGroupSize": 1,
  "minGroupSize": 1,
  "hoverHeight": 0.0,
  "doesHover": false,
  "id": 423,
  "baseFormID": 423,
  "weight": 80.0,
  "pokemon": "Swalot",
  "abilities": [
    "LiquidOoze",
    "StickyHold",
    "Gluttony"
  ],
  "eggGroups": [
    "Amorphous"
  ],
  "eggCycles": 21,
  "form": -1,
  "evolutionDefs": [],
  "moves": {
    "levelMoves": {
      "1": [
        "Wring Out",
        "Venom Drench",
        "Yawn",
        "Pound",
        "Body Slam",
        "Sludge",
        "Gunk Shot",
        "Poison Gas"
      ],
      "5": [
        "Yawn"
      ],
      "37": [
        "Sludge Bomb"
      ],
      "8": [
        "Poison Gas"
      ],
      "10": [
        "Sludge"
      ],
      "42": [
        "Gastro Acid"
      ],
      "12": [
        "Amnesia"
      ],
      "17": [
        "Acid Spray"
      ],
      "49": [
        "Belch"
      ],
      "20": [
        "Encore"
      ],
      "54": [
        "Wring Out"
      ],
      "25": [
        "Toxic"
      ],
      "61": [
        "Gunk Shot"
      ],
      "30": [
        "Spit Up",
        "Swallow",
        "Stockpile"
      ]
    },
    "eggMoves": [
      "Mud-Slap",
      "Destiny Bond",
      "Curse",
      "Smog",
      "Venom Drench",
      "Acid Armor",
      "Pain Split",
      "Gunk Shot"
    ],
    "evolutionMoves": [
      "Body Slam"
    ],
    "tmTRMoves": [
      "Fire Punch",
      "Ice Punch",
      "Thunder Punch",
      "Hyper Beam",
      "Giga Impact",
      "Solar Beam",
      "Self-destruct",
      "Rest",
      "Snore",
      "Protect",
      "Attract",
      "Rain Dance",
      "Sunny Day",
      "Facade",
      "Bullet Seed",
      "Venoshock",
      "Round",
      "Bulldoze",
      "Body Slam",
      "Ice Beam",
      "Earthquake",
      "Amnesia",
      "Substitute",
      "Sludge Bomb",
      "Endure",
      "Sleep Talk",
      "Encore",
      "Shadow Ball",
      "Seed Bomb",
      "Gunk Shot",
      "Sludge Wave",
      "Venom Drench"
    ],
    "tutorMoves": {
      "Regular": [
        "Giga Drain",
        "Snore",
        "Snatch",
        "Seed Bomb",
        "Water Pulse",
        "Block",
        "Pain Split",
        "Gastro Acid",
        "Gunk Shot",
        "Shock Wave",
        "Thunder Punch",
        "Fire Punch",
        "Ice Punch"
      ],
      "Transfer": [
        "Rock Smash",
        "Secret Power",
        "Dream Eater",
        "Natural Gift",
        "Confide",
        "Counter",
        "Double-Edge",
        "Explosion",
        "Hidden Power",
        "Power-Up Punch",
        "Double Team",
        "Infestation",
        "Headbutt",
        "Dynamic Punch",
        "Swagger",
        "Defense Curl",
        "Rollout",
        "Return",
        "Mimic",
        "Captivate",
        "Strength",
        "Frustration"
      ]
    }
  }
}