{
  "pixelmonName": "Togepi",
  "spDef": 65,
  "spAtt": 40,
  "speed": 20,
  "defence": 65,
  "attack": 20,
  "hp": 35,
  "catchRate": 190,
  "malePercent": 87,
  "nationalPokedexNumber": 175,
  "spawnLevel": 5,
  "spawnLevelRange": 10,
  "baseExp": 74,
  "baseFriendship": 70,
  "rarity": {
    "day": 0,
    "dawndusk": 0,
    "night": 0
  },
  "type1": "Fairy",
  "height": 0.3,
  "width": 0.3,
  "length": 0.3,
  "giScale": 1.0,
  "canFly": false,
  "isRideable": false,
  "preEvolutions": [],
  "experienceGroup": "Fast",
  "aggression": {
    "timid": 80,
    "passive": 0,
    "aggressive": 20
  },
  "spawnLocations": [
    "Land"
  ],
  "biomeIDs": [
    4,
    5,
    18,
    19,
    27,
    28,
    29,
    32,
    33,
    132,
    133,
    155,
    156,
    157,
    160,
    161
  ],
  "evGain": {
    "HP": 0,
    "Attack": 0,
    "Defence": 0,
    "SpecialAttack": 0,
    "SpecialDefence": 1,
    "Speed": 0
  },
  "canSurf": false,
  "maxGroupSize": 2,
  "minGroupSize": 1,
  "hoverHeight": 0.0,
  "doesHover": false,
  "id": 188,
  "baseFormID": 188,
  "weight": 1.5,
  "pokemon": "Togepi",
  "abilities": [
    "Hustle",
    "SereneGrace",
    "SuperLuck"
  ],
  "eggGroups": [
    "Undiscovered"
  ],
  "eggCycles": 11,
  "form": -1,
  "evolutionDefs": [
    {
      "targetId": 11,
      "evolveCondition": "Friendship:Togetic"
    }
  ],
  "moves": {
    "levelMoves": {
      "32": [
        "Double-Edge"
      ],
      "1": [
        "Growl",
        "Pound"
      ],
      "4": [
        "Sweet Kiss"
      ],
      "36": [
        "Safeguard"
      ],
      "8": [
        "Life Dew"
      ],
      "40": [
        "Follow Me"
      ],
      "12": [
        "Charm"
      ],
      "44": [
        "Baton Pass"
      ],
      "16": [
        "Ancient Power"
      ],
      "48": [
        "Last Resort"
      ],
      "20": [
        "Yawn"
      ],
      "52": [
        "Wish"
      ],
      "24": [
        "Metronome"
      ],
      "28": [
        "After You"
      ]
    },
    "alphaMoves":[
      "Rock Smash",
      "Swift",
      "Tri Attack",
      "Calm Mind",
      "Rest",
      "Baby-Doll Eyes",
      "Zen Headbutt",
      "Mystical Fire",
      "Water Pulse",
      "Shadow Ball",
      "Dazzling Gleam",
      "Play Rough",
      "Flamethrower",
      "Psychic"
    ],
    "eggMoves": [
      "Aerial Ace",
      "Peck",
      "Morning Sun",
      "Present",
      "Extrasensory",
      "Psycho Shift"
    ],
    "evolutionMoves": [],
    "tmTRMoves": [
      "Snore",
      "Facade",
      "Flamethrower",
      "Uproar",
      "Play Rough",
      "Dazzling Gleam",
      "Metronome",
      "Light Screen",
      "Grass Knot",
      "Solar Beam",
      "Mega Kick",
      "Stored Power",
      "Rest",
      "Encore",
      "Work Up",
      "Charm",
      "Nasty Plot",
      "Round",
      "Body Slam",
      "Shadow Ball",
      "Substitute",
      "Attract",
      "Thunder Wave",
      "Hyper Voice",
      "Helping Hand",
      "Future Sight",
      "Safeguard",
      "Protect",
      "Rain Dance",
      "Tri Attack",
      "Mega Punch",
      "Psyshock",
      "Trick",
      "Sunny Day",
      "Baton Pass",
      "Fling",
      "Mystical Fire",
      "Psychic",
      "Reflect",
      "Endure",
      "Sleep Talk",
      "Swift",
      "Zen Headbutt",
      "Draining Kiss",
      "Fire Blast"
    ],
    "tutorMoves": {
      "Transfer": [
        "Dream Eater",
        "Detect",
        "Natural Gift",
        "Confide",
        "Incinerate",
        "Hidden Power",
        "Water Pulse",
        "Double Team",
        "Shock Wave",
        "Telekinesis",
        "Seismic Toss",
        "Headbutt",
        "Swagger",
        "Defense Curl",
        "Soft-Boiled",
        "Mimic",
        "Captivate",
        "Covet",
        "Frustration",
        "Mirror Move",
        "Rock Smash",
        "Secret Power",
        "Psych Up",
        "Bestow",
        "Counter",
        "Curse",
        "Magic Coat",
        "Lucky Chant",
        "Echoed Voice",
        "Heal Bell",
        "Mud-Slap",
        "Toxic",
        "Flash",
        "Rollout",
        "Signal Beam",
        "Endeavor",
        "Return",
        "Zap Cannon",
        "Foresight"
      ]
    }
  }
}