{
  "pixelmonName": "Typhlosion",
  "spDef": 85,
  "spAtt": 109,
  "speed": 100,
  "defence": 78,
  "attack": 84,
  "hp": 78,
  "catchRate": 45,
  "malePercent": 87,
  "nationalPokedexNumber": 157,
  "spawnLevel": 36,
  "spawnLevelRange": 14,
  "baseExp": 209,
  "baseFriendship": 70,
  "rarity": {
    "day": 5,
    "dawndusk": 0,
    "night": 0
  },
  "type1": "Fire",
  "height": 1.7,
  "width": 1.0,
  "length": 1.0,
  "giScale": 1.0,
  "canFly": false,
  "isRideable": true,
  "preEvolutions": [
    "Quilava",
    "Cyndaquil"
  ],
  "experienceGroup": "MediumSlow",
  "aggression": {
    "timid": 80,
    "passive": 0,
    "aggressive": 20
  },
  "spawnLocations": [
    "Land"
  ],
  "biomeIDs": [
    35,
    36,
    163,
    164
  ],
  "evGain": {
    "HP": 0,
    "Attack": 0,
    "Defence": 0,
    "SpecialAttack": 3,
    "SpecialDefence": 0,
    "Speed": 0
  },
  "canSurf": false,
  "ridingOffsets": {
    "standing": {
      "x": 0.0,
      "y": -1.0,
      "z": 0.1
    },
    "moving": {
      "x": -0.33,
      "y": -1.7,
      "z": 0.4
    }
  },
  "maxGroupSize": 1,
  "minGroupSize": 1,
  "hoverHeight": 0.0,
  "doesHover": false,
  "id": 115,
  "baseFormID": 115,
  "weight": 79.5,
  "pokemon": "Typhlosion",
  "abilities": [
    "Blaze",
    null,
    "FlashFire"
  ],
  "eggGroups": [
    "Field"
  ],
  "eggCycles": 21,
  "form": -1,
  "evolutionDefs": [],
  "moves": {
    "levelMoves": {
      "1": [
        "Leer",
        "Tackle",
        "Eruption",
        "Ember",
        "Gyro Ball",
        "Smokescreen",
        "Double-Edge"
      ],
      "35": [
        "Flame Charge"
      ],
      "69": [
        "Double-Edge"
      ],
      "6": [
        "Smokescreen"
      ],
      "10": [
        "Ember"
      ],
      "74": [
        "Burn Up"
      ],
      "43": [
        "Lava Plume"
      ],
      "13": [
        "Quick Attack"
      ],
      "48": [
        "Flamethrower"
      ],
      "82": [
        "Eruption"
      ],
      "20": [
        "Flame Wheel"
      ],
      "24": [
        "Defense Curl"
      ],
      "56": [
        "Inferno"
      ],
      "61": [
        "Rollout"
      ],
      "31": [
        "Swift"
      ]
    },
    "eggMoves": [
      "Quick Attack",
      "Nature Power",
      "Crush Claw",
      "Double Kick",
      "Fury Swipes",
      "Flare Blitz",
      "Flame Burst",
      "Reversal",
      "Covet",
      "Extrasensory",
      "Thrash",
      "Howl",
      "Double-Edge",
      "Foresight"
    ],
    "evolutionMoves": [],
    "tmTRMoves": [
      "Mega Punch",
      "Mega Kick",
      "Fire Punch",
      "Thunder Punch",
      "Hyper Beam",
      "Giga Impact",
      "Solar Beam",
      "Dig",
      "Rest",
      "Rock Slide",
      "Snore",
      "Protect",
      "Attract",
      "Sunny Day",
      "Will-O-Wisp",
      "Facade",
      "Swift",
      "Brick Break",
      "Rock Tomb",
      "Fling",
      "Shadow Claw",
      "Round",
      "Bulldoze",
      "Mystical Fire",
      "Stomping Tantrum",
      "Flamethrower",
      "Low Kick",
      "Earthquake",
      "Fire Blast",
      "Substitute",
      "Reversal",
      "Endure",
      "Sleep Talk",
      "Heat Wave",
      "Overheat",
      "Gyro Ball",
      "Flare Blitz",
      "Focus Blast",
      "Work Up",
      "Wild Charge",
      "Throat Chop"
    ],
    "tutorMoves": {
      "Regular": [
        "Focus Punch",
        "Snore",
        "Blast Burn",
        "Low Kick",
        "Fire Pledge",
        "Heat Wave",
        "Stomping Tantrum",
        "Throat Chop",
        "Covet",
        "Thunder Punch",
        "Laser Focus",
        "Fire Punch"
      ],
      "Transfer": [
        "Detect",
        "Natural Gift",
        "Confide",
        "Incinerate",
        "Cut",
        "Hidden Power",
        "Power-Up Punch",
        "Double Team",
        "Seismic Toss",
        "Headbutt",
        "Dynamic Punch",
        "Swagger",
        "Submission",
        "Mimic",
        "Captivate",
        "Roar",
        "Will-O-Wisp",
        "Fury Cutter",
        "Frustration",
        "Rock Smash",
        "Secret Power",
        "Counter",
        "Curse",
        "Iron Tail",
        "Body Slam",
        "Mud-Slap",
        "Toxic",
        "Rock Climb",
        "Aerial Ace",
        "Return",
        "Strength"
      ]
    }
  }
}