{
  "pixelmonName": "Tyranitar",
  "spDef": 100,
  "spAtt": 95,
  "speed": 61,
  "defence": 110,
  "attack": 134,
  "hp": 100,
  "catchRate": 45,
  "malePercent": 50,
  "nationalPokedexNumber": 248,
  "spawnLevel": 55,
  "spawnLevelRange": 20,
  "baseExp": 270,
  "baseFriendship": 35,
  "rarity": {
    "day": 0,
    "dawndusk": 0,
    "night": 5
  },
  "type1": "Rock",
  "type2": "Dark",
  "height": 2.0,
  "width": 1.0,
  "length": 1.0,
  "giScale": 1.0,
  "canFly": false,
  "isRideable": true,
  "preEvolutions": [
    "Pupitar",
    "Larvitar"
  ],
  "experienceGroup": "Slow",
  "aggression": {
    "timid": 80,
    "passive": 0,
    "aggressive": 20
  },
  "spawnLocations": [
    "Land"
  ],
  "biomeIDs": [
    3,
    3,
    34,
    37,
    38,
    39,
    131,
    162,
    165,
    166,
    167
  ],
  "evGain": {
    "HP": 0,
    "Attack": 3,
    "Defence": 0,
    "SpecialAttack": 0,
    "SpecialDefence": 0,
    "Speed": 0
  },
  "canSurf": false,
  "ridingOffsets": {
    "standing": {
      "x": 0.0,
      "y": -1.0,
      "z": -0.4
    }
  },
  "maxGroupSize": 1,
  "minGroupSize": 1,
  "hoverHeight": 0.0,
  "doesHover": false,
  "id": 358,
  "baseFormID": 358,
  "weight": 255.0,
  "pokemon": "Tyranitar",
  "abilities": [
    "SandStream",
    null,
    "Unnerve"
  ],
  "eggGroups": [
    "Monster"
  ],
  "eggCycles": 41,
  "form": -1,
  "evolutionDefs": [],
  "moves": {
    "levelMoves": {
      "1": [
        "Payback",
        "Leer",
        "Tackle",
        "Thunder Fang",
        "Ice Fang",
        "Rock Throw",
        "Fire Fang",
        "Iron Defense"
      ],
      "33": [
        "Earthquake"
      ],
      "37": [
        "Stone Edge"
      ],
      "9": [
        "Bite"
      ],
      "42": [
        "Thrash"
      ],
      "12": [
        "Scary Face"
      ],
      "15": [
        "Rock Slide"
      ],
      "47": [
        "Sandstorm"
      ],
      "18": [
        "Stomping Tantrum"
      ],
      "52": [
        "Hyper Beam"
      ],
      "21": [
        "Screech"
      ],
      "24": [
        "Dark Pulse"
      ],
      "27": [
        "Crunch"
      ],
      "59": [
        "Giga Impact"
      ]
    },
    "eggMoves": [
      "Curse",
      "Ancient Power",
      "Stomp"
    ],
    "evolutionMoves": [],
    "tmTRMoves": [
      "Assurance",
      "Flamethrower",
      "Uproar",
      "Taunt",
      "Fire Fang",
      "Revenge",
      "Rock Blast",
      "Screech",
      "Breaking Swipe",
      "Iron Head",
      "Surf",
      "Sand Tomb",
      "Ice Fang",
      "Iron Tail",
      "Hydro Pump",
      "Body Slam",
      "Bulldoze",
      "Substitute",
      "Dragon Dance",
      "Attract",
      "Ice Beam",
      "Thunder Wave",
      "Crunch",
      "Payback",
      "Mega Punch",
      "Sunny Day",
      "Dragon Claw",
      "Avalanche",
      "Outrage",
      "Fling",
      "Rock Tomb",
      "Brutal Swing",
      "Endure",
      "Whirlpool",
      "Muddy Water",
      "Thunder Punch",
      "Fire Punch",
      "Ice Punch",
      "Fire Blast",
      "Snore",
      "Facade",
      "Heavy Slam",
      "Focus Energy",
      "Snarl",
      "Dark Pulse",
      "Stone Edge",
      "Retaliate",
      "Stomping Tantrum",
      "Mega Kick",
      "Rest",
      "Thunder Fang",
      "Earthquake",
      "Rock Slide",
      "Earth Power",
      "Scary Face",
      "Round",
      "Sandstorm",
      "Iron Defense",
      "Superpower",
      "Brick Break",
      "Giga Impact",
      "Body Press",
      "Dragon Pulse",
      "Protect",
      "Dig",
      "Rain Dance",
      "Thunder",
      "High Horsepower",
      "Hyper Beam",
      "Focus Blast",
      "Foul Play",
      "Low Kick",
      "Sleep Talk",
      "Stealth Rock",
      "Shadow Claw",
      "Thunderbolt",
      "Blizzard"
    ],
    "tutorMoves": {
      "Regular": [
        "Lash Out"
      ],
      "Transfer": [
        "Detect",
        "Natural Gift",
        "Confide",
        "Incinerate",
        "Double-Edge",
        "Cut",
        "Hidden Power",
        "Power-Up Punch",
        "Water Pulse",
        "Double Team",
        "Hone Claws",
        "Spite",
        "Shock Wave",
        "Seismic Toss",
        "Headbutt",
        "Dynamic Punch",
        "Dragon Tail",
        "Swagger",
        "Aqua Tail",
        "Nightmare",
        "Dragon Breath",
        "Mimic",
        "Captivate",
        "Roar",
        "Rock Polish",
        "Pursuit",
        "Fury Cutter",
        "Torment",
        "Frustration",
        "Rock Smash",
        "Secret Power",
        "Chip Away",
        "Counter",
        "Smack Down",
        "Block",
        "Mud-Slap",
        "Focus Punch",
        "Toxic",
        "Rock Climb",
        "Aerial Ace",
        "Return",
        "Strength"
      ]
    }
  }
}