{
  "pixelmonName": "Umbreon",
  "spDef": 130,
  "spAtt": 60,
  "speed": 65,
  "defence": 110,
  "attack": 65,
  "hp": 95,
  "catchRate": 45,
  "malePercent": 87,
  "nationalPokedexNumber": 197,
  "spawnLevel": 45,
  "spawnLevelRange": 5,
  "baseExp": 184,
  "baseFriendship": 35,
  "rarity": {
    "day": 0,
    "dawndusk": 0,
    "night": 0
  },
  "type1": "Dark",
  "height": 1.0,
  "width": 1.0,
  "length": 1.0,
  "giScale": 1.0,
  "canFly": false,
  "isRideable": true,
  "preEvolutions": [
    "Eevee"
  ],
  "experienceGroup": "MediumFast",
  "aggression": {
    "timid": 80,
    "passive": 0,
    "aggressive": 20
  },
  "spawnLocations": [
    "Land"
  ],
  "biomeIDs": [
    1
  ],
  "evGain": {
    "HP": 0,
    "Attack": 0,
    "Defence": 0,
    "SpecialAttack": 0,
    "SpecialDefence": 2,
    "Speed": 0
  },
  "canSurf": false,
  "ridingOffsets": {
    "standing": {
      "x": 0.0,
      "y": -0.8,
      "z": 0.0
    },
    "moving": {
      "x": 0.0,
      "y": -0.8,
      "z": 0.0
    }
  },
  "maxGroupSize": 1,
  "minGroupSize": 1,
  "hoverHeight": 0.0,
  "doesHover": false,
  "id": 9,
  "baseFormID": 9,
  "weight": 27.0,
  "pokemon": "Umbreon",
  "abilities": [
    "Synchronize",
    null,
    "InnerFocus"
  ],
  "eggGroups": [
    "Field"
  ],
  "eggCycles": 36,
  "form": -1,
  "evolutionDefs": [],
  "moves": {
    "levelMoves": {
      "1": [
        "Helping Hand",
        "Tail Whip",
        "Snarl",
        "Take Down",
        "Bite",
        "Growl",
        "Baton Pass",
        "Copycat",
        "Tackle",
        "Charm",
        "Swift",
        "Covet",
        "Double-Edge"
      ],
      "50": [
        "Mean Look"
      ],
      "35": [
        "Guard Swap"
      ],
      "20": [
        "Confuse Ray"
      ],
      "5": [
        "Sand Attack"
      ],
      "55": [
        "Last Resort"
      ],
      "40": [
        "Dark Pulse"
      ],
      "25": [
        "Assurance"
      ],
      "10": [
        "Quick Attack"
      ],
      "45": [
        "Screech"
      ],
      "30": [
        "Moonlight"
      ],
      "15": [
        "Baby-Doll Eyes"
      ]
    },
    "alphaMoves":[
      "Rock Smash",
	  "Swift",
	  "Focus Energy",
	  "Rest",
	  "Calm Mind",
	  "Iron Tail",
	  "Baby-Doll Eyes",
	  "Shadow Ball",
	  "Snarl",
	  "Giga Impact",
	  "Hyper Beam",
	  "Psychic",
      "Dark Pulse"
    ],
    "eggMoves": [
      "Mud-Slap",
      "Flail",
      "Curse",
      "Yawn",
      "Double Kick",
      "Tickle",
      "Detect",
      "Wish"
    ],
    "evolutionMoves": [
      "Snarl"
    ],
    "tmTRMoves": [
      "Weather Ball",
      "Snore",
      "Facade",
      "Assurance",
      "Taunt",
      "Focus Energy",
      "Snarl",
      "Dark Pulse",
      "Retaliate",
      "Throat Chop",
      "Screech",
      "Stored Power",
      "Rest",
      "Pay Day",
      "Wonder Room",
      "Iron Tail",
      "Work Up",
      "Charm",
      "Round",
      "Body Slam",
      "Shadow Ball",
      "Substitute",
      "Attract",
      "Giga Impact",
      "Crunch",
      "Hyper Voice",
      "Helping Hand",
      "Payback",
      "Protect",
      "Guard Swap",
      "Dig",
      "Rain Dance",
      "Thief",
      "Fake Tears",
      "Hyper Beam",
      "Sunny Day",
      "Baton Pass",
      "Psychic",
      "Foul Play",
      "Endure",
      "Sleep Talk",
      "Swift"
    ],
    "tutorMoves": {
      "Regular": [
        "Lash Out"
      ],
      "Transfer": [
        "Secret Power",
        "Psych Up",
        "Dream Eater",
        "Snatch",
        "Natural Gift",
        "Confide",
        "Cut",
        "Hidden Power",
        "Echoed Voice",
        "Synchronoise",
        "Double Team",
        "Spite",
        "Heal Bell",
        "Toxic",
        "Headbutt",
        "Swagger",
        "Nightmare",
        "Flash",
        "Return",
        "Mimic",
        "Captivate",
        "Pursuit",
        "Faint Attack",
        "Sucker Punch",
        "Torment",
        "Zap Cannon",
        "Frustration",
        "Laser Focus"
      ],
      "Event": [
        "Celebrate"
      ]
    }
  }
}