{
  "pixelmonName": "Urshifu",
  "spDef": 60,
  "spAtt": 63,
  "speed": 97,
  "defence": 100,
  "attack": 130,
  "hp": 100,
  "catchRate": 3,
  "malePercent": 87,
  "nationalPokedexNumber": 892,
  "spawnLevel": 70,
  "spawnLevelRange": 0,
  "baseExp": 99,
  "baseFriendship": 0,
  "rarity": {
    "day": 75,
    "dawndusk": 0,
    "night": 0
  },
  "type1": "Fighting",
  "type2": "Water",
  "height": 1.8,
  "width": 1.0,
  "length": 1.0,
  "giScale": 1.0,
  "canFly": false,
  "isRideable": false,
  "preEvolutions": [
    "Kubfu"
  ],
  "experienceGroup": "Slow",
  "aggression": {
    "timid": 80,
    "passive": 0,
    "aggressive": 20
  },
  "spawnLocations": [
    "Land"
  ],
  "biomeIDs": [
    2,
    130,
    2,
    17,
    130
  ],
  "evGain": {
    "HP": 0,
    "Attack": 3,
    "Defence": 0,
    "SpecialAttack": 0,
    "SpecialDefence": 0,
    "Speed": 0
  },
  "canSurf": false,
  "maxGroupSize": 1,
  "minGroupSize": 1,
  "hoverHeight": 0.0,
  "doesHover": false,
  "id": 1137,
  "baseFormID": 1136,
  "weight": 105.0,
  "pokemon": "Urshifu",
  "abilities": [
    "UnseenFist",
    null,
    null
  ],
  "eggGroups": [
    "Undiscovered"
  ],
  "eggCycles": 21,
  "form": 1,
  "evolutionDefs": [],
  "moves": {
    "levelMoves": {
      "16": [
        "Scary Face"
      ],
      "32": [
        "Bulk Up"
      ],
      "48": [
        "Close Combat"
      ],
      "1": [
        "Rock Smash",
        "Surging Strikes",
        "Leer",
        "Focus Energy",
        "Endure",
        "Aqua Jet"
      ],
      "20": [
        "Headbutt"
      ],
      "36": [
        "Iron Head"
      ],
      "52": [
        "Focus Punch"
      ],
      "53": [
        "Surging Strikes"
      ],
      "24": [
        "Brick Break"
      ],
      "40": [
        "Dynamic Punch"
      ],
      "12": [
        "Aerial Ace"
      ],
      "28": [
        "Detect"
      ],
      "44": [
        "Counter"
      ]
    },
    "eggMoves": [
      "Coaching",
      "Lash Out"
    ],
    "evolutionMoves": [
      "Surging Strikes"
    ],
    "tmTRMoves": [
      "Assurance",
      "Taunt",
      "Beat Up",
      "Revenge",
      "Throat Chop",
      "Close Combat",
      "Iron Head",
      "Work Up",
      "Aura Sphere",
      "Body Slam",
      "Substitute",
      "Poison Jab",
      "Attract",
      "Crunch",
      "Payback",
      "False Swipe",
      "Drain Punch",
      "Mega Punch",
      "Brine",
      "Darkest Lariat",
      "Fling",
      "Rock Tomb",
      "Dive",
      "Endure",
      "Whirlpool",
      "Swift",
      "Zen Headbutt",
      "Thunder Punch",
      "Low Sweep",
      "Fire Punch",
      "Ice Punch",
      "Snore",
      "Facade",
      "Focus Energy",
      "Waterfall",
      "Snarl",
      "Dark Pulse",
      "Stone Edge",
      "U-turn",
      "Retaliate",
      "Bulk Up",
      "Mega Kick",
      "Rest",
      "Rock Slide",
      "Scary Face",
      "Round",
      "Liquidation",
      "Iron Defense",
      "Superpower",
      "Brick Break",
      "Acrobatics",
      "Giga Impact",
      "Body Press",
      "Helping Hand",
      "Protect",
      "Dig",
      "Rain Dance",
      "Scald",
      "Focus Blast",
      "Foul Play",
      "Low Kick",
      "Sleep Talk",
      "Reversal"
    ],
    "tutorMoves": {
      "Regular": [
        "Coaching",
        "Lash Out"
      ]
    }
  }
}