{
  "pixelmonName": "Vaporeon",
  "spDef": 95,
  "spAtt": 110,
  "speed": 65,
  "defence": 60,
  "attack": 65,
  "hp": 130,
  "catchRate": 45,
  "malePercent": 87,
  "nationalPokedexNumber": 134,
  "spawnLevel": 35,
  "spawnLevelRange": 15,
  "baseExp": 184,
  "baseFriendship": 70,
  "rarity": {
    "day": 0,
    "dawndusk": 0,
    "night": 0
  },
  "type1": "Water",
  "height": 1.0,
  "width": 1.0,
  "length": 1.0,
  "giScale": 1.0,
  "canFly": false,
  "isRideable": true,
  "preEvolutions": [
    "Eevee"
  ],
  "experienceGroup": "MediumFast",
  "aggression": {
    "timid": 80,
    "passive": 0,
    "aggressive": 20
  },
  "spawnLocations": [
    "Land"
  ],
  "biomeIDs": [
    0,
    7,
    10,
    11,
    16,
    25,
    26
  ],
  "evGain": {
    "HP": 2,
    "Attack": 0,
    "Defence": 0,
    "SpecialAttack": 0,
    "SpecialDefence": 0,
    "Speed": 0
  },
  "canSurf": false,
  "ridingOffsets": {
    "standing": {
      "x": 0.0,
      "y": -0.8,
      "z": 0.0
    },
    "moving": {
      "x": 0.0,
      "y": -0.8,
      "z": 0.0
    }
  },
  "maxGroupSize": 2,
  "minGroupSize": 1,
  "hoverHeight": 0.0,
  "doesHover": false,
  "id": 170,
  "baseFormID": 170,
  "weight": 29.0,
  "pokemon": "Vaporeon",
  "abilities": [
    "WaterAbsorb",
    null,
    "Hydration"
  ],
  "eggGroups": [
    "Field"
  ],
  "eggCycles": 36,
  "form": -1,
  "evolutionDefs": [],
  "moves": {
    "levelMoves": {
      "1": [
        "Helping Hand",
        "Water Gun",
        "Tail Whip",
        "Take Down",
        "Bite",
        "Growl",
        "Baton Pass",
        "Copycat",
        "Tackle",
        "Charm",
        "Swift",
        "Covet",
        "Double-Edge"
      ],
      "50": [
        "Hydro Pump"
      ],
      "35": [
        "Aqua Ring"
      ],
      "20": [
        "Haze"
      ],
      "5": [
        "Sand Attack"
      ],
      "55": [
        "Last Resort"
      ],
      "40": [
        "Muddy Water"
      ],
      "25": [
        "Water Pulse"
      ],
      "10": [
        "Quick Attack"
      ],
      "45": [
        "Acid Armor"
      ],
      "30": [
        "Aurora Beam"
      ],
      "15": [
        "Baby-Doll Eyes"
      ]
    },
		"alphaMoves":[
      "Rock Smash",
      "Swift",
      "Rest",
      "Calm Mind",
      "Focus Energy",
      "Iron Tail",
      "Baby-Doll Eyes",
      "Water Pulse",
      "Icy Wind",
      "Shadow Ball",
	  "Giga Impact",
	  "Aqua Tail",
	  "Hyper Beam",
      "Ice Beam"
    ],
    "eggMoves": [
      "Mud-Slap",
      "Flail",
      "Curse",
      "Yawn",
      "Double Kick",
      "Tickle",
      "Detect",
      "Wish"
    ],
    "evolutionMoves": [
      "Water Gun"
    ],
    "tmTRMoves": [
      "Weather Ball",
      "Snore",
      "Facade",
      "Focus Energy",
      "Waterfall",
      "Retaliate",
      "Icy Wind",
      "Stored Power",
      "Surf",
      "Rest",
      "Pay Day",
      "Iron Tail",
      "Work Up",
      "Charm",
      "Hydro Pump",
      "Round",
      "Body Slam",
      "Shadow Ball",
      "Liquidation",
      "Substitute",
      "Attract",
      "Hail",
      "Ice Beam",
      "Giga Impact",
      "Hyper Voice",
      "Helping Hand",
      "Protect",
      "Dig",
      "Rain Dance",
      "Fake Tears",
      "Hyper Beam",
      "Sunny Day",
      "Brine",
      "Scald",
      "Baton Pass",
      "Dive",
      "Endure",
      "Sleep Talk",
      "Whirlpool",
      "Muddy Water",
      "Swift",
      "Blizzard"
    ],
    "tutorMoves": {
      "Regular": [
        "Flip Turn"
      ],
      "Transfer": [
        "Rock Smash",
        "Secret Power",
        "Bubble Beam",
        "Natural Gift",
        "Confide",
        "Hidden Power",
        "Echoed Voice",
        "Synchronoise",
        "Bide",
        "Mist",
        "Double Team",
        "Heal Bell",
        "Toxic",
        "Rage",
        "Headbutt",
        "Skull Bash",
        "Swagger",
        "Aqua Tail",
        "Signal Beam",
        "Return",
        "Mimic",
        "Captivate",
        "Roar",
        "Reflect",
        "Frustration",
        "Strength",
        "Laser Focus"
      ],
      "Event": [
        "Celebrate"
      ]
    }
  }
}