{
  "pixelmonName": "Venonat",
  "spDef": 55,
  "spAtt": 40,
  "speed": 45,
  "defence": 50,
  "attack": 55,
  "hp": 60,
  "catchRate": 190,
  "malePercent": 50,
  "nationalPokedexNumber": 48,
  "spawnLevel": 10,
  "spawnLevelRange": 21,
  "baseExp": 75,
  "baseFriendship": 70,
  "rarity": {
    "day": 0,
    "dawndusk": 175,
    "night": 175
  },
  "type1": "Bug",
  "type2": "Poison",
  "height": 0.6,
  "width": 0.4,
  "length": 0.4,
  "giScale": 0.5,
  "canFly": false,
  "isRideable": false,
  "preEvolutions": [],
  "experienceGroup": "MediumFast",
  "aggression": {
    "timid": 80,
    "passive": 0,
    "aggressive": 20
  },
  "spawnLocations": [
    "Land"
  ],
  "biomeIDs": [
    6,
    21,
    22,
    23,
    134,
    149,
    151
  ],
  "evGain": {
    "HP": 0,
    "Attack": 0,
    "Defence": 0,
    "SpecialAttack": 0,
    "SpecialDefence": 1,
    "Speed": 0
  },
  "canSurf": false,
  "maxGroupSize": 1,
  "minGroupSize": 1,
  "hoverHeight": 0.0,
  "doesHover": false,
  "id": 204,
  "baseFormID": 204,
  "weight": 30.0,
  "pokemon": "Venonat",
  "abilities": [
    "CompoundEyes",
    "TintedLens",
    "RunAway"
  ],
  "eggGroups": [
    "Bug"
  ],
  "eggCycles": 21,
  "form": -1,
  "evolutionDefs": [
    {
      "targetId": 205,
      "evolveLevel": 31
    }
  ],
  "moves": {
    "levelMoves": {
      "32": [
        "Psychic"
      ],
      "1": [
        "Tackle",
        "Disable",
        "Foresight"
      ],
      "35": [
        "Leech Life"
      ],
      "4": [
        "Disable"
      ],
      "5": [
        "Supersonic"
      ],
      "37": [
        "Zen Headbutt"
      ],
      "8": [
        "Supersonic"
      ],
      "41": [
        "Poison Fang"
      ],
      "11": [
        "Confusion"
      ],
      "12": [
        "Confusion"
      ],
      "13": [
        "Poison Powder"
      ],
      "14": [
        "Poison Powder"
      ],
      "47": [
        "Psychic"
      ],
      "16": [
        "Stun Spore"
      ],
      "17": [
        "Psybeam"
      ],
      "20": [
        "Psybeam"
      ],
      "23": [
        "Stun Spore"
      ],
      "24": [
        "Sleep Powder"
      ],
      "25": [
        "Signal Beam"
      ],
      "28": [
        "Leech Life"
      ],
      "29": [
        "Sleep Powder"
      ]
    },
    "eggMoves": [
      "Giga Drain",
      "Secret Power",
      "Agility",
      "Bug Bite",
      "Baton Pass",
      "Morning Sun",
      "Screech",
      "Toxic Spikes",
      "Signal Beam",
      "Skill Swap",
      "Rage Powder"
    ],
    "evolutionMoves": [],
    "tmTRMoves": [
      "Solar Beam",
      "Screech",
      "Rest",
      "Thief",
      "Snore",
      "Protect",
      "Giga Drain",
      "Attract",
      "Sunny Day",
      "Facade",
      "Venoshock",
      "Round",
      "Psychic",
      "Agility",
      "Leech Life",
      "Substitute",
      "Sludge Bomb",
      "Endure",
      "Sleep Talk",
      "Baton Pass",
      "Skill Swap",
      "Toxic Spikes",
      "Zen Headbutt",
      "Venom Drench"
    ],
    "tutorMoves": {
      "Regular": [
        "Giga Drain",
        "Snore",
        "Bug Bite",
        "Zen Headbutt",
        "Signal Beam",
        "Skill Swap"
      ],
      "Transfer": [
        "Natural Gift",
        "Confide",
        "Curse",
        "Double-Edge",
        "Take Down",
        "Hidden Power",
        "Mega Drain",
        "Bide",
        "Double Team",
        "Swift",
        "Infestation",
        "Psywave",
        "Toxic",
        "Struggle Bug",
        "Rage",
        "Headbutt",
        "Swagger",
        "Flash",
        "Return",
        "Mimic",
        "Sweet Scent",
        "Captivate",
        "Reflect",
        "String Shot",
        "Frustration"
      ]
    }
  }
}