{
  "pixelmonName": "Vespiquen",
  "spDef": 102,
  "spAtt": 80,
  "speed": 40,
  "defence": 102,
  "attack": 80,
  "hp": 70,
  "catchRate": 45,
  "malePercent": 0,
  "nationalPokedexNumber": 416,
  "spawnLevel": 26,
  "spawnLevelRange": 18,
  "baseExp": 188,
  "baseFriendship": 70,
  "rarity": {
    "day": 40,
    "dawndusk": 40,
    "night": 0
  },
  "type1": "Bug",
  "type2": "Flying",
  "height": 1.2,
  "width": 1.0,
  "length": 1.0,
  "giScale": 1.0,
  "canFly": false,
  "isRideable": false,
  "preEvolutions": [
    "Combee"
  ],
  "experienceGroup": "MediumSlow",
  "aggression": {
    "timid": 80,
    "passive": 0,
    "aggressive": 20
  },
  "spawnLocations": [
    "Land"
  ],
  "biomeIDs": [
    129,
    132
  ],
  "evGain": {
    "HP": 0,
    "Attack": 0,
    "Defence": 1,
    "SpecialAttack": 0,
    "SpecialDefence": 1,
    "Speed": 0
  },
  "canSurf": false,
  "maxGroupSize": 1,
  "minGroupSize": 1,
  "hoverHeight": 0.0,
  "doesHover": false,
  "id": 499,
  "baseFormID": 499,
  "weight": 38.5,
  "pokemon": "Vespiquen",
  "abilities": [
    "Pressure",
    null,
    "Unnerve"
  ],
  "eggGroups": [
    "Bug"
  ],
  "eggCycles": 16,
  "form": -1,
  "evolutionDefs": [],
  "moves": {
    "levelMoves": {
      "16": [
        "Fury Swipes"
      ],
      "32": [
        "Power Gem"
      ],
      "1": [
        "Poison Sting",
        "Sweet Scent",
        "Bug Bite",
        "Struggle Bug",
        "Slash",
        "Confuse Ray",
        "Gust"
      ],
      "4": [
        "Fury Cutter"
      ],
      "20": [
        "Swagger"
      ],
      "36": [
        "Toxic"
      ],
      "8": [
        "Aromatic Mist"
      ],
      "24": [
        "Aromatherapy"
      ],
      "40": [
        "Defend Order",
        "Attack Order"
      ],
      "12": [
        "Fell Stinger"
      ],
      "28": [
        "Air Slash"
      ],
      "44": [
        "Destiny Bond"
      ]
    },
    "alphaMoves":[
      "Aerial Ace",
      "Swift",
      "Ominous Wind",
      "Power Shift",
      "Rest",
      "X-scissor",
      "Sludge Bomb",
      "Shadow Ball",
      "Giga Impact",
      "Hyper Beam"
    ],
    "eggMoves": [
      "Dual Wingbeat"
    ],
    "evolutionMoves": [
      "Slash"
    ],
    "tmTRMoves": [
      "Pin Missile",
      "Snore",
      "Facade",
      "Assurance",
      "Uproar",
      "Cross Poison",
      "Beat Up",
      "Air Slash",
      "Sludge Bomb",
      "U-turn",
      "Revenge",
      "Screech",
      "Power Gem",
      "Rest",
      "Bug Buzz",
      "Round",
      "Substitute",
      "Acrobatics",
      "Attract",
      "Giga Impact",
      "Protect",
      "Venoshock",
      "Rain Dance",
      "Thief",
      "Hyper Beam",
      "Sunny Day",
      "X-Scissor",
      "Fling",
      "Endure",
      "Sleep Talk",
      "Reversal",
      "Swift",
      "Hex",
      "Toxic Spikes"
    ],
    "tutorMoves": {
      "Regular": [
        "Dual Wingbeat"
      ],
      "Transfer": [
        "Ominous Wind",
        "Silver Wind",
        "Secret Power",
        "Tailwind",
        "Natural Gift",
        "Confide",
        "Defog",
        "Quash",
        "Cut",
        "Roost",
        "Hidden Power",
        "Air Cutter",
        "Double Team",
        "Hone Claws",
        "Infestation",
        "Mud-Slap",
        "Aerial Ace",
        "Heal Order",
        "Flash",
        "Signal Beam",
        "Endeavor",
        "Return",
        "Captivate",
        "Pursuit",
        "String Shot",
        "Frustration",
        "Laser Focus"
      ]
    }
  }
}