{
  "pixelmonName": "Virizion",
  "spDef": 129,
  "spAtt": 90,
  "speed": 108,
  "defence": 72,
  "attack": 90,
  "hp": 91,
  "catchRate": 3,
  "malePercent": -1,
  "nationalPokedexNumber": 640,
  "spawnLevel": 45,
  "spawnLevelRange": 0,
  "baseExp": 261,
  "baseFriendship": 35,
  "rarity": {
    "day": -1,
    "dawndusk": 0,
    "night": 0
  },
  "type1": "Grass",
  "type2": "Fighting",
  "height": 2.0,
  "width": 1.0,
  "length": 1.0,
  "giScale": 1.0,
  "canFly": false,
  "isRideable": true,
  "preEvolutions": [],
  "experienceGroup": "Slow",
  "aggression": {
    "timid": 80,
    "passive": 0,
    "aggressive": 20
  },
  "spawnLocations": [
    "Land"
  ],
  "biomeIDs": [
    129,
    129,
    1
  ],
  "evGain": {
    "HP": 0,
    "Attack": 0,
    "Defence": 0,
    "SpecialAttack": 0,
    "SpecialDefence": 3,
    "Speed": 0
  },
  "canSurf": false,
  "maxGroupSize": 1,
  "minGroupSize": 1,
  "hoverHeight": 0.0,
  "doesHover": false,
  "id": 710,
  "baseFormID": 710,
  "weight": 200.0,
  "pokemon": "Virizion",
  "abilities": [
    "Justified",
    null,
    null
  ],
  "eggGroups": [
    "Undiscovered"
  ],
  "eggCycles": 81,
  "form": -1,
  "evolutionDefs": [],
  "moves": {
    "levelMoves": {
      "1": [
        "Helping Hand",
        "Quick Attack",
        "Leer",
        "Work Up"
      ],
      "49": [
        "Sacred Sword"
      ],
      "35": [
        "Giga Drain"
      ],
      "21": [
        "Double Kick"
      ],
      "70": [
        "Close Combat"
      ],
      "7": [
        "Magical Leaf"
      ],
      "56": [
        "Swords Dance"
      ],
      "42": [
        "Take Down"
      ],
      "28": [
        "Retaliate"
      ],
      "14": [
        "Quick Guard"
      ],
      "63": [
        "Leaf Blade"
      ]
    },
    "eggMoves": [
      "Coaching",
      "Grassy Glide"
    ],
    "evolutionMoves": [],
    "tmTRMoves": [
      "Giga Drain",
      "Snore",
      "Facade",
      "Taunt",
      "Air Slash",
      "Stone Edge",
      "Light Screen",
      "Grass Knot",
      "Retaliate",
      "Swords Dance",
      "Solar Beam",
      "Revenge",
      "Close Combat",
      "Megahorn",
      "Magical Leaf",
      "Rest",
      "Seed Bomb",
      "Work Up",
      "Round",
      "Leaf Storm",
      "Bounce",
      "Substitute",
      "Superpower",
      "Leaf Blade",
      "Solar Blade",
      "Brick Break",
      "Giga Impact",
      "Helping Hand",
      "Energy Ball",
      "Safeguard",
      "False Swipe",
      "Protect",
      "Hyper Beam",
      "Sunny Day",
      "X-Scissor",
      "Focus Blast",
      "Calm Mind",
      "Reflect",
      "Endure",
      "Sleep Talk",
      "Reversal",
      "Smart Strike",
      "Swift",
      "Zen Headbutt"
    ],
    "tutorMoves": {
      "Regular": [
        "Coaching",
        "Grassy Glide"
      ],
      "Transfer": [
        "Rock Smash",
        "Secret Power",
        "Psych Up",
        "Confide",
        "Synthesis",
        "Cut",
        "Hidden Power",
        "Block",
        "Double Team",
        "Worry Seed",
        "Toxic",
        "Aerial Ace",
        "Swagger",
        "Flash",
        "Return",
        "Nature Power",
        "Roar",
        "Strength",
        "Frustration",
        "Laser Focus"
      ]
    }
  }
}