{
  "pixelmonName": "Whimsicott",
  "spDef": 75,
  "spAtt": 77,
  "speed": 116,
  "defence": 85,
  "attack": 67,
  "hp": 60,
  "catchRate": 75,
  "malePercent": 50,
  "nationalPokedexNumber": 547,
  "spawnLevel": 25,
  "spawnLevelRange": 10,
  "baseExp": 168,
  "baseFriendship": 70,
  "rarity": {
    "day": 0,
    "dawndusk": 0,
    "night": 0
  },
  "type1": "Grass",
  "type2": "Fairy",
  "height": 0.7,
  "width": 0.7,
  "length": 0.5,
  "giScale": 1.0,
  "canFly": false,
  "isRideable": false,
  "preEvolutions": [
    "Cottonee"
  ],
  "experienceGroup": "MediumFast",
  "aggression": {
    "timid": 80,
    "passive": 0,
    "aggressive": 20
  },
  "spawnLocations": [
    "Land"
  ],
  "biomeIDs": [
    129,
    132
  ],
  "evGain": {
    "HP": 0,
    "Attack": 0,
    "Defence": 0,
    "SpecialAttack": 0,
    "SpecialDefence": 0,
    "Speed": 2
  },
  "canSurf": false,
  "maxGroupSize": 1,
  "minGroupSize": 1,
  "hoverHeight": 0.0,
  "doesHover": false,
  "id": 624,
  "baseFormID": 624,
  "weight": 6.6,
  "pokemon": "Whimsicott",
  "abilities": [
    "Prankster",
    "Infiltrator",
    "Chlorophyll"
  ],
  "eggGroups": [
    "Grass",
    "Fairy"
  ],
  "eggCycles": 21,
  "form": -1,
  "evolutionDefs": [],
  "moves": {
    "levelMoves": {
      "1": [
        "Energy Ball",
        "Giga Drain",
        "Helping Hand",
        "Poison Powder",
        "Endeavor",
        "Growth",
        "Sunny Day",
        "Absorb",
        "Cotton Guard",
        "Solar Beam",
        "Gust",
        "Tailwind",
        "Leech Seed",
        "Moonblast",
        "Mega Drain",
        "Memento",
        "Cotton Spore",
        "Stun Spore",
        "Razor Leaf",
        "Charm",
        "Fairy Wind",
        "Hurricane"
      ]
    },
    "eggMoves": [
      "Memento",
      "Worry Seed",
      "Nature Power",
      "Switcheroo",
      "Tickle"
    ],
    "evolutionMoves": [],
    "tmTRMoves": [
      "Giga Drain",
      "Snore",
      "Facade",
      "Taunt",
      "Play Rough",
      "Dazzling Gleam",
      "Beat Up",
      "Light Screen",
      "Grass Knot",
      "U-turn",
      "Solar Beam",
      "Rest",
      "Seed Bomb",
      "Encore",
      "Charm",
      "Round",
      "Misty Terrain",
      "Shadow Ball",
      "Grassy Terrain",
      "Substitute",
      "Hurricane",
      "Attract",
      "Giga Impact",
      "Helping Hand",
      "Energy Ball",
      "Safeguard",
      "Protect",
      "Thief",
      "Fake Tears",
      "Hyper Beam",
      "Sunny Day",
      "Fling",
      "Psychic",
      "Endure",
      "Sleep Talk",
      "Swift",
      "Trick Room"
    ],
    "tutorMoves": {
      "Regular": [
        "Grassy Glide"
      ],
      "Transfer": [
        "Secret Power",
        "Grass Whistle",
        "Dream Eater",
        "Natural Gift",
        "Confide",
        "Defog",
        "Hidden Power",
        "Double Team",
        "Toxic",
        "Swagger",
        "Flash",
        "Return",
        "Captivate",
        "Knock Off",
        "Covet",
        "Frustration"
      ]
    }
  }
}