{
  "pixelmonName": "Yveltal",
  "spDef": 98,
  "spAtt": 131,
  "speed": 99,
  "defence": 95,
  "attack": 131,
  "hp": 126,
  "catchRate": 45,
  "malePercent": -1,
  "nationalPokedexNumber": 717,
  "spawnLevel": 70,
  "spawnLevelRange": 0,
  "baseExp": 306,
  "baseFriendship": 0,
  "rarity": {
    "day": 0,
    "dawndusk": 0,
    "night": -1
  },
  "type1": "Dark",
  "type2": "Flying",
  "height": 5.8,
  "width": 1.0,
  "length": 1.0,
  "giScale": 1.0,
  "canFly": true,
  "isRideable": true,
  "preEvolutions": [],
  "experienceGroup": "Slow",
  "aggression": {
    "timid": 80,
    "passive": 0,
    "aggressive": 20
  },
  "spawnLocations": [
    "Land"
  ],
  "biomeIDs": [
    36,
    29
  ],
  "evGain": {
    "HP": 3,
    "Attack": 0,
    "Defence": 0,
    "SpecialAttack": 0,
    "SpecialDefence": 0,
    "Speed": 0
  },
  "canSurf": false,
  "ridingOffsets": {
    "standing": {
      "x": 0.0,
      "y": -1.8,
      "z": 0.0
    },
    "moving": {
      "x": 0.0,
      "y": -1.8,
      "z": 0.0
    }
  },
  "maxGroupSize": 1,
  "minGroupSize": 1,
  "hoverHeight": 0.0,
  "doesHover": false,
  "id": 795,
  "baseFormID": 795,
  "weight": 203.0,
  "pokemon": "Yveltal",
  "abilities": [
    "DarkAura",
    null,
    null
  ],
  "eggGroups": [
    "Undiscovered"
  ],
  "eggCycles": 121,
  "form": -1,
  "evolutionDefs": [],
  "moves": {
    "levelMoves": {
      "1": [
        "Double Team",
        "Gust"
      ],
      "65": [
        "Dragon Rush"
      ],
      "35": [
        "Air Slash"
      ],
      "5": [
        "Taunt"
      ],
      "70": [
        "Hurricane"
      ],
      "40": [
        "Dark Pulse"
      ],
      "10": [
        "Snarl"
      ],
      "75": [
        "Focus Blast"
      ],
      "45": [
        "Psychic"
      ],
      "15": [
        "Disable"
      ],
      "80": [
        "Sky Attack"
      ],
      "50": [
        "Oblivion Wing"
      ],
      "20": [
        "Sucker Punch"
      ],
      "85": [
        "Hyper Beam"
      ],
      "55": [
        "Phantom Force"
      ],
      "25": [
        "Tailwind"
      ],
      "60": [
        "Foul Play"
      ],
      "30": [
        "Roost"
      ]
    },
    "eggMoves": [
      "Lash Out",
      "Dual Wingbeat"
    ],
    "evolutionMoves": [],
    "tmTRMoves": [
      "Snore",
      "Facade",
      "Taunt",
      "Snarl",
      "Dark Pulse",
      "Air Slash",
      "U-turn",
      "Fly",
      "Rest",
      "Rock Slide",
      "Round",
      "Body Slam",
      "Shadow Ball",
      "Heat Wave",
      "Substitute",
      "Hurricane",
      "Acrobatics",
      "Giga Impact",
      "Hyper Voice",
      "Payback",
      "Protect",
      "Rain Dance",
      "Thief",
      "Hyper Beam",
      "Sunny Day",
      "Dragon Claw",
      "Focus Blast",
      "Phantom Force",
      "Psychic",
      "Foul Play",
      "Steel Wing",
      "Endure",
      "Sleep Talk",
      "Shadow Claw",
      "Swift",
      "Zen Headbutt"
    ],
    "tutorMoves": {
      "Regular": [
        "Lash Out",
        "Dual Wingbeat"
      ],
      "Transfer": [
        "Secret Power",
        "Dream Eater",
        "Confide",
        "Defog",
        "Cut",
        "Hidden Power",
        "Block",
        "Hone Claws",
        "Toxic",
        "Aerial Ace",
        "Razor Wind",
        "Embargo",
        "Sky Drop",
        "Swagger",
        "Return",
        "Knock Off",
        "Torment",
        "Frustration",
        "Laser Focus"
      ]
    }
  }
}