{
  "pixelmonName": "Zapdos",
  "spDef": 90,
  "spAtt": 85,
  "speed": 100,
  "defence": 90,
  "attack": 125,
  "hp": 90,
  "catchRate": 3,
  "malePercent": -1,
  "nationalPokedexNumber": 145,
  "spawnLevel": 70,
  "spawnLevelRange": 0,
  "baseExp": 0,
  "baseFriendship": 0,
  "rarity": {
    "day": 0,
    "dawndusk": 0,
    "night": 0
  },
  "type1": "Fighting",
  "type2": "Flying",
  "height": 2.0,
  "width": 1.0,
  "length": 1.0,
  "giScale": 1.0,
  "canFly": false,
  "isRideable": true,
  "preEvolutions": [],
  "experienceGroup": "Slow",
  "aggression": {
    "timid": 80,
    "passive": 0,
    "aggressive": 20
  },
  "flyingParameters": {
    "flyHeightMin": 30,
    "flyHeightMax": 50,
    "flySpeedModifier": 1.0,
    "flyRefreshRateY": 100,
    "flyRefreshRateXZ": 400,
    "flyRefreshRateSpeed": 400,
    "flightTimeMin": 0,
    "flightTimeMax": 20,
    "flapRate": 5,
    "landingMaterial": "GrassAndLeaves"
  },
  "spawnLocations": [
    "AirPersistent"
  ],
  "biomeIDs": [
    167
  ],
  "evGain": {
    "HP": 0,
    "Attack": 3,
    "Defence": 0,
    "SpecialAttack": 0,
    "SpecialDefence": 0,
    "Speed": 0
  },
  "canSurf": false,
  "ridingOffsets": {
    "standing": {
      "x": 0.0,
      "y": -1.0,
      "z": 0.0
    }
  },
  "maxGroupSize": 1,
  "minGroupSize": 1,
  "hoverHeight": 0.0,
  "doesHover": false,
  "id": 1149,
  "baseFormID": 102,
  "weight": 58.2,
  "pokemon": "Zapdos",
  "abilities": [
    "Defiant",
    null,
    null
  ],
  "eggGroups": [
    "Undiscovered"
  ],
  "eggCycles": 120,
  "form": 10,
  "evolutionDefs": [],
  "moves": {
    "levelMoves": {
      "1": [
        "Focus Energy",
        "Peck"
      ],
      "65": [
        "Close Combat"
      ],
      "35": [
        "Drill Peck"
      ],
      "5": [
        "Rock Smash"
      ],
      "70": [
        "Reversal"
      ],
      "40": [
        "Quick Guard"
      ],
      "10": [
        "Light Screen"
      ],
      "45": [
        "Thunderous Kick"
      ],
      "15": [
        "Pluck"
      ],
      "50": [
        "Bulk Up"
      ],
      "20": [
        "Agility"
      ],
      "55": [
        "Counter"
      ],
      "25": [
        "Ancient Power"
      ],
      "60": [
        "Detect"
      ],
      "30": [
        "Brick Break"
      ]
    },
    "eggMoves": [
      "Coaching",
      "Dual Wingbeat"
    ],
    "evolutionMoves": [],
    "tmTRMoves": [
      "Snore",
      "Facade",
      "Assurance",
      "Taunt",
      "Focus Energy",
      "Light Screen",
      "U-turn",
      "Retaliate",
      "Stomping Tantrum",
      "Revenge",
      "Bulk Up",
      "Brave Bird",
      "Throat Chop",
      "Screech",
      "Close Combat",
      "Mega Kick",
      "Fly",
      "Rest",
      "Agility",
      "Scary Face",
      "Round",
      "Bounce",
      "Substitute",
      "Superpower",
      "Hurricane",
      "Brick Break",
      "Acrobatics",
      "Giga Impact",
      "Payback",
      "Protect",
      "Hyper Beam",
      "Steel Wing",
      "Low Kick",
      "Endure",
      "Sleep Talk",
      "Reversal",
      "Swift",
      "Blaze Kick",
      "Low Sweep"
    ],
    "tutorMoves": {
      "Regular": [
        "Coaching",
        "Dual Wingbeat"
      ]
    }
  }
}