{
  "pixelmonName": "Zigzagoon",
  "spDef": 41,
  "spAtt": 30,
  "speed": 60,
  "defence": 41,
  "attack": 30,
  "hp": 38,
  "catchRate": 255,
  "malePercent": 50,
  "nationalPokedexNumber": 263,
  "spawnLevel": 2,
  "spawnLevelRange": 14,
  "baseExp": 60,
  "baseFriendship": 70,
  "rarity": {
    "day": 200,
    "dawndusk": 0,
    "night": 0
  },
  "type1": "Dark",
  "type2": "Normal",
  "height": 0.4,
  "width": 0.7,
  "length": 0.7,
  "giScale": 1.0,
  "canFly": false,
  "isRideable": false,
  "preEvolutions": [],
  "experienceGroup": "MediumFast",
  "aggression": {
    "timid": 80,
    "passive": 0,
    "aggressive": 20
  },
  "spawnLocations": [
    "Land"
  ],
  "biomeIDs": [
    1
  ],
  "evGain": {
    "HP": 0,
    "Attack": 0,
    "Defence": 0,
    "SpecialAttack": 0,
    "SpecialDefence": 0,
    "Speed": 1
  },
  "canSurf": false,
  "maxGroupSize": 5,
  "minGroupSize": 2,
  "hoverHeight": 0.0,
  "doesHover": false,
  "id": 1145,
  "baseFormID": 370,
  "weight": 17.5,
  "pokemon": "Zigzagoon",
  "abilities": [
    "Pickup",
    "Gluttony",
    "QuickFeet"
  ],
  "eggGroups": [
    "Field"
  ],
  "eggCycles": 16,
  "form": 10,
  "evolutionDefs": [
    {
      "targetId": 1123,
      "evolveLevel": 20
    }
  ],
  "moves": {
    "levelMoves": {
      "1": [
        "Tackle",
        "Leer"
      ],
      "33": [
        "Taunt"
      ],
      "3": [
        "Sand Attack"
      ],
      "36": [
        "Double-Edge"
      ],
      "6": [
        "Lick"
      ],
      "9": [
        "Snarl"
      ],
      "12": [
        "Headbutt"
      ],
      "15": [
        "Baby-Doll Eyes"
      ],
      "18": [
        "Pin Missile"
      ],
      "21": [
        "Rest"
      ],
      "24": [
        "Take Down"
      ],
      "27": [
        "Scary Face"
      ],
      "30": [
        "Counter"
      ]
    },
    "eggMoves": [
      "Parting Shot",
      "Knock Off",
      "Quick Guard"
    ],
    "evolutionMoves": [],
    "tmTRMoves": [
      "Pin Missile",
      "Snore",
      "Facade",
      "Assurance",
      "Taunt",
      "Snarl",
      "Grass Knot",
      "Retaliate",
      "Icy Wind",
      "Screech",
      "Surf",
      "Rest",
      "Seed Bomb",
      "Iron Tail",
      "Work Up",
      "Scary Face",
      "Round",
      "Body Slam",
      "Shadow Ball",
      "Mud Shot",
      "Substitute",
      "Gunk Shot",
      "Attract",
      "Ice Beam",
      "Thunder Wave",
      "Hyper Voice",
      "Helping Hand",
      "Payback",
      "Protect",
      "Dig",
      "Rain Dance",
      "Thunder",
      "Thief",
      "Fake Tears",
      "Trick",
      "Sunny Day",
      "Fling",
      "Tail Slap",
      "Endure",
      "Sleep Talk",
      "Whirlpool",
      "Swift",
      "Thunderbolt",
      "Blizzard"
    ],
    "tutorMoves": {
      "Regular": [
        "Lash Out"
      ]
    }
  }
}