{
  "data": {
    "type": "PokemartSecond"
  },
  "textures": [
    {
      "name": "shoplady.png"
    },
    {
      "name": "shoplady2.png"
    },
    {
      "name": "shopsecondman.png"
    }
  ],
  "names": [
    {
      "name": "Mrs. Hammersmith"
    },
    {
      "name": "Mrs. Finnegan"
    },
    {
      "name": "Mr. Prendergast"
    }
  ],
  "chat": [
    {
      "hello": "Welcome to our lovely store. I am sure the quality of our goods will please you.",
      "goodbye": "Delighted to have met you. Good day."
    },
    {
      "hello": "Hello, and welcome to the Poké Mart. We have an exciting range of luxury goods.",
      "goodbye": "Thank you for shopping at the Poké Mart."
    },
    {
      "hello": "Bienvenu! Our Poké Mart has fine quality merchandise to offer you.",
      "goodbye": "It was indeed a privilege to do business with you."
    },
    {
      "hello": "Welcome to our fine Poké Mart. Enjoy browsing our luxury range.",
      "goodbye": "Good day to you, and thank you for shopping at our store."
    }
  ],
  "items": [
    {
      "name": "pixelmon:tm1",
      "rarity": 0.05
    },
    {
      "name": "pixelmon:tm2",
      "rarity": 0.05
    },
    {
      "name": "pixelmon:tm3",
      "rarity": 0.05
    },
    {
      "name": "pixelmon:tm4",
      "rarity": 0.05
    },
    {
      "name": "pixelmon:tm5",
      "rarity": 0.05
    },
    {
      "name": "pixelmon:tm6",
      "rarity": 0.05
    },
    {
      "name": "pixelmon:tm7",
      "rarity": 0.05
    },
    {
      "name": "pixelmon:tm8",
      "rarity": 0.05
    },
    {
      "name": "pixelmon:tm9",
      "rarity": 0.05
    },
    {
      "name": "pixelmon:tm10",
      "rarity": 0.05
    },
    {
      "name": "pixelmon:tm11",
      "rarity": 0.05
    },
    {
      "name": "pixelmon:tm12",
      "rarity": 0.05
    },
    {
      "name": "pixelmon:tm13",
      "rarity": 0.05
    },
    {
      "name": "pixelmon:tm14",
      "rarity": 0.05
    },
    {
      "name": "pixelmon:tm15",
      "rarity": 0.05
    },
    {
      "name": "pixelmon:tm16",
      "rarity": 0.05
    },
    {
      "name": "pixelmon:tm17",
      "rarity": 0.05
    },
    {
      "name": "pixelmon:tm18",
      "rarity": 0.05
    },
    {
      "name": "pixelmon:tm19",
      "rarity": 0.05
    },
    {
      "name": "pixelmon:tm20",
      "rarity": 0.05
    },
    {
      "name": "pixelmon:tm21",
      "rarity": 0.05
    },
    {
      "name": "pixelmon:tm22",
      "rarity": 0.05
    },
    {
      "name": "pixelmon:tm23",
      "rarity": 0.05
    },
    {
      "name": "pixelmon:tm24",
      "rarity": 0.05
    },
    {
      "name": "pixelmon:tm25",
      "rarity": 0.05
    },
    {
      "name": "pixelmon:tm26",
      "rarity": 0.05
    },
    {
      "name": "pixelmon:tm27",
      "rarity": 0.05
    },
    {
      "name": "pixelmon:tm28",
      "rarity": 0.05
    },
    {
      "name": "pixelmon:tm29",
      "rarity": 0.05
    },
    {
      "name": "pixelmon:tm30",
      "rarity": 0.05
    },
    {
      "name": "pixelmon:tm31",
      "rarity": 0.05
    },
    {
      "name": "pixelmon:tm32",
      "rarity": 0.05
    },
    {
      "name": "pixelmon:tm33",
      "rarity": 0.05
    },
    {
      "name": "pixelmon:tm34",
      "rarity": 0.05
    },
    {
      "name": "pixelmon:tm35",
      "rarity": 0.05
    },
    {
      "name": "pixelmon:tm36",
      "rarity": 0.05
    },
    {
      "name": "pixelmon:tm37",
      "rarity": 0.05
    },
    {
      "name": "pixelmon:tm38",
      "rarity": 0.05
    },
    {
      "name": "pixelmon:tm39",
      "rarity": 0.05
    },
    {
      "name": "pixelmon:tm40",
      "rarity": 0.05
    },
    {
      "name": "pixelmon:tm41",
      "rarity": 0.05
    },
    {
      "name": "pixelmon:tm42",
      "rarity": 0.05
    },
    {
      "name": "pixelmon:tm43",
      "rarity": 0.05
    },
    {
      "name": "pixelmon:tm44",
      "rarity": 0.05
    },
    {
      "name": "pixelmon:tm45",
      "rarity": 0.05
    },
    {
      "name": "pixelmon:tm46",
      "rarity": 0.05
    },
    {
      "name": "pixelmon:tm47",
      "rarity": 0.05
    },
    {
      "name": "pixelmon:tm48",
      "rarity": 0.05
    },
    {
      "name": "pixelmon:tm49",
      "rarity": 0.05
    },
    {
      "name": "pixelmon:tm50",
      "rarity": 0.05
    },
    {
      "name": "pixelmon:tm51",
      "rarity": 0.05
    },
    {
      "name": "pixelmon:tm52",
      "rarity": 0.05
    },
    {
      "name": "pixelmon:tm53",
      "rarity": 0.05
    },
    {
      "name": "pixelmon:tm54",
      "rarity": 0.05
    },
    {
      "name": "pixelmon:tm55",
      "rarity": 0.05
    },
    {
      "name": "pixelmon:tm56",
      "rarity": 0.05
    },
    {
      "name": "pixelmon:tm57",
      "rarity": 0.05
    },
    {
      "name": "pixelmon:tm58",
      "rarity": 0.05
    },
    {
      "name": "pixelmon:tm59",
      "rarity": 0.05
    },
    {
      "name": "pixelmon:tm60",
      "rarity": 0.05
    },
    {
      "name": "pixelmon:tm61",
      "rarity": 0.05
    },
    {
      "name": "pixelmon:tm62",
      "rarity": 0.05
    },
    {
      "name": "pixelmon:tm63",
      "rarity": 0.05
    },
    {
      "name": "pixelmon:tm64",
      "rarity": 0.05
    },
    {
      "name": "pixelmon:tm65",
      "rarity": 0.05
    },
    {
      "name": "pixelmon:tm66",
      "rarity": 0.05
    },
    {
      "name": "pixelmon:tm67",
      "rarity": 0.05
    },
    {
      "name": "pixelmon:tm68",
      "rarity": 0.05
    },
    {
      "name": "pixelmon:tm69",
      "rarity": 0.05
    },
    {
      "name": "pixelmon:tm70",
      "rarity": 0.05
    },
    {
      "name": "pixelmon:tm71",
      "rarity": 0.05
    },
    {
      "name": "pixelmon:tm72",
      "rarity": 0.05
    },
    {
      "name": "pixelmon:tm73",
      "rarity": 0.05
    },
    {
      "name": "pixelmon:tm74",
      "rarity": 0.05
    },
    {
      "name": "pixelmon:tm75",
      "rarity": 0.05
    },
    {
      "name": "pixelmon:tm76",
      "rarity": 0.05
    },
    {
      "name": "pixelmon:tm77",
      "rarity": 0.05
    },
    {
      "name": "pixelmon:tm78",
      "rarity": 0.05
    },
    {
      "name": "pixelmon:tm79",
      "rarity": 0.05
    },
    {
      "name": "pixelmon:tm80",
      "rarity": 0.05
    },
    {
      "name": "pixelmon:tm81",
      "rarity": 0.05
    },
    {
      "name": "pixelmon:tm82",
      "rarity": 0.05
    },
    {
      "name": "pixelmon:tm83",
      "rarity": 0.05
    },
    {
      "name": "pixelmon:tm84",
      "rarity": 0.05
    },
    {
      "name": "pixelmon:tm85",
      "rarity": 0.05
    },
    {
      "name": "pixelmon:tm86",
      "rarity": 0.05
    },
    {
      "name": "pixelmon:tm87",
      "rarity": 0.05
    },
    {
      "name": "pixelmon:tm88",
      "rarity": 0.05
    },
    {
      "name": "pixelmon:tm89",
      "rarity": 0.05
    },
    {
      "name": "pixelmon:tm90",
      "rarity": 0.05
    },
    {
      "name": "pixelmon:tm91",
      "rarity": 0.05
    },
    {
      "name": "pixelmon:tm92",
      "rarity": 0.05
    },
    {
      "name": "pixelmon:tm93",
      "rarity": 0.05
    },
    {
      "name": "pixelmon:tm94",
      "rarity": 0.05
    },
    {
      "name": "pixelmon:tm95",
      "rarity": 0.05
    },
    {
      "name": "pixelmon:tm96",
      "rarity": 0.05
    },
    {
      "name": "pixelmon:tm97",
      "rarity": 0.05
    },
    {
      "name": "pixelmon:tm98",
      "rarity": 0.05
    },
    {
      "name": "pixelmon:tm99",
      "rarity": 0.05
    },
    {
      "name": "pixelmon:tm0",
      "rarity": 0.05
    }
  ]
}
