{
  "id": "Ampharos",
  "spawnInfos": [
    {
      "minLevel": 30,
      "maxLevel": 60,
      "typeID": "pokemon",
      "rarity": 10,
      "spec": {
        "name": "Ampharos",
        "form": 0
      },
      "stringLocationTypes": [
        "Land"
      ],
      "condition": {
        "times": [
          "DAWN",
          "DAY"
        ],
        "stringBiomes": [
          "minecraft:plains",
          "biomesoplenty:prairie",
          "biomesoplenty:pasture",
          "biomesoplenty:lavender_fields",
          "minecraft:savanna",
          "biomesoplenty:alps",
          "biomesoplenty:chaparral",
          "minecraft:mutated_desert",
          "pixelmon:ultraplant"
        ]
      }
    }
  ]
}