{
  "id": "Arrokuda",
  "spawnInfos": [
    {
      "minLevel": 5,
      "maxLevel": 25,
      "typeID": "pokemon",
      "rarity": 50,
      "spec": {
        "name": "Arrokuda",
        "form": 0
      },
      "stringLocationTypes": [
        "Water"
      ],
      "condition": {
        "times": [
          "DAWN",
          "DAY",
          "DUSK",
          "NIGHT"
        ],
        "stringBiomes": [
          "minecraft:ocean",
          "biomesoplenty:coral_reef",
          "biomesoplenty:kelp_forest",
          "pixelmon:ultradeepsea"
        ]
      }
    }
  ]
}