{
  "id": "Bibarel",
  "spawnInfos": [
    {
      "minLevel": 20,
      "maxLevel": 30,
      "typeID": "pokemon",
      "rarity": 25,
      "spec": {
        "name": "Bibarel",
        "form": 0
      },
      "stringLocationTypes": [
        "Land"
      ],
      "condition": {
        "times": [
          "DAWN",
          "DAY",
          "DUSK",
          "NIGHT"
        ],
        "stringBiomes": [
          "minecraft:stone_beach",
          "biomesoplenty:gravel_beach",
          "biomesoplenty:origin_beach",
          "biomesoplenty:flower_island",
          "biomesoplenty:origin_island",
          "biomesoplenty:land_of_lakes",
          "biomesoplenty:sacred_springs",
          "biomesoplenty:tropical_island",
          "biomesoplenty:bayou",
          "minecraft:taiga_cold"
        ]
      }
    }
  ]
}