{
  "id": "Bouffalant",
  "spawnInfos": [
    {
      "minLevel": 15,
      "maxLevel": 40,
      "typeID": "pokemon",
      "rarity": 50,
      "spec": {
        "name": "Bouffalant",
        "form": 0
      },
      "stringLocationTypes": [
        "Land"
      ],
      "condition": {
        "times": [
          "DAWN",
          "DAY"
        ],
        "stringBiomes": [
          "minecraft:plains",
          "minecraft:mutated_plains",
          "biomesoplenty:prairie",
          "biomesoplenty:pasture",
          "minecraft:savanna",
          "biomesoplenty:chaparral",
          "biomesoplenty:orchard",
          "biomesoplenty:shrubland",
          "minecraft:savanna_rock",
          "biomesoplenty:lush_swamp"
        ]
      }
    }
  ]
}