{
  "id": "Chansey",
  "spawnInfos": [
    {
      "minLevel": 15,
      "maxLevel": 50,
      "typeID": "pokemon",
      "rarity": 2,
      "spec": {
        "name": "Chansey",
        "form": 0
      },
      "stringLocationTypes": [
        "Land"
      ],
      "condition": {
        "times": [
          "DAWN",
          "DAY",
          "DUSK",
          "NIGHT"
        ],
        "stringBiomes": [
          "biomesoplenty:ominous_woods",
          "minecraft:roofed_forest",
          "minecraft:mushroom_island",
          "biomesoplenty:origin_island",
          "biomesoplenty:cherry_blossom_grove",
          "minecraft:mushroom_island",
          "minecraft:mutated_roofed_forest",
          "minecraft:taiga_cold_hills"
        ]
      }
    }
  ]
}