{
  "id": "Cinderace",
  "spawnInfos": [
    {
      "minLevel": 35,
      "maxLevel": 70,
      "typeID": "pokemon",
      "rarity": 2,
      "spec": {
        "name": "Cinderace",
        "form": 0
      },
      "stringLocationTypes": [
        "Land"
      ],
      "condition": {
        "times": [
          "DAWN",
          "DAY",
          "DUSK",
          "NIGHT"
        ],
        "stringBiomes": [
          "minecraft:savanna",
          "biomesoplenty:brushland",
          "minecraft:desert",
          "biomesoplenty:lush_desert",
          "biomesoplenty:volcanic_island",
          "minecraft:desert_hills"
        ]
      }
    }
  ]
}