{
  "id": "Coalossal",
  "spawnInfos": [
    {
      "minLevel": 34,
      "maxLevel": 70,
      "typeID": "pokemon",
      "rarity": 10,
      "spec": {
        "name": "Coalossal",
        "form": 0
      },
      "stringLocationTypes": [
        "Land",
        "Underground"
      ],
      "condition": {
        "times": [
          "DAWN",
          "DAY",
          "DUSK",
          "NIGHT"
        ],
        "stringBiomes": [
          "biomesoplenty:volcanic_island",
          "minecraft:mutated_mesa_clear_rock",
          "minecraft:mesa_rock",
          "biomesoplenty:corrupted_sands",
          "minecraft:mesa_clear_rock"
        ]
      }
    }
  ]
}