{
  "id": "Cryogonal",
  "spawnInfos": [
    {
      "minLevel": 10,
      "maxLevel": 30,
      "typeID": "pokemon",
      "rarity": 25,
      "spec": {
        "name": "Cryogonal",
        "form": 0
      },
      "stringLocationTypes": [
        "Land",
        "Underground"
      ],
      "condition": {
        "times": [
          "DAWN",
          "DAY",
          "DUSK",
          "NIGHT"
        ],
        "stringBiomes": [
          "biomesoplenty:glacier",
          "biomesoplenty:snowy_coniferous_forest",
          "biomesoplenty:alps",
          "minecraft:ice_mountains",
          "minecraft:mutated_ice_flats",
          "biomesoplenty:cold_desert",
          "minecraft:taiga_cold_hills",
          "biomesoplenty:snowy_tundra"
        ]
      }
    }
  ]
}