{
  "id": "Dartrix",
  "spawnInfos": [
    {
      "minLevel": 20,
      "maxLevel": 30,
      "typeID": "pokemon",
      "rarity": 10,
      "spec": {
        "name": "Dartrix",
        "form": 0
      },
      "stringLocationTypes": [
        "Land"
      ],
      "condition": {
        "times": [
          "DAWN",
          "DAY",
          "DUSK",
          "NIGHT"
        ],
        "stringBiomes": [
          "minecraft:forest",
          "minecraft:birch_forest",
          "biomesoplenty:redwood_forest",
          "biomesoplenty:sacred_springs",
          "biomesoplenty:maple_woods",
          "biomesoplenty:boreal_forest"
        ]
      }
    }
  ]
}