{
  "id": "Diggersby",
  "spawnInfos": [
    {
      "minLevel": 30,
      "maxLevel": 32,
      "typeID": "pokemon",
      "rarity": 25,
      "spec": {
        "name": "Diggersby",
        "form": 0
      },
      "stringLocationTypes": [
        "Land"
      ],
      "condition": {
        "times": [
          "DAWN",
          "DAY",
          "DUSK",
          "NIGHT"
        ],
        "stringBiomes": [
          "biomesoplenty:alps_foothills",
          "biomesoplenty:shield",
          "biomesoplenty:coniferous_forest",
          "biomesoplenty:snowy_forest",
          "biomesoplenty:snowy_coniferous_forest",
          "minecraft:taiga",
          "minecraft:taiga_hills",
          "minecraft:redwood_taiga",
          "minecraft:mutated_taiga_cold",
          "minecraft:mutated_redwood_taiga",
          "minecraft:mutated_redwood_taiga_hills",
          "minecraft:ice_flats",
          "minecraft:mutated_ice_flats",
          "minecraft:taiga_cold",
          "minecraft:desert",
          "minecraft:mutated_desert",
          "biomesoplenty:xeric_shrubland",
          "biomesoplenty:corrupted_sands",
          "minecraft:redwood_taiga_hills",
          "pixelmon:ultraruin"
        ]
      }
    }
  ]
}