{
  "id": "Dodrio",
  "spawnInfos": [
    {
      "minLevel": 31,
      "maxLevel": 50,
      "typeID": "pokemon",
      "rarity": 25,
      "spec": {
        "name": "Dodrio",
        "form": 0
      },
      "stringLocationTypes": [
        "Land"
      ],
      "condition": {
        "times": [
          "DAWN",
          "DAY"
        ],
        "stringBiomes": [
          "minecraft:plains",
          "biomesoplenty:prairie",
          "biomesoplenty:pasture",
          "minecraft:savanna",
          "biomesoplenty:brushland",
          "biomesoplenty:shrubland",
          "biomesoplenty:tundra",
          "minecraft:savanna_rock",
          "biomesoplenty:highland",
          "minecraft:mutated_desert"
        ]
      }
    }
  ]
}