{
  "id": "Dugtrio",
  "spawnInfos": [
    {
      "minLevel": 26,
      "maxLevel": 39,
      "typeID": "pokemon",
      "rarity": 25,
      "spec": {
        "name": "Dugtrio",
        "form": 0
      },
      "stringLocationTypes": [
        "Land",
        "Underground"
      ],
      "condition": {
        "times": [
          "DAWN",
          "DAY",
          "DUSK",
          "NIGHT"
        ],
        "stringBiomes": [
          "biomesoplenty:tropical_rainforest",
          "minecraft:mutated_jungle_edge",
          "minecraft:jungle_hills",
          "biomesoplenty:land_of_lakes",
          "biomesoplenty:seasonal_forest",
          "biomesoplenty:temperate_rainforest",
          "minecraft:forest_hills",
          "minecraft:birch_forest_hills",
          "minecraft:mutated_birch_forest",
          "minecraft:mutated_birch_forest_hills",
          "minecraft:mutated_extreme_hills",
          "minecraft:mutated_extreme_hills_with_trees",
          "pixelmon:ultraruin"
        ]
      }
    },
    {
      "minLevel": 26,
      "maxLevel": 39,
      "typeID": "pokemon",
      "rarity": 25,
      "spec": {
        "name": "Dugtrio",
        "form": 3
      },
      "stringLocationTypes": [
        "Land",
        "Underground"
      ],
      "condition": {
        "times": [
          "DAWN",
          "DAY",
          "DUSK",
          "NIGHT"
        ],
        "stringBiomes": [
          "minecraft:jungle",
          "biomesoplenty:rainforest",
          "biomesoplenty:eucalyptus_forest",
          "biomesoplenty:sacred_springs",
          "biomesoplenty:tropical_rainforest",
          "minecraft:mutated_jungle_edge",
          "minecraft:jungle_hills",
          "minecraft:mutated_jungle",
          "minecraft:ice_mountains",
          "minecraft:ice_flats",
          "minecraft:mutated_ice_flats",
          "biomesoplenty:glacier",
          "biomesoplenty:cold_desert",
          "minecraft:taiga_cold",
          "minecraft:cold_beach",
          "minecraft:frozen_river",
          "biomesoplenty:snowy_tundra",
          "minecraft:jungle_edge",
          "biomesoplenty:corrupted_sands",
          "biomesoplenty:visceral_heap",
          "biomesoplenty:tropical_island",
          "pixelmon:ultraswamp"
        ]
      }
    }
  ]
}