{
  "id": "Dunsparce",
  "spawnInfos": [
    {
      "minLevel": 5,
      "maxLevel": 30,
      "typeID": "pokemon",
      "rarity": 100,
      "spec": {
        "name": "Dunsparce",
        "form": 0
      },
      "stringLocationTypes": [
        "Land"
      ],
      "condition": {
        "times": [
          "DAWN",
          "DUSK",
          "NIGHT"
        ],
        "stringBiomes": [
          "biomesoplenty:rainforest",
          "biomesoplenty:eucalyptus_forest",
          "biomesoplenty:bamboo_forest",
          "biomesoplenty:sacred_springs",
          "biomesoplenty:tropical_rainforest",
          "minecraft:jungle_hills",
          "minecraft:forest",
          "minecraft:birch_forest",
          "biomesoplenty:woodland",
          "biomesoplenty:grove",
          "biomesoplenty:land_of_lakes",
          "biomesoplenty:maple_woods",
          "biomesoplenty:redwood_forest",
          "biomesoplenty:seasonal_forest",
          "biomesoplenty:temperate_rainforest",
          "minecraft:forest_hills",
          "minecraft:birch_forest_hills",
          "minecraft:mutated_birch_forest"
        ]
      }
    }
  ]
}