{
  "id": "Eldegoss",
  "spawnInfos": [
    {
      "minLevel": 20,
      "maxLevel": 60,
      "typeID": "pokemon",
      "rarity": 25,
      "spec": {
        "name": "Eldegoss",
        "form": 0
      },
      "stringLocationTypes": [
        "Land"
      ],
      "condition": {
        "times": [
          "DAWN",
          "DAY",
          "DUSK",
          "NIGHT"
        ],
        "stringBiomes": [
          "biomesoplenty:chaparral",
          "biomesoplenty:coniferous_forest",
          "minecraft:mutated_desert",
          "minecraft:mutated_forest",
          "minecraft:plains",
          "biomesoplenty:fen",
          "biomesoplenty:flower_field",
          "biomesoplenty:grassland",
          "biomesoplenty:pasture",
          "biomesoplenty:meadow",
          "pixelmon:ultraplant",
          "pixelmon:ultraforest"
        ]
      }
    }
  ]
}