{
  "id": "Excadrill",
  "spawnInfos": [
    {
      "minLevel": 31,
      "maxLevel": 50,
      "typeID": "pokemon",
      "rarity": 10,
      "spec": {
        "name": "Excadrill",
        "form": 0
      },
      "stringLocationTypes": [
        "Land",
        "Underground"
      ],
      "condition": {
        "times": [
          "DAWN",
          "DAY",
          "DUSK",
          "NIGHT"
        ],
        "stringBiomes": [
          "biomesoplenty:volcanic_island",
          "minecraft:desert_hills",
          "biomesoplenty:steppe",
          "minecraft:mesa_rock",
          "minecraft:mesa_clear_rock",
          "biomesoplenty:oasis",
          "minecraft:mutated_desert",
          "minecraft:mutated_mesa",
          "minecraft:mutated_mesa_clear_rock",
          "biomesoplenty:mountain",
          "biomesoplenty:overgrown_cliffs",
          "minecraft:extreme_hills",
          "biomesoplenty:highland",
          "biomesoplenty:snowy_tundra",
          "minecraft:mutated_mesa_rock",
          "pixelmon:ultraforest"
        ]
      }
    }
  ]
}