{
  "id": "Florges",
  "spawnInfos": [
    {
      "minLevel": 19,
      "maxLevel": 50,
      "typeID": "pokemon",
      "rarity": 25,
      "spec": {
        "name": "Florges",
        "form": 0
      },
      "stringLocationTypes": [
        "Land"
      ],
      "condition": {
        "times": [
          "DAWN",
          "DAY"
        ],
        "stringBiomes": [
          "biomesoplenty:lavender_fields",
          "biomesoplenty:cherry_blossom_grove",
          "minecraft:mutated_plains",
          "minecraft:mutated_forest",
          "biomesoplenty:flower_island",
          "biomesoplenty:mystic_grove",
          "biomesoplenty:origin_island",
          "biomesoplenty:lush_swamp",
          "biomesoplenty:tropical_island",
          "pixelmon:ultraforest"
        ]
      }
    },
    {
      "minLevel": 19,
      "maxLevel": 50,
      "typeID": "pokemon",
      "rarity": 25,
      "spec": {
        "name": "Florges",
        "form": 1
      },
      "stringLocationTypes": [
        "Land"
      ],
      "condition": {
        "times": [
          "DAWN",
          "DAY"
        ],
        "stringBiomes": [
          "biomesoplenty:lavender_fields",
          "biomesoplenty:cherry_blossom_grove",
          "minecraft:mutated_plains",
          "minecraft:mutated_forest",
          "biomesoplenty:flower_island",
          "biomesoplenty:mystic_grove",
          "biomesoplenty:origin_island",
          "biomesoplenty:lush_swamp",
          "biomesoplenty:tropical_island"
        ]
      }
    },
    {
      "minLevel": 19,
      "maxLevel": 50,
      "typeID": "pokemon",
      "rarity": 25,
      "spec": {
        "name": "Florges",
        "form": 2
      },
      "stringLocationTypes": [
        "Land"
      ],
      "condition": {
        "times": [
          "DAWN",
          "DAY"
        ],
        "stringBiomes": [
          "biomesoplenty:lavender_fields",
          "biomesoplenty:cherry_blossom_grove",
          "minecraft:mutated_plains",
          "minecraft:mutated_forest",
          "biomesoplenty:flower_island",
          "biomesoplenty:mystic_grove",
          "biomesoplenty:origin_island",
          "biomesoplenty:lush_swamp",
          "biomesoplenty:tropical_island",
          "pixelmon:ultradarkforest"
        ]
      }
    },
    {
      "minLevel": 19,
      "maxLevel": 50,
      "typeID": "pokemon",
      "rarity": 25,
      "spec": {
        "name": "Florges",
        "form": 3
      },
      "stringLocationTypes": [
        "Land"
      ],
      "condition": {
        "times": [
          "DAWN",
          "DAY"
        ],
        "stringBiomes": [
          "biomesoplenty:lavender_fields",
          "biomesoplenty:cherry_blossom_grove",
          "minecraft:mutated_plains",
          "minecraft:mutated_forest",
          "biomesoplenty:flower_island",
          "biomesoplenty:mystic_grove",
          "biomesoplenty:origin_island",
          "biomesoplenty:lush_swamp",
          "biomesoplenty:tropical_island",
          "pixelmon:ultradarkforest"
        ]
      }
    },
    {
      "minLevel": 19,
      "maxLevel": 50,
      "typeID": "pokemon",
      "rarity": 25,
      "spec": {
        "name": "Florges",
        "form": 4
      },
      "stringLocationTypes": [
        "Land"
      ],
      "condition": {
        "times": [
          "DAWN",
          "DAY"
        ],
        "stringBiomes": [
          "biomesoplenty:lavender_fields",
          "biomesoplenty:cherry_blossom_grove",
          "minecraft:mutated_plains",
          "minecraft:mutated_forest",
          "biomesoplenty:flower_island",
          "biomesoplenty:mystic_grove",
          "biomesoplenty:origin_island",
          "biomesoplenty:lush_swamp",
          "biomesoplenty:tropical_island"
        ]
      }
    }
  ]
}