{
  "id": "Frosmoth",
  "spawnInfos": [
    {
      "minLevel": 5,
      "maxLevel": 35,
      "typeID": "pokemon",
      "rarity": 10,
      "spec": {
        "name": "Frosmoth",
        "form": 0
      },
      "stringLocationTypes": [
        "Land"
      ],
      "condition": {
        "times": [
          "NIGHT"
        ],
        "stringBiomes": [
          "biomesoplenty:coniferous_forest",
          "minecraft:taiga_cold_hills",
          "minecraft:mutated_taiga_cold",
          "minecraft:ice_mountains",
          "minecraft:mutated_ice_flats",
          "biomesoplenty:alps_foothills",
          "biomesoplenty:snowy_tundra"
        ]
      }
    }
  ]
}