{
  "id": "Golduck",
  "spawnInfos": [
    {
      "minLevel": 33,
      "maxLevel": 50,
      "typeID": "pokemon",
      "rarity": 50,
      "spec": {
        "name": "Golduck",
        "form": 0
      },
      "stringLocationTypes": [
        "Land",
        "Underground"
      ],
      "condition": {
        "times": [
          "DUSK",
          "NIGHT"
        ],
        "stringBiomes": [
          "biomesoplenty:sacred_springs",
          "minecraft:jungle_edge",
          "minecraft:beaches",
          "minecraft:stone_beach",
          "minecraft:cold_beach",
          "biomesoplenty:white_beach",
          "minecraft:river",
          "biomesoplenty:land_of_lakes",
          "biomesoplenty:oasis",
          "biomesoplenty:grassland",
          "biomesoplenty:coniferous_forest"
        ]
      }
    }
  ]
}