{
  "id": "Gourgeist",
  "spawnInfos": [
    {
      "minLevel": 35,
      "maxLevel": 45,
      "typeID": "pokemon",
      "rarity": 25,
      "spec": {
        "name": "Gourgeist",
        "form": 0
      },
      "stringLocationTypes": [
        "Land"
      ],
      "condition": {
        "times": [
          "DAWN",
          "DAY"
        ],
        "stringBiomes": [
          "minecraft:roofed_forest",
          "biomesoplenty:ominous_woods",
          "biomesoplenty:mystic_grove",
          "minecraft:mushroom_island",
          "biomesoplenty:origin_island",
          "biomesoplenty:flower_island",
          "minecraft:mutated_jungle_edge",
          "minecraft:mutated_roofed_forest",
          "biomesoplenty:bayou",
          "minecraft:mutated_swampland",
          "minecraft:jungle_edge",
          "biomesoplenty:fungi_forest"
        ]
      }
    }
  ]
}