{
  "id": "Grapploct",
  "spawnInfos": [
    {
      "minLevel": 32,
      "maxLevel": 58,
      "typeID": "pokemon",
      "rarity": 10,
      "spec": {
        "name": "Grapploct",
        "form": 0
      },
      "stringLocationTypes": [
        "Land"
      ],
      "condition": {
        "times": [
          "DAWN",
          "DAY",
          "DUSK"
        ],
        "stringBiomes": [
          "minecraft:stone_beach",
          "minecraft:cold_beach",
          "biomesoplenty:gravel_beach",
          "minecraft:frozen_ocean"
        ]
      }
    }
  ]
}