{
  "id": "Greedent",
  "spawnInfos": [
    {
      "minLevel": 20,
      "maxLevel": 32,
      "typeID": "pokemon",
      "rarity": 50,
      "spec": {
        "name": "Greedent",
        "form": 0
      },
      "stringLocationTypes": [
        "Land"
      ],
      "condition": {
        "times": [
          "DAWN",
          "DAY",
          "DUSK",
          "NIGHT"
        ],
        "stringBiomes": [
          "minecraft:plains",
          "minecraft:mutated_plains",
          "biomesoplenty:flower_field",
          "biomesoplenty:grassland",
          "biomesoplenty:prairie",
          "biomesoplenty:pasture",
          "biomesoplenty:meadow",
          "biomesoplenty:lavender_fields",
          "minecraft:savanna",
          "biomesoplenty:chaparral",
          "biomesoplenty:orchard",
          "biomesoplenty:shrubland",
          "minecraft:savanna_rock",
          "biomesoplenty:lush_swamp",
          "biomesoplenty:marsh",
          "minecraft:mushroom_island_shore"
        ]
      }
    }
  ]
}