{
  "id": "Hydreigon",
  "spawnInfos": [
    {
      "minLevel": 65,
      "maxLevel": 75,
      "typeID": "pokemon",
      "rarity": 2,
      "spec": {
        "name": "Hydreigon",
        "form": 0
      },
      "stringLocationTypes": [
        "Land"
      ],
      "condition": {
        "times": [
          "DUSK",
          "NIGHT"
        ],
        "stringBiomes": [
          "biomesoplenty:ominous_woods",
          "minecraft:roofed_forest",
          "biomesoplenty:dead_forest",
          "biomesoplenty:origin_island"
        ]
      }
    }
  ]
}