{
  "id": "Inkay",
  "spawnInfos": [
    {
      "minLevel": 1,
      "maxLevel": 48,
      "typeID": "pokemon",
      "rarity": 100,
      "spec": {
        "name": "Inkay",
        "form": 0
      },
      "stringLocationTypes": [
        "Water"
      ],
      "condition": {
        "times": [
          "DAWN",
          "DUSK",
          "NIGHT"
        ],
        "stringBiomes": [
          "biomesoplenty:quagmire",
          "minecraft:roofed_forest",
          "biomesoplenty:ominous_woods",
          "biomesoplenty:dead_forest",
          "biomesoplenty:dead_swamp",
          "biomesoplenty:wasteland",
          "biomesoplenty:bog",
          "biomesoplenty:steppe",
          "minecraft:mutated_roofed_forest",
          "biomesoplenty:bayou"
        ]
      }
    }
  ]
}