{
  "id": "Lampent",
  "spawnInfos": [
    {
      "minLevel": 41,
      "maxLevel": 55,
      "typeID": "pokemon",
      "rarity": 50,
      "spec": {
        "name": "Lampent",
        "form": 0
      },
      "stringLocationTypes": [
        "Land"
      ],
      "condition": {
        "times": [
          "DUSK",
          "NIGHT"
        ],
        "stringBiomes": [
          "biomesoplenty:quagmire",
          "minecraft:roofed_forest",
          "biomesoplenty:ominous_woods",
          "biomesoplenty:dead_forest",
          "biomesoplenty:fen",
          "biomesoplenty:wasteland",
          "biomesoplenty:steppe",
          "minecraft:mutated_roofed_forest",
          "biomesoplenty:bayou",
          "minecraft:mutated_desert",
          "biomesoplenty:xeric_shrubland",
          "biomesoplenty:undergarden",
          "biomesoplenty:corrupted_sands",
          "minecraft:hell",
          "pixelmon:ultraburst"
        ]
      }
    }
  ]
}