{
  "id": "Latias",
  "spawnInfos": [
    {
      "minLevel": 70,
      "maxLevel": 70,
      "typeID": "pokemon",
      "rarity": 2,
      "interval": "legendary",
      "spec": {
        "name": "Latias",
        "form": 0
      },
      "stringLocationTypes": [
        "Water"
      ],
      "condition": {
        "times": [
          "DAWN",
          "DAY",
          "DUSK",
          "NIGHT"
        ],
        "stringBiomes": [
          "minecraft:beaches",
          "minecraft:cold_beach",
          "biomesoplenty:gravel_beach",
          "minecraft:stone_beach",
          "biomesoplenty:white_beach"
        ]
      }
    }
  ]
}