{
  "id": "Loudred",
  "spawnInfos": [
    {
      "minLevel": 20,
      "maxLevel": 40,
      "typeID": "pokemon",
      "rarity": 100,
      "spec": {
        "name": "Loudred",
        "form": 0
      },
      "stringLocationTypes": [
        "Land"
      ],
      "condition": {
        "times": [
          "DAWN",
          "DAY",
          "DUSK",
          "NIGHT"
        ],
        "stringBiomes": [
          "biomesoplenty:overgrown_cliffs",
          "minecraft:extreme_hills",
          "biomesoplenty:mountain_foothills",
          "biomesoplenty:mountain",
          "minecraft:extreme_hills_with_trees",
          "minecraft:mutated_taiga",
          "minecraft:mutated_savanna",
          "minecraft:mutated_savanna_rock",
          "minecraft:mutated_mesa",
          "minecraft:taiga_hills",
          "minecraft:taiga",
          "minecraft:mutated_redwood_taiga_hills",
          "minecraft:mesa_clear_rock",
          "minecraft:redwood_taiga_hills",
          "minecraft:mutated_extreme_hills",
          "minecraft:mutated_extreme_hills_with_trees"
        ]
      }
    }
  ]
}