{
  "id": "Maractus",
  "spawnInfos": [
    {
      "minLevel": 15,
      "maxLevel": 45,
      "typeID": "pokemon",
      "rarity": 25,
      "spec": {
        "name": "Maractus",
        "form": 0
      },
      "stringLocationTypes": [
        "Land"
      ],
      "condition": {
        "times": [
          "DAWN",
          "DAY",
          "DUSK",
          "NIGHT"
        ],
        "stringBiomes": [
          "minecraft:desert",
          "biomesoplenty:lush_desert",
          "minecraft:mesa",
          "biomesoplenty:brushland",
          "biomesoplenty:outback",
          "biomesoplenty:volcanic_island",
          "minecraft:desert_hills",
          "biomesoplenty:steppe",
          "minecraft:mesa_rock",
          "minecraft:mesa_clear_rock",
          "biomesoplenty:xeric_shrubland",
          "biomesoplenty:oasis",
          "minecraft:mutated_desert",
          "minecraft:mutated_mesa_rock",
          "minecraft:mutated_mesa",
          "minecraft:mutated_mesa_clear_rock",
          "biomesoplenty:origin_island"
        ]
      }
    }
  ]
}