{
  "id": "Mew",
  "spawnInfos": [
    {
      "minLevel": 50,
      "maxLevel": 50,
      "typeID": "pokemon",
      "rarity": 2,
      "interval": "legendary",
      "spec": {
        "name": "Mew",
        "form": 0
      },
      "stringLocationTypes": [
        "Land"
      ],
      "condition": {
        "times": [
          "DAWN",
          "DAY",
          "DUSK",
          "NIGHT"
        ],
        "stringBiomes": [
          "biomesoplenty:grove",
          "minecraft:forest_hills",
          "minecraft:taiga_hills",
          "biomesoplenty:rainforest",
          "biomesoplenty:origin_island"
        ]
      }
    }
  ]
}