{
  "id": "MissingNo",
  "spawnInfos": [
    {
      "minLevel": 1,
      "maxLevel": 16,
      "typeID": "pokemon",
      "rarity": 2,
      "spec": {
        "name": "MissingNo",
        "form": 0
      },
      "stringLocationTypes": [
        "Land"
      ],
      "condition": {
        "times": [
          "DAWN",
          "DAY",
          "DUSK",
          "NIGHT"
        ],
        "stringBiomes": [
          "biomesoplenty:corrupted_sands",
          "minecraft:roofed_forest",
          "biomesoplenty:fungi_forest",
          "biomesoplenty:undergarden",
          "biomesoplenty:origin_island",
          "biomesoplenty:phantasmagoric_inferno",
          "minecraft:sky",
          "biomesoplenty:visceral_heap",
          "minecraft:hell"
        ]
      }
    },
    {
      "minLevel": 1,
      "maxLevel": 16,
      "typeID": "pokemon",
      "rarity": 2,
      "spec": {
        "name": "MissingNo",
        "form": 1
      },
      "stringLocationTypes": [
        "Land"
      ],
      "condition": {
        "times": [
          "DAWN",
          "DAY",
          "DUSK",
          "NIGHT"
        ],
        "stringBiomes": [
          "biomesoplenty:corrupted_sands",
          "minecraft:roofed_forest",
          "biomesoplenty:fungi_forest",
          "biomesoplenty:undergarden",
          "biomesoplenty:origin_island",
          "biomesoplenty:phantasmagoric_inferno",
          "minecraft:sky",
          "biomesoplenty:visceral_heap",
          "minecraft:hell"
        ]
      }
    },
     {
      "minLevel": 1,
      "maxLevel": 16,
      "typeID": "pokemon",
      "rarity": 2,
      "spec": {
        "name": "MissingNo",
        "form": 2
      },
      "stringLocationTypes": [
        "Land"
      ],
      "condition": {
        "times": [
          "DAWN",
          "DAY",
          "DUSK",
          "NIGHT"
        ],
        "stringBiomes": [
          "biomesoplenty:corrupted_sands",
          "minecraft:roofed_forest",
          "biomesoplenty:fungi_forest",
          "biomesoplenty:undergarden",
          "biomesoplenty:origin_island",
          "biomesoplenty:phantasmagoric_inferno",
          "minecraft:sky",
          "biomesoplenty:visceral_heap",
          "minecraft:hell"
        ]
      }
    },
    {
      "minLevel": 1,
      "maxLevel": 16,
      "typeID": "pokemon",
      "rarity": 2,
      "spec": {
        "name": "MissingNo",
        "form": 3
      },
      "stringLocationTypes": [
        "Land"
      ],
      "condition": {
        "times": [
          "DAWN",
          "DAY",
          "DUSK",
          "NIGHT"
        ],
        "stringBiomes": [
          "biomesoplenty:corrupted_sands",
          "minecraft:roofed_forest",
          "biomesoplenty:fungi_forest",
          "biomesoplenty:undergarden",
          "biomesoplenty:origin_island",
          "biomesoplenty:phantasmagoric_inferno",
          "minecraft:sky",
          "biomesoplenty:visceral_heap",
          "minecraft:hell"
        ]
      }
    },
    {
      "minLevel": 1,
      "maxLevel": 16,
      "typeID": "pokemon",
      "rarity": 2,
      "spec": {
        "name": "MissingNo",
        "form": 4
      },
      "stringLocationTypes": [
        "Land"
      ],
      "condition": {
        "times": [
          "DAWN",
          "DAY",
          "DUSK",
          "NIGHT"
        ],
        "stringBiomes": [
          "biomesoplenty:corrupted_sands",
          "minecraft:roofed_forest",
          "biomesoplenty:fungi_forest",
          "biomesoplenty:undergarden",
          "biomesoplenty:origin_island",
          "biomesoplenty:phantasmagoric_inferno",
          "minecraft:sky",
          "biomesoplenty:visceral_heap",
          "minecraft:hell"
        ]
      }
    },
    {
      "minLevel": 1,
      "maxLevel": 16,
      "typeID": "pokemon",
      "rarity": 0,
      "spec": {
        "name": "MissingNo",
        "form": 5
      },
      "stringLocationTypes": [
        "Land"
      ],
      "condition": {
        "times": [
          "DAWN"
        ],
        "stringBiomes": []
      }
    },
    {
      "minLevel": 1,
      "maxLevel": 16,
      "typeID": "pokemon",
      "rarity": 0,
      "spec": {
        "name": "MissingNo",
        "form": 6
      },
      "stringLocationTypes": [
        "Land"
      ],
      "condition": {
        "times": [
          "DAWN"
        ],
        "stringBiomes": []
      }
    },
    {
      "minLevel": 1,
      "maxLevel": 16,
      "typeID": "pokemon",
      "rarity": 0,
      "spec": {
        "name": "MissingNo",
        "form": 7
      },
      "stringLocationTypes": [
        "Land"
      ],
      "condition": {
        "times": [
          "DAWN"
        ],
        "stringBiomes": []
      }
    },
    {
      "minLevel": 1,
      "maxLevel": 16,
      "typeID": "pokemon",
      "rarity": 0,
      "spec": {
        "name": "MissingNo",
        "form": 8
      },
      "stringLocationTypes": [
        "Land"
      ],
      "condition": {
        "times": [
          "DAWN"
        ],
        "stringBiomes": []
      }
    },
    {
      "minLevel": 1,
      "maxLevel": 16,
      "typeID": "pokemon",
      "rarity": 0,
      "spec": {
        "name": "MissingNo",
        "form": 9
      },
      "stringLocationTypes": [
        "Land"
      ],
      "condition": {
        "times": [
          "DAWN"
        ],
        "stringBiomes": []
      }
    },
    {
      "minLevel": 1,
      "maxLevel": 16,
      "typeID": "pokemon",
      "rarity": 0,
      "spec": {
        "name": "MissingNo",
        "form": 10
      },
      "stringLocationTypes": [
        "Land"
      ],
      "condition": {
        "times": [
          "DAWN"
        ],
        "stringBiomes": []
      }
    },
    {
      "minLevel": 1,
      "maxLevel": 16,
      "typeID": "pokemon",
      "rarity": 0,
      "spec": {
        "name": "MissingNo",
        "form": 11
      },
      "stringLocationTypes": [
        "Land"
      ],
      "condition": {
        "times": [
          "DAWN"
        ],
        "stringBiomes": []
      }
    },
    {
      "minLevel": 1,
      "maxLevel": 16,
      "typeID": "pokemon",
      "rarity": 0,
      "spec": {
        "name": "MissingNo",
        "form": 12
      },
      "stringLocationTypes": [
        "Land"
      ],
      "condition": {
        "times": [
          "DAWN"
        ],
        "stringBiomes": []
      }
    },
    {
      "minLevel": 1,
      "maxLevel": 16,
      "typeID": "pokemon",
      "rarity": 0,
      "spec": {
        "name": "MissingNo",
        "form": 13
      },
      "stringLocationTypes": [
        "Land"
      ],
      "condition": {
        "times": [
          "DAWN"
        ],
        "stringBiomes": []
      }
    },
    {
      "minLevel": 1,
      "maxLevel": 16,
      "typeID": "pokemon",
      "rarity": 0,
      "spec": {
        "name": "MissingNo",
        "form": 14
      },
      "stringLocationTypes": [
        "Land"
      ],
      "condition": {
        "times": [
          "DAWN"
        ],
        "stringBiomes": []
      }
    },
    {
      "minLevel": 1,
      "maxLevel": 16,
      "typeID": "pokemon",
      "rarity": 0,
      "spec": {
        "name": "MissingNo",
        "form": 15
      },
      "stringLocationTypes": [
        "Land"
      ],
      "condition": {
        "times": [
          "DAWN"
        ],
        "stringBiomes": []
      }
    },
    {
      "minLevel": 1,
      "maxLevel": 16,
      "typeID": "pokemon",
      "rarity": 0,
      "spec": {
        "name": "MissingNo",
        "form": 16
      },
      "stringLocationTypes": [
        "Land"
      ],
      "condition": {
        "times": [
          "DAWN"
        ],
        "stringBiomes": []
      }
    },
    {
      "minLevel": 1,
      "maxLevel": 16,
      "typeID": "pokemon",
      "rarity": 0,
      "spec": {
        "name": "MissingNo",
        "form": 17
      },
      "stringLocationTypes": [
        "Land"
      ],
      "condition": {
        "times": [
          "DAWN"
        ],
        "stringBiomes": []
      }
    },
    {
      "minLevel": 1,
      "maxLevel": 16,
      "typeID": "pokemon",
      "rarity": 0,
      "spec": {
        "name": "MissingNo",
        "form": 18
      },
      "stringLocationTypes": [
        "Land"
      ],
      "condition": {
        "times": [
          "DAWN"
        ],
        "stringBiomes": []
      }
    },
    {
      "minLevel": 1,
      "maxLevel": 16,
      "typeID": "pokemon",
      "rarity": 0,
      "spec": {
        "name": "MissingNo",
        "form": 19
      },
      "stringLocationTypes": [
        "Land"
      ],
      "condition": {
        "times": [
          "DAWN"
        ],
        "stringBiomes": []
      }
    },
    {
      "minLevel": 1,
      "maxLevel": 16,
      "typeID": "pokemon",
      "rarity": 0,
      "spec": {
        "name": "MissingNo",
        "form": 20
      },
      "stringLocationTypes": [
        "Land"
      ],
      "condition": {
        "times": [
          "DAWN"
        ],
        "stringBiomes": []
      }
    },
    {
      "minLevel": 1,
      "maxLevel": 16,
      "typeID": "pokemon",
      "rarity": 0,
      "spec": {
        "name": "MissingNo",
        "form": 21
      },
      "stringLocationTypes": [
        "Land"
      ],
      "condition": {
        "times": [
          "DAWN"
        ],
        "stringBiomes": []
      }
    },
    {
      "minLevel": 1,
      "maxLevel": 16,
      "typeID": "pokemon",
      "rarity": 0,
      "spec": {
        "name": "MissingNo",
        "form": 22
      },
      "stringLocationTypes": [
        "Land"
      ],
      "condition": {
        "times": [
          "DAWN"
        ],
        "stringBiomes": []
      }
    },
    {
      "minLevel": 1,
      "maxLevel": 16,
      "typeID": "pokemon",
      "rarity": 0,
      "spec": {
        "name": "MissingNo",
        "form": 23
      },
      "stringLocationTypes": [
        "Land"
      ],
      "condition": {
        "times": [
          "DAWN"
        ],
        "stringBiomes": []
      }
    },
    {
      "minLevel": 1,
      "maxLevel": 16,
      "typeID": "pokemon",
      "rarity": 0,
      "spec": {
        "name": "MissingNo",
        "form": 24
      },
      "stringLocationTypes": [
        "Land"
      ],
      "condition": {
        "times": [
          "DAWN"
        ],
        "stringBiomes": []
      }
    },
    {
      "minLevel": 1,
      "maxLevel": 16,
      "typeID": "pokemon",
      "rarity": 0,
      "spec": {
        "name": "MissingNo",
        "form": 25
      },
      "stringLocationTypes": [
        "Land"
      ],
      "condition": {
        "times": [
          "DAWN"
        ],
        "stringBiomes": []
      }
    },
    {
      "minLevel": 1,
      "maxLevel": 16,
      "typeID": "pokemon",
      "rarity": 0,
      "spec": {
        "name": "MissingNo",
        "form": 26
      },
      "stringLocationTypes": [
        "Land"
      ],
      "condition": {
        "times": [
          "DAWN"
        ],
        "stringBiomes": []
      }
    },
    {
      "minLevel": 1,
      "maxLevel": 16,
      "typeID": "pokemon",
      "rarity": 0,
      "spec": {
        "name": "MissingNo",
        "form": 27
      },
      "stringLocationTypes": [
        "Land"
      ],
      "condition": {
        "times": [
          "DAWN"
        ],
        "stringBiomes": []
      }
    },
    {
      "minLevel": 1,
      "maxLevel": 16,
      "typeID": "pokemon",
      "rarity": 0,
      "spec": {
        "name": "MissingNo",
        "form": 28
      },
      "stringLocationTypes": [
        "Land"
      ],
      "condition": {
        "times": [
          "DAWN"
        ],
        "stringBiomes": []
      }
    },
    {
      "minLevel": 1,
      "maxLevel": 16,
      "typeID": "pokemon",
      "rarity": 0,
      "spec": {
        "name": "MissingNo",
        "form": 29
      },
      "stringLocationTypes": [
        "Land"
      ],
      "condition": {
        "times": [
          "DAWN"
        ],
        "stringBiomes": []
      }
    },
    {
      "minLevel": 1,
      "maxLevel": 16,
      "typeID": "pokemon",
      "rarity": 0,
      "spec": {
        "name": "MissingNo",
        "form": 30
      },
      "stringLocationTypes": [
        "Land"
      ],
      "condition": {
        "times": [
          "DAWN"
        ],
        "stringBiomes": []
      }
    },
    {
      "minLevel": 1,
      "maxLevel": 16,
      "typeID": "pokemon",
      "rarity": 0,
      "spec": {
        "name": "MissingNo",
        "form": 31
      },
      "stringLocationTypes": [
        "Land"
      ],
      "condition": {
        "times": [
          "DAWN"
        ],
        "stringBiomes": []
      }
    },
    {
      "minLevel": 1,
      "maxLevel": 16,
      "typeID": "pokemon",
      "rarity": 0,
      "spec": {
        "name": "MissingNo",
        "form": 32
      },
      "stringLocationTypes": [
        "Land"
      ],
      "condition": {
        "times": [
          "DAWN"
        ],
        "stringBiomes": []
      }
    },
    {
      "minLevel": 1,
      "maxLevel": 16,
      "typeID": "pokemon",
      "rarity": 0,
      "spec": {
        "name": "MissingNo",
        "form": 33
      },
      "stringLocationTypes": [
        "Land"
      ],
      "condition": {
        "times": [
          "DAWN"
        ],
        "stringBiomes": []
      }
    },
    {
      "minLevel": 1,
      "maxLevel": 16,
      "typeID": "pokemon",
      "rarity": 0,
      "spec": {
        "name": "MissingNo",
        "form": 34
      },
      "stringLocationTypes": [
        "Land"
      ],
      "condition": {
        "times": [
          "DAWN"
        ],
        "stringBiomes": []
      }
    },
    {
      "minLevel": 1,
      "maxLevel": 16,
      "typeID": "pokemon",
      "rarity": 0,
      "spec": {
        "name": "MissingNo",
        "form": 35
      },
      "stringLocationTypes": [
        "Land"
      ],
      "condition": {
        "times": [
          "DAWN"
        ],
        "stringBiomes": []
      }
    },
    {
      "minLevel": 1,
      "maxLevel": 16,
      "typeID": "pokemon",
      "rarity": 0,
      "spec": {
        "name": "MissingNo",
        "form": 36
      },
      "stringLocationTypes": [
        "Land"
      ],
      "condition": {
        "times": [
          "DAWN"
        ],
        "stringBiomes": []
      }
    },
    {
      "minLevel": 1,
      "maxLevel": 16,
      "typeID": "pokemon",
      "rarity": 0,
      "spec": {
        "name": "MissingNo",
        "form": 37
      },
      "stringLocationTypes": [
        "Land"
      ],
      "condition": {
        "times": [
          "DAWN"
        ],
        "stringBiomes": []
      }
    },
    {
      "minLevel": 1,
      "maxLevel": 16,
      "typeID": "pokemon",
      "rarity": 0,
      "spec": {
        "name": "MissingNo",
        "form": 38
      },
      "stringLocationTypes": [
        "Land"
      ],
      "condition": {
        "times": [
          "DAWN"
        ],
        "stringBiomes": []
      }
    },
    {
      "minLevel": 1,
      "maxLevel": 16,
      "typeID": "pokemon",
      "rarity": 0,
      "spec": {
        "name": "MissingNo",
        "form": 39
      },
      "stringLocationTypes": [
        "Land"
      ],
      "condition": {
        "times": [
          "DAWN"
        ],
        "stringBiomes": []
      }
    },
    {
      "minLevel": 1,
      "maxLevel": 16,
      "typeID": "pokemon",
      "rarity": 0,
      "spec": {
        "name": "MissingNo",
        "form": 40
      },
      "stringLocationTypes": [
        "Land"
      ],
      "condition": {
        "times": [
          "DAWN"
        ],
        "stringBiomes": []
      }
    },
    {
      "minLevel": 1,
      "maxLevel": 16,
      "typeID": "pokemon",
      "rarity": 0,
      "spec": {
        "name": "MissingNo",
        "form": 41
      },
      "stringLocationTypes": [
        "Land"
      ],
      "condition": {
        "times": [
          "DAWN"
        ],
        "stringBiomes": []
      }
    },
    {
      "minLevel": 1,
      "maxLevel": 16,
      "typeID": "pokemon",
      "rarity": 0,
      "spec": {
        "name": "MissingNo",
        "form": 42
      },
      "stringLocationTypes": [
        "Land"
      ],
      "condition": {
        "times": [
          "DAWN"
        ],
        "stringBiomes": []
      }
    },
    {
      "minLevel": 1,
      "maxLevel": 16,
      "typeID": "pokemon",
      "rarity": 0,
      "spec": {
        "name": "MissingNo",
        "form": 43
      },
      "stringLocationTypes": [
        "Land"
      ],
      "condition": {
        "times": [
          "DAWN"
        ],
        "stringBiomes": []
      }
    },
    {
      "minLevel": 1,
      "maxLevel": 16,
      "typeID": "pokemon",
      "rarity": 0,
      "spec": {
        "name": "MissingNo",
        "form": 44
      },
      "stringLocationTypes": [
        "Land"
      ],
      "condition": {
        "times": [
          "DAWN"
        ],
        "stringBiomes": []
      }
    },
    {
      "minLevel": 1,
      "maxLevel": 16,
      "typeID": "pokemon",
      "rarity": 0,
      "spec": {
        "name": "MissingNo",
        "form": 45
      },
      "stringLocationTypes": [
        "Land"
      ],
      "condition": {
        "times": [
          "DAWN"
        ],
        "stringBiomes": []
      }
    },
    {
      "minLevel": 1,
      "maxLevel": 16,
      "typeID": "pokemon",
      "rarity": 0,
      "spec": {
        "name": "MissingNo",
        "form": 46
      },
      "stringLocationTypes": [
        "Land"
      ],
      "condition": {
        "times": [
          "DAWN"
        ],
        "stringBiomes": []
      }
    },
    {
      "minLevel": 1,
      "maxLevel": 16,
      "typeID": "pokemon",
      "rarity": 0,
      "spec": {
        "name": "MissingNo",
        "form": 47
      },
      "stringLocationTypes": [
        "Land"
      ],
      "condition": {
        "times": [
          "DAWN"
        ],
        "stringBiomes": []
      }
    },
    {
      "minLevel": 1,
      "maxLevel": 16,
      "typeID": "pokemon",
      "rarity": 0,
      "spec": {
        "name": "MissingNo",
        "form": 48
      },
      "stringLocationTypes": [
        "Land"
      ],
      "condition": {
        "times": [
          "DAWN"
        ],
        "stringBiomes": []
      }
    },
    {
      "minLevel": 1,
      "maxLevel": 16,
      "typeID": "pokemon",
      "rarity": 0,
      "spec": {
        "name": "MissingNo",
        "form": 49
      },
      "stringLocationTypes": [
        "Land"
      ],
      "condition": {
        "times": [
          "DAWN"
        ],
        "stringBiomes": []
      }
    },
    {
      "minLevel": 1,
      "maxLevel": 16,
      "typeID": "pokemon",
      "rarity": 0,
      "spec": {
        "name": "MissingNo",
        "form": 50
      },
      "stringLocationTypes": [
        "Land"
      ],
      "condition": {
        "times": [
          "DAWN"
        ],
        "stringBiomes": []
      }
    },
    {
      "minLevel": 1,
      "maxLevel": 16,
      "typeID": "pokemon",
      "rarity": 0,
      "spec": {
        "name": "MissingNo",
        "form": 51
      },
      "stringLocationTypes": [
        "Land"
      ],
      "condition": {
        "times": [
          "DAWN"
        ],
        "stringBiomes": []
      }
    },
    {
      "minLevel": 1,
      "maxLevel": 16,
      "typeID": "pokemon",
      "rarity": 0,
      "spec": {
        "name": "MissingNo",
        "form": 52
      },
      "stringLocationTypes": [
        "Land"
      ],
      "condition": {
        "times": [
          "DAWN"
        ],
        "stringBiomes": []
      }
    },
    {
      "minLevel": 1,
      "maxLevel": 16,
      "typeID": "pokemon",
      "rarity": 0,
      "spec": {
        "name": "MissingNo",
        "form": 53
      },
      "stringLocationTypes": [
        "Land"
      ],
      "condition": {
        "times": [
          "DAWN"
        ],
        "stringBiomes": []
      }
    },
    {
      "minLevel": 1,
      "maxLevel": 16,
      "typeID": "pokemon",
      "rarity": 0,
      "spec": {
        "name": "MissingNo",
        "form": 54
      },
      "stringLocationTypes": [
        "Land"
      ],
      "condition": {
        "times": [
          "DAWN"
        ],
        "stringBiomes": []
      }
    }
  ]
}