{
  "id": "Mudsdale",
  "spawnInfos": [
    {
      "minLevel": 30,
      "maxLevel": 50,
      "typeID": "pokemon",
      "rarity": 10,
      "spec": {
        "name": "Mudsdale",
        "form": 0
      },
      "stringLocationTypes": [
        "Land"
      ],
      "condition": {
        "times": [
          "DAWN",
          "DAY",
          "DUSK"
        ],
        "stringBiomes": [
          "minecraft:desert_hills",
          "biomesoplenty:volcanic_island",
          "minecraft:mesa_rock",
          "minecraft:mesa_clear_rock",
          "minecraft:mutated_desert",
          "minecraft:mutated_mesa",
          "minecraft:mutated_mesa_clear_rock",
          "biomesoplenty:xeric_shrubland",
          "pixelmon:ultraruin"
        ]
      }
    }
  ]
}