{
  "id": "Nosepass",
  "spawnInfos": [
    {
      "minLevel": 10,
      "maxLevel": 50,
      "typeID": "pokemon",
      "rarity": 100,
      "spec": {
        "name": "Nosepass",
        "form": 0
      },
      "stringLocationTypes": [
        "Land",
        "Underground"
      ],
      "condition": {
        "times": [
          "DAWN",
          "DAY",
          "DUSK",
          "NIGHT"
        ],
        "stringBiomes": [
          "biomesoplenty:mountain_foothills",
          "biomesoplenty:overgrown_cliffs",
          "minecraft:extreme_hills",
          "biomesoplenty:highland",
          "minecraft:mutated_taiga",
          "minecraft:mutated_savanna",
          "minecraft:mutated_savanna_rock",
          "minecraft:mutated_taiga_cold",
          "biomesoplenty:mystic_grove",
          "minecraft:mushroom_island",
          "biomesoplenty:origin_island",
          "biomesoplenty:flower_island",
          "pixelmon:ultraswamp"
        ]
      }
    }
  ]
}