{
  "id": "Numel",
  "spawnInfos": [
    {
      "minLevel": 5,
      "maxLevel": 33,
      "typeID": "pokemon",
      "rarity": 200,
      "spec": {
        "name": "Numel",
        "form": 0
      },
      "stringLocationTypes": [
        "Land",
        "Underground"
      ],
      "condition": {
        "times": [
          "DAWN",
          "DAY",
          "DUSK",
          "NIGHT"
        ],
        "stringBiomes": [
          "minecraft:desert",
          "minecraft:mesa",
          "minecraft:desert_hills",
          "minecraft:mesa_rock",
          "biomesoplenty:volcanic_island",
          "minecraft:mutated_mesa_rock",
          "biomesoplenty:brushland",
          "biomesoplenty:outback",
          "minecraft:mutated_desert",
          "biomesoplenty:phantasmagoric_inferno",
          "biomesoplenty:corrupted_sands",
          "biomesoplenty:fungi_forest",
          "biomesoplenty:visceral_heap",
          "minecraft:hell",
          "minecraft:mesa_clear_rock",
          "minecraft:mutated_extreme_hills",
          "minecraft:mutated_extreme_hills_with_trees"
        ]
      }
    }
  ]
}