{
  "id": "Pancham",
  "spawnInfos": [
    {
      "minLevel": 10,
      "maxLevel": 30,
      "typeID": "pokemon",
      "rarity": 100,
      "spec": {
        "name": "Pancham",
        "form": 0
      },
      "stringLocationTypes": [
        "Land"
      ],
      "condition": {
        "times": [
          "DAWN",
          "DAY",
          "DUSK",
          "NIGHT"
        ],
        "stringBiomes": [
          "minecraft:jungle",
          "biomesoplenty:rainforest",
          "biomesoplenty:eucalyptus_forest",
          "biomesoplenty:bamboo_forest",
          "biomesoplenty:sacred_springs",
          "biomesoplenty:tropical_rainforest",
          "minecraft:mutated_jungle_edge",
          "minecraft:jungle_hills",
          "minecraft:mutated_jungle",
          "biomesoplenty:tropical_island"
        ]
      }
    }
  ]
}