{
  "id": "Politoed",
  "spawnInfos": [
    {
      "minLevel": 30,
      "maxLevel": 40,
      "typeID": "pokemon",
      "rarity": 10,
      "spec": {
        "name": "Politoed",
        "form": 0
      },
      "stringLocationTypes": [
        "Land"
      ],
      "condition": {
        "times": [
          "DAWN",
          "DAY",
          "DUSK",
          "NIGHT"
        ],
        "stringBiomes": [
          "minecraft:beaches",
          "biomesoplenty:origin_beach",
          "minecraft:river",
          "biomesoplenty:bayou",
          "minecraft:cold_beach",
          "biomesoplenty:gravel_beach"
        ]
      }
    }
  ]
}