{
  "id": "Pyroar",
  "spawnInfos": [
    {
      "minLevel": 35,
      "maxLevel": 60,
      "typeID": "pokemon",
      "rarity": 25,
      "spec": {
        "name": "Pyroar",
        "form": 0
      },
      "stringLocationTypes": [
        "Land"
      ],
      "condition": {
        "times": [
          "DAWN",
          "DAY",
          "DUSK",
          "NIGHT"
        ],
        "stringBiomes": [
          "minecraft:savanna",
          "biomesoplenty:brushland",
          "biomesoplenty:shrubland",
          "minecraft:savanna_rock",
          "biomesoplenty:lush_desert",
          "biomesoplenty:outback",
          "biomesoplenty:xeric_shrubland",
          "biomesoplenty:oasis",
          "biomesoplenty:phantasmagoric_inferno"
        ]
      }
    }
  ]
}