{
  "id": "Quilava",
  "spawnInfos": [
    {
      "minLevel": 14,
      "maxLevel": 36,
      "typeID": "pokemon",
      "rarity": 10,
      "spec": {
        "name": "Quilava",
        "form": 0
      },
      "stringLocationTypes": [
        "Land"
      ],
      "condition": {
        "times": [
          "DAWN",
          "DAY",
          "DUSK"
        ],
        "stringBiomes": [
          "minecraft:plains",
          "biomesoplenty:grassland",
          "biomesoplenty:meadow",
          "minecraft:savanna",
          "biomesoplenty:lush_desert",
          "biomesoplenty:oasis"
        ]
      }
    }
  ]
}