{
  "id": "Ralts",
  "spawnInfos": [
    {
      "minLevel": 5,
      "maxLevel": 19,
      "typeID": "pokemon",
      "rarity": 100,
      "spec": {
        "name": "Ralts",
        "form": 0
      },
      "stringLocationTypes": [
        "Land"
      ],
      "condition": {
        "times": [
          "DAWN",
          "DUSK"
        ],
        "stringBiomes": [
          "minecraft:roofed_forest",
          "biomesoplenty:mystic_grove",
          "minecraft:mushroom_island",
          "minecraft:mushroom_island_shore",
          "biomesoplenty:cherry_blossom_grove",
          "biomesoplenty:origin_island",
          "biomesoplenty:flower_island",
          "minecraft:mutated_jungle_edge",
          "minecraft:mutated_roofed_forest",
          "minecraft:mutated_forest",
          "pixelmon:ultraburst"
        ]
      }
    }
  ]
}