{
  "id": "Rhyhorn",
  "spawnInfos": [
    {
      "minLevel": 20,
      "maxLevel": 34,
      "typeID": "pokemon",
      "rarity": 100,
      "spec": {
        "name": "Rhyhorn",
        "form": 0
      },
      "stringLocationTypes": [
        "Land",
        "Underground"
      ],
      "condition": {
        "times": [
          "DAWN",
          "DAY"
        ],
        "stringBiomes": [
          "biomesoplenty:mountain_foothills",
          "biomesoplenty:crag",
          "biomesoplenty:overgrown_cliffs",
          "minecraft:extreme_hills",
          "biomesoplenty:highland",
          "minecraft:mutated_taiga",
          "minecraft:mutated_savanna_rock",
          "minecraft:mutated_mesa",
          "minecraft:mutated_taiga_cold",
          "minecraft:desert",
          "minecraft:redwood_taiga_hills",
          "minecraft:mutated_extreme_hills",
          "minecraft:mutated_extreme_hills_with_trees"
        ]
      }
    }
  ]
}