{
  "id": "Samurott",
  "spawnInfos": [
    {
      "minLevel": 36,
      "maxLevel": 50,
      "typeID": "pokemon",
      "rarity": 2,
      "spec": {
        "name": "Samurott",
        "form": 0
      },
      "stringLocationTypes": [
        "Water",
        "Land"
      ],
      "condition": {
        "times": [
          "DAWN",
          "DAY",
          "DUSK",
          "NIGHT"
        ],
        "stringBiomes": [
          "biomesoplenty:snowy_forest",
          "minecraft:beaches",
          "minecraft:stone_beach",
          "minecraft:cold_beach",
          "biomesoplenty:gravel_beach",
          "biomesoplenty:white_beach"
        ]
      }
    },
    {
      "minLevel": 36,
      "maxLevel": 50,
      "typeID": "pokemon",
      "rarity": 2,
      "spec": {
        "name": "Samurott",
        "form": 11
      },
      "stringLocationTypes": [
        "Water",
        "Land"
      ],
      "condition": {
        "times": [
          "DUSK",
          "NIGHT"
        ],
        "stringBiomes": [
          "biomesoplenty:snowy_forest",
          "minecraft:beaches",
          "minecraft:stone_beach",
          "minecraft:cold_beach",
          "biomesoplenty:gravel_beach",
          "biomesoplenty:white_beach"
        ]
      }
    }
  ]
}