{
  "id": "Sandslash",
  "spawnInfos": [
    {
      "minLevel": 22,
      "maxLevel": 50,
      "typeID": "pokemon",
      "rarity": 50,
      "spec": {
        "name": "Sandslash",
        "form": 0
      },
      "stringLocationTypes": [
        "Land",
        "Underground"
      ],
      "condition": {
        "times": [
          "DAWN",
          "DAY"
        ],
        "stringBiomes": [
          "minecraft:desert",
          "biomesoplenty:lush_desert",
          "minecraft:mesa",
          "biomesoplenty:brushland",
          "biomesoplenty:outback",
          "biomesoplenty:volcanic_island",
          "minecraft:desert_hills",
          "biomesoplenty:steppe",
          "minecraft:mesa_rock",
          "minecraft:mesa_clear_rock",
          "biomesoplenty:xeric_shrubland",
          "biomesoplenty:oasis",
          "minecraft:mutated_desert",
          "minecraft:mutated_mesa_rock",
          "minecraft:mutated_mesa",
          "minecraft:mutated_extreme_hills",
          "minecraft:mutated_extreme_hills_with_trees"
        ]
      }
    },
    {
      "minLevel": 22,
      "maxLevel": 50,
      "typeID": "pokemon",
      "rarity": 25,
      "spec": {
        "name": "Sandslash",
        "form": 3
      },
      "stringLocationTypes": [
        "Land",
        "Underground"
      ],
      "condition": {
        "times": [
          "DAWN",
          "DAY",
          "DUSK",
          "NIGHT"
        ],
        "stringBiomes": [
          "biomesoplenty:glacier",
          "biomesoplenty:cold_desert",
          "biomesoplenty:alps",
          "minecraft:taiga_cold",
          "minecraft:ice_mountains",
          "minecraft:mutated_taiga_cold",
          "minecraft:mutated_ice_flats",
          "biomesoplenty:snowy_coniferous_forest",
          "minecraft:cold_beach",
          "minecraft:frozen_river",
          "biomesoplenty:snowy_tundra"
        ]
      }
    }
  ]
}