{
  "id": "Sentret",
  "spawnInfos": [
    {
      "minLevel": 5,
      "maxLevel": 14,
      "typeID": "pokemon",
      "rarity": 200,
      "spec": {
        "name": "Sentret",
        "form": 0
      },
      "stringLocationTypes": [
        "Land"
      ],
      "condition": {
        "times": [
          "DAWN",
          "DAY"
        ],
        "stringBiomes": [
          "minecraft:plains",
          "minecraft:mutated_plains",
          "biomesoplenty:flower_field",
          "biomesoplenty:grassland",
          "biomesoplenty:prairie",
          "biomesoplenty:pasture",
          "biomesoplenty:lavender_fields",
          "minecraft:savanna",
          "biomesoplenty:woodland",
          "biomesoplenty:orchard",
          "biomesoplenty:grove",
          "biomesoplenty:lush_swamp"
        ]
      }
    }
  ]
}