{
  "id": "Shiftry",
  "spawnInfos": [
    {
      "minLevel": 20,
      "maxLevel": 65,
      "typeID": "pokemon",
      "rarity": 2,
      "spec": {
        "name": "Shiftry",
        "form": 0
      },
      "stringLocationTypes": [
        "Land"
      ],
      "condition": {
        "times": [
          "DUSK",
          "NIGHT"
        ],
        "stringBiomes": [
          "minecraft:jungle",
          "biomesoplenty:rainforest",
          "biomesoplenty:eucalyptus_forest",
          "biomesoplenty:sacred_springs",
          "biomesoplenty:tropical_rainforest",
          "minecraft:mutated_jungle_edge",
          "minecraft:jungle_hills",
          "minecraft:mutated_jungle",
          "biomesoplenty:mystic_grove",
          "biomesoplenty:ominous_woods",
          "biomesoplenty:tropical_island",
          "pixelmon:ultraforest"
        ]
      }
    }
  ]
}