{
  "id": "Skiploom",
  "spawnInfos": [
    {
      "minLevel": 18,
      "maxLevel": 26,
      "typeID": "pokemon",
      "rarity": 100,
      "spec": {
        "name": "Skiploom",
        "form": 0
      },
      "stringLocationTypes": [
        "Land"
      ],
      "condition": {
        "times": [
          "DAWN",
          "DAY"
        ],
        "stringBiomes": [
          "minecraft:plains",
          "minecraft:mutated_plains",
          "biomesoplenty:flower_field",
          "biomesoplenty:grassland",
          "biomesoplenty:pasture",
          "biomesoplenty:lavender_fields",
          "biomesoplenty:orchard",
          "biomesoplenty:shrubland",
          "minecraft:savanna_rock",
          "minecraft:mutated_forest",
          "biomesoplenty:tropical_island"
        ]
      }
    }
  ]
}