{
  "id": "Spewpa",
  "spawnInfos": [
    {
      "minLevel": 9,
      "maxLevel": 24,
      "typeID": "pokemon",
      "rarity": 50,
      "spec": {
        "name": "Spewpa",
        "form": 0
      },
      "stringLocationTypes": [
        "Land"
      ],
      "condition": {
        "times": [
          "DAWN",
          "DAY",
          "DUSK",
          "NIGHT"
        ],
        "stringBiomes": [
          "minecraft:forest",
          "minecraft:birch_forest",
          "biomesoplenty:woodland",
          "biomesoplenty:fen",
          "biomesoplenty:grove",
          "biomesoplenty:land_of_lakes",
          "biomesoplenty:boreal_forest",
          "biomesoplenty:maple_woods",
          "biomesoplenty:orchard",
          "biomesoplenty:redwood_forest",
          "biomesoplenty:seasonal_forest",
          "biomesoplenty:temperate_rainforest",
          "minecraft:forest_hills",
          "minecraft:birch_forest_hills",
          "minecraft:mutated_birch_forest",
          "minecraft:mutated_birch_forest_hills",
          "biomesoplenty:shield",
          "biomesoplenty:coniferous_forest",
          "biomesoplenty:snowy_forest",
          "biomesoplenty:snowy_coniferous_forest",
          "minecraft:taiga",
          "minecraft:taiga_hills",
          "minecraft:taiga_cold_hills",
          "minecraft:redwood_taiga",
          "minecraft:redwood_taiga_hills",
          "minecraft:mutated_taiga_cold",
          "minecraft:mutated_redwood_taiga",
          "minecraft:mutated_redwood_taiga_hills",
          "minecraft:jungle",
          "biomesoplenty:eucalyptus_forest",
          "biomesoplenty:bamboo_forest",
          "biomesoplenty:sacred_springs",
          "biomesoplenty:tropical_rainforest",
          "minecraft:mutated_jungle_edge",
          "minecraft:jungle_hills",
          "minecraft:mutated_jungle",
          "pixelmon:ultrajungle"
        ]
      }
    }
  ]
}