{
  "id": "Spiritomb",
  "spawnInfos": [
    {
      "minLevel": 55,
      "maxLevel": 60,
      "typeID": "pokemon",
      "rarity": 2,
      "spec": {
        "name": "Spiritomb",
        "form": 0
      },
      "stringLocationTypes": [
        "Land"
      ],
      "condition": {
        "times": [
          "DUSK",
          "NIGHT"
        ],
        "stringBiomes": [
          "biomesoplenty:ominous_woods",
          "biomesoplenty:corrupted_sands",
          "biomesoplenty:dead_swamp",
          "minecraft:roofed_forest",
          "minecraft:hell",
          "biomesoplenty:dead_forest",
          "biomesoplenty:visceral_heap",
          "biomesoplenty:tropical_island",
          "pixelmon:ultraburst"
        ]
      }
    }
  ]
}