{
  "id": "Staravia",
  "spawnInfos": [
    {
      "minLevel": 15,
      "maxLevel": 33,
      "typeID": "pokemon",
      "rarity": 50,
      "spec": {
        "name": "Staravia",
        "form": 0
      },
      "stringLocationTypes": [
        "Air"
      ],
      "condition": {
        "times": [
          "DAWN",
          "DAY",
          "DUSK",
          "NIGHT"
        ],
        "stringBiomes": [
          "biomesoplenty:redwood_forest",
          "biomesoplenty:seasonal_forest",
          "biomesoplenty:temperate_rainforest",
          "minecraft:forest_hills",
          "minecraft:mutated_birch_forest",
          "minecraft:mutated_birch_forest_hills",
          "minecraft:savanna",
          "biomesoplenty:chaparral",
          "biomesoplenty:orchard",
          "biomesoplenty:shrubland",
          "minecraft:savanna_rock",
          "biomesoplenty:shield"
        ]
      }
    }
  ]
}