{
  "id": "Stonjourner",
  "spawnInfos": [
    {
      "minLevel": 25,
      "maxLevel": 64,
      "typeID": "pokemon",
      "rarity": 2,
      "spec": {
        "name": "Stonjourner",
        "form": 0
      },
      "stringLocationTypes": [
        "Land",
        "Underground"
      ],
      "condition": {
        "times": [
          "DAWN",
          "DUSK"
        ],
        "stringBiomes": [
          "biomesoplenty:mountain",
          "biomesoplenty:crag",
          "biomesoplenty:highland",
          "minecraft:mutated_savanna",
          "minecraft:mutated_savanna_rock",
          "minecraft:mutated_mesa",
          "minecraft:savanna",
          "minecraft:mutated_extreme_hills"
        ]
      }
    }
  ]
}