{
  "id": "Sunkern",
  "spawnInfos": [
    {
      "minLevel": 2,
      "maxLevel": 50,
      "typeID": "pokemon",
      "rarity": 200,
      "spec": {
        "name": "Sunkern",
        "form": 0
      },
      "stringLocationTypes": [
        "Land"
      ],
      "condition": {
        "times": [
          "DAWN",
          "DAY"
        ],
        "stringBiomes": [
          "minecraft:mutated_plains",
          "biomesoplenty:flower_field",
          "biomesoplenty:prairie",
          "biomesoplenty:lavender_fields",
          "minecraft:savanna",
          "minecraft:savanna_rock",
          "biomesoplenty:chaparral"
        ]
      }
    }
  ]
}