{
  "id": "Surskit",
  "spawnInfos": [
    {
      "minLevel": 5,
      "maxLevel": 20,
      "typeID": "pokemon",
      "rarity": 100,
      "spec": {
        "name": "Surskit",
        "form": 0
      },
      "stringLocationTypes": [
        "Water"
      ],
      "condition": {
        "times": [
          "DAWN",
          "DAY",
          "DUSK"
        ],
        "stringBiomes": [
          "biomesoplenty:moor",
          "biomesoplenty:wetland",
          "biomesoplenty:marsh",
          "biomesoplenty:lush_swamp",
          "minecraft:river",
          "biomesoplenty:sacred_springs",
          "minecraft:beaches"
        ]
      }
    }
  ]
}