{
  "id": "Taillow",
  "spawnInfos": [
    {
      "minLevel": 5,
      "maxLevel": 20,
      "typeID": "pokemon",
      "rarity": 200,
      "spec": {
        "name": "Taillow",
        "form": 0
      },
      "stringLocationTypes": [
        "Land"
      ],
      "condition": {
        "times": [
          "DAWN",
          "DAY",
          "DUSK",
          "NIGHT"
        ],
        "stringBiomes": [
          "minecraft:plains",
          "minecraft:mutated_plains",
          "biomesoplenty:grassland",
          "minecraft:forest",
          "minecraft:birch_forest",
          "biomesoplenty:woodland",
          "biomesoplenty:fen",
          "biomesoplenty:lush_desert",
          "biomesoplenty:oasis",
          "minecraft:savanna",
          "minecraft:savanna_rock",
          "biomesoplenty:lush_swamp",
          "minecraft:mutated_extreme_hills",
          "minecraft:mutated_extreme_hills_with_trees"
        ]
      }
    }
  ]
}