{
  "id": "Thwackey",
  "spawnInfos": [
    {
      "minLevel": 16,
      "maxLevel": 34,
      "typeID": "pokemon",
      "rarity": 10,
      "spec": {
        "name": "Thwackey",
        "form": 0
      },
      "stringLocationTypes": [
        "Land"
      ],
      "condition": {
        "times": [
          "DAWN",
          "DAY",
          "DUSK"
        ],
        "stringBiomes": [
          "minecraft:jungle",
          "biomesoplenty:rainforest",
          "biomesoplenty:eucalyptus_forest",
          "biomesoplenty:bamboo_forest",
          "biomesoplenty:tropical_rainforest",
          "minecraft:jungle_hills"
        ]
      }
    }
  ]
}