{
  "id": "Timburr",
  "spawnInfos": [
    {
      "minLevel": 5,
      "maxLevel": 25,
      "typeID": "pokemon",
      "rarity": 100,
      "spec": {
        "name": "Timburr",
        "form": 0
      },
      "stringLocationTypes": [
        "Land",
        "Underground"
      ],
      "condition": {
        "times": [
          "DAWN",
          "DAY",
          "DUSK",
          "NIGHT"
        ],
        "stringBiomes": [
          "biomesoplenty:mountain",
          "biomesoplenty:mountain_foothills",
          "biomesoplenty:crag",
          "biomesoplenty:overgrown_cliffs",
          "minecraft:extreme_hills",
          "biomesoplenty:highland",
          "minecraft:extreme_hills_with_trees",
          "minecraft:mutated_taiga",
          "minecraft:mutated_savanna",
          "minecraft:mutated_savanna_rock"
        ]
      }
    }
  ]
}