{
  "id": "Turtonator",
  "spawnInfos": [
    {
      "minLevel": 35,
      "maxLevel": 55,
      "typeID": "pokemon",
      "rarity": 10,
      "spec": {
        "name": "Turtonator",
        "form": 0
      },
      "stringLocationTypes": [
        "Land"
      ],
      "condition": {
        "times": [
          "DAWN",
          "DAY",
          "DUSK",
          "NIGHT"
        ],
        "stringBiomes": [
          "biomesoplenty:brushland",
          "biomesoplenty:outback",
          "biomesoplenty:volcanic_island",
          "minecraft:desert",
          "biomesoplenty:lush_desert",
          "minecraft:mesa",
          "minecraft:mesa_rock",
          "minecraft:mesa_clear_rock",
          "pixelmon:ultraruin"
        ]
      }
    }
  ]
}