{
  "id": "Unown",
  "spawnInfos": [
    {
      "minLevel": 5,
      "maxLevel": 50,
      "typeID": "pokemon",
      "rarity": 10,
      "spec": {
        "name": "Unown"
      },
      "stringLocationTypes": [
        "Land",
        "Underground"
      ],
      "condition": {
        "times": [
          "DAWN",
          "DUSK",
          "NIGHT"
        ],
        "stringBiomes": [
          "biomesoplenty:quagmire",
          "minecraft:roofed_forest",
          "biomesoplenty:ominous_woods",
          "biomesoplenty:dead_forest",
          "biomesoplenty:dead_swamp",
          "biomesoplenty:wasteland",
          "biomesoplenty:steppe",
          "biomesoplenty:tundra",
          "minecraft:mutated_roofed_forest",
          "biomesoplenty:mystic_grove",
          "minecraft:mushroom_island",
          "biomesoplenty:cherry_blossom_grove",
          "biomesoplenty:origin_island",
          "minecraft:sky",
          "biomesoplenty:fungi_forest",
          "biomesoplenty:visceral_heap",
          "minecraft:hell",
          "pixelmon:ultradesert",
          "pixelmon:ultraforest",
          "pixelmon:ultraburst"
        ]
      }
    }
  ]
}