{
  "id": "Ursaring",
  "spawnInfos": [
    {
      "minLevel": 30,
      "maxLevel": 60,
      "typeID": "pokemon",
      "rarity": 25,
      "spec": {
        "name": "Ursaring",
        "form": 0
      },
      "stringLocationTypes": [
        "Land"
      ],
      "condition": {
        "times": [
          "DAWN",
          "DAY"
        ],
        "stringBiomes": [
          "minecraft:taiga_hills",
          "minecraft:taiga_cold_hills",
          "minecraft:redwood_taiga",
          "minecraft:redwood_taiga_hills",
          "minecraft:mutated_redwood_taiga",
          "minecraft:mutated_redwood_taiga_hills",
          "minecraft:taiga",
          "minecraft:redwood_taiga_hills"
        ]
      }
    }
  ]
}