{
  "id": "Vigoroth",
  "spawnInfos": [
    {
      "minLevel": 25,
      "maxLevel": 35,
      "typeID": "pokemon",
      "rarity": 25,
      "spec": {
        "name": "Vigoroth",
        "form": 0
      },
      "stringLocationTypes": [
        "Land"
      ],
      "condition": {
        "times": [
          "DAWN",
          "DAY",
          "DUSK",
          "NIGHT"
        ],
        "stringBiomes": [
          "minecraft:jungle",
          "minecraft:mutated_jungle_edge",
          "minecraft:jungle_hills",
          "minecraft:mutated_jungle",
          "biomesoplenty:tropical_island"
        ]
      }
    }
  ]
}