{
  "id": "Vikavolt",
  "spawnInfos": [
    {
      "minLevel": 40,
      "maxLevel": 64,
      "typeID": "pokemon",
      "rarity": 25,
      "spec": {
        "name": "Vikavolt",
        "form": 0
      },
      "stringLocationTypes": [
        "Land"
      ],
      "condition": {
        "times": [
          "DAWN",
          "DAY"
        ],
        "stringBiomes": [
          "biomesoplenty:woodland",
          "biomesoplenty:grove",
          "biomesoplenty:seasonal_forest",
          "biomesoplenty:temperate_rainforest",
          "minecraft:forest_hills",
          "minecraft:jungle",
          "biomesoplenty:rainforest",
          "biomesoplenty:sacred_springs",
          "minecraft:mutated_jungle_edge",
          "minecraft:jungle_hills",
          "pixelmon:ultraplant"
        ]
      }
    }
  ]
}