{
  "id": "Vulpix",
  "spawnInfos": [
    {
      "minLevel": 10,
      "maxLevel": 19,
      "typeID": "pokemon",
      "rarity": 50,
      "spec": {
        "name": "Vulpix",
        "form": 0
      },
      "stringLocationTypes": [
        "Land"
      ],
      "condition": {
        "times": [
          "DAWN",
          "DAY",
          "DUSK"
        ],
        "stringBiomes": [
          "minecraft:mutated_plains",
          "biomesoplenty:grassland",
          "biomesoplenty:prairie",
          "biomesoplenty:pasture",
          "minecraft:savanna",
          "biomesoplenty:brushland",
          "biomesoplenty:shrubland",
          "minecraft:savanna_rock",
          "minecraft:mutated_desert",
          "biomesoplenty:xeric_shrubland"
        ]
      }
    },
    {
      "minLevel": 10,
      "maxLevel": 19,
      "typeID": "pokemon",
      "rarity": 50,
      "spec": {
        "name": "Vulpix",
        "form": 3
      },
      "stringLocationTypes": [
        "Land"
      ],
      "condition": {
        "times": [
          "DAWN",
          "DAY",
          "DUSK",
          "NIGHT"
        ],
        "stringBiomes": [
          "biomesoplenty:glacier",
          "biomesoplenty:snowy_forest",
          "biomesoplenty:snowy_coniferous_forest",
          "minecraft:taiga_cold",
          "minecraft:ice_flats",
          "minecraft:mutated_ice_flats",
          "minecraft:mutated_taiga_cold",
          "biomesoplenty:cold_desert",
          "minecraft:cold_beach",
          "minecraft:frozen_river",
          "biomesoplenty:snowy_tundra"
        ]
      }
    }
  ]
}