{
  "id": "Xatu",
  "spawnInfos": [
    {
      "minLevel": 25,
      "maxLevel": 60,
      "typeID": "pokemon",
      "rarity": 25,
      "spec": {
        "name": "Xatu",
        "form": 0
      },
      "stringLocationTypes": [
        "Air"
      ],
      "condition": {
        "times": [
          "DAWN",
          "DAY",
          "DUSK",
          "NIGHT"
        ],
        "stringBiomes": [
          "biomesoplenty:maple_woods",
          "biomesoplenty:redwood_forest",
          "biomesoplenty:seasonal_forest",
          "minecraft:forest_hills",
          "biomesoplenty:bamboo_forest",
          "biomesoplenty:sacred_springs",
          "minecraft:mutated_jungle_edge",
          "minecraft:jungle_hills",
          "minecraft:mutated_jungle",
          "biomesoplenty:ominous_woods",
          "biomesoplenty:mystic_grove",
          "minecraft:jungle_edge",
          "pixelmon:ultraforest",
          "pixelmon:ultradarkforest"
        ]
      }
    }
  ]
}