{
  "id": "Yamask",
  "spawnInfos": [
    {
      "minLevel": 2,
      "maxLevel": 33,
      "typeID": "pokemon",
      "rarity": 100,
      "spec": {
        "name": "Yamask",
        "form": 0
      },
      "stringLocationTypes": [
        "Land"
      ],
      "condition": {
        "times": [
          "DAWN",
          "DUSK",
          "NIGHT"
        ],
        "stringBiomes": [
          "biomesoplenty:quagmire",
          "minecraft:roofed_forest",
          "biomesoplenty:ominous_woods",
          "biomesoplenty:dead_forest",
          "biomesoplenty:dead_swamp",
          "biomesoplenty:wasteland",
          "biomesoplenty:steppe",
          "biomesoplenty:tundra",
          "minecraft:mutated_roofed_forest",
          "biomesoplenty:phantasmagoric_inferno",
          "biomesoplenty:corrupted_sands",
          "biomesoplenty:visceral_heap",
          "pixelmon:ultraburst"
        ]
      }
    },
    {
      "minLevel": 2,
      "maxLevel": 33,
      "typeID": "pokemon",
      "rarity": 25,
      "spec": {
        "name": "Yamask",
        "form": 10
      },
      "stringLocationTypes": [
        "Land"
      ],
      "condition": {
        "times": [
          "NIGHT"
        ],
        "stringBiomes": [
          "biomesoplenty:quagmire",
          "minecraft:roofed_forest",
          "biomesoplenty:ominous_woods",
          "biomesoplenty:dead_forest",
          "biomesoplenty:dead_swamp",
          "biomesoplenty:wasteland",
          "biomesoplenty:steppe",
          "biomesoplenty:tundra",
          "minecraft:mutated_roofed_forest",
          "biomesoplenty:phantasmagoric_inferno",
          "biomesoplenty:corrupted_sands",
          "biomesoplenty:visceral_heap",
          "pixelmon:ultraburst"
        ]
      }
    }
  ]
}