{
  "id": "Zoroark",
  "spawnInfos": [
    {
      "minLevel": 30,
      "maxLevel": 45,
      "typeID": "pokemon",
      "rarity": 10,
      "spec": {
        "name": "Zoroark",
        "form": 0
      },
      "stringLocationTypes": [
        "Land"
      ],
      "condition": {
        "times": [
          "DUSK"
        ],
        "stringBiomes": [
          "biomesoplenty:quagmire",
          "minecraft:roofed_forest",
          "biomesoplenty:ominous_woods",
          "biomesoplenty:mystic_grove",
          "biomesoplenty:origin_island",
          "minecraft:mutated_roofed_forest",
          "minecraft:redwood_taiga",
          "minecraft:taiga_cold_hills",
          "pixelmon:ultraruin"
        ]
      }
    },
    {
      "minLevel": 30,
      "maxLevel": 45,
      "typeID": "pokemon",
      "rarity": 10,
      "spec": {
        "name": "Zoroark",
        "form": 11
      },
      "stringLocationTypes": [
        "Land"
      ],
      "condition": {
        "times": [
          "NIGHT"
        ],
        "stringBiomes": [
          "biomesoplenty:quagmire",
          "minecraft:roofed_forest",
          "biomesoplenty:ominous_woods",
          "biomesoplenty:mystic_grove",
          "biomesoplenty:origin_island",
          "minecraft:mutated_roofed_forest",
          "minecraft:redwood_taiga",
          "minecraft:taiga_cold_hills",
          "pixelmon:ultraruin"
        ]
      }
    }
  ]
}