{
   "pools":[
      {
         "name":"inject",
         "rolls":6,
         "entries":[
            {
               "type":"loot_table",
               "name":"pixelmon:lists/berries",
               "weight":10
            },
            {
               "type":"loot_table",
               "name":"pixelmon:lists/candy",
               "weight":1
            },
            {
               "type":"loot_table",
               "name":"pixelmon:lists/money",
               "weight":2
            },
            {
               "type":"loot_table",
               "name":"pixelmon:lists/trs",
               "weight":8
            },
            {
               "type":"loot_table",
               "name":"pixelmon:lists/tms",
               "weight":5
            },
            {
               "type":"loot_table",
               "name":"pixelmon:lists/pokeballs",
               "weight":10
            },
            {
               "type":"loot_table",
               "name":"pixelmon:lists/type_enhancements",
               "weight":3
            },
            {
               "type":"loot_table",
               "name":"pixelmon:lists/restoration",
               "weight":40
            }
         ]
      }
   ]
}