{
    "display": {
        "title": {
            "text": "Recon Squad"
        },
        "description": {
            "text": "Enter the Ultra Space"
        },
        "icon": {
            "item": "pixelmon:celestial_altar"
        },
        "announce_to_chat": true,
        "hidden": false,
        "background": "pixelmon:textures/gui/advancements/backgrounds/ruinswall.png"
    },
    "criteria": {
        "enter_ultra_space": {
            "trigger": "minecraft:changed_dimension",
            "conditions": {
                "from": "overworld",
                "to": "ultraspace"
            }
        }
    },
    "rewards": {
        "recipes": [
            "pixelmon:combat/ultra_helmet",
            "pixelmon:combat/ultra_chestplate",
            "pixelmon:combat/ultra_leggings",
            "pixelmon:combat/ultra_boots",
            "pixelmon:combat/crystal_helmet",
            "pixelmon:combat/crystal_chestplate",
            "pixelmon:combat/crystal_leggings",
            "pixelmon:combat/crystal_boots"
        ]
    }
}