{
  "rewards": {
    "recipes": [
      "pixelmon:decoration/poke_brick_yellow"
    ]
  },
  "criteria": {
    "has_base_item": {
      "trigger": "minecraft:inventory_changed",
      "conditions": {
        "items": [
          {
            "item": "minecraft:brick_block",
            "data": 0
          }
        ]
      }
    }
  },
  "requirements": [
    [
      "has_base_item"
    ]
  ]
}