{
    "parent": "block/half_slab",
    "textures": {
        "bottom": "pixelmon:blocks/marble_black",
        "top": "pixelmon:blocks/marble_black",
        "side": "pixelmon:blocks/marble_black"
    }
}