{
    "parent": "block/half_slab",
    "textures": {
        "bottom": "pixelmon:blocks/castlewhite",
        "top": "pixelmon:blocks/castlewhite",
        "side": "pixelmon:blocks/castlewhite"
    }
}