{
	"parent": "block/stairs",
    "textures": {
        "bottom": "pixelmon:blocks/poke_brick_light_blue",
        "top": "pixelmon:blocks/poke_brick_light_blue",
        "side": "pixelmon:blocks/poke_brick_light_blue"
    }
}