{
    "parent": "block/upper_slab",
    "textures": {
        "bottom": "pixelmon:blocks/poke_brick_purple",
        "top": "pixelmon:blocks/poke_brick_purple",
        "side": "pixelmon:blocks/poke_brick_purple"
    }
}