{
    "parent": "block/half_slab",
    "textures": {
        "bottom": "pixelmon:blocks/marble_purple",
        "top": "pixelmon:blocks/marble_purple",
        "side": "pixelmon:blocks/marble_purple"
    }
}