{
    "parent": "block/half_slab",
    "textures": {
        "bottom": "pixelmon:blocks/poke_brick_silver",
        "top": "pixelmon:blocks/poke_brick_silver",
        "side": "pixelmon:blocks/poke_brick_silver"
    }
}