{
    "parent": "block/half_slab",
    "textures": {
        "bottom": "pixelmon:blocks/poke_brick_yellow",
        "top": "pixelmon:blocks/poke_brick_yellow",
        "side": "pixelmon:blocks/poke_brick_yellow"
    }
}