{
    "display": {
        "icon": {
            "item": "pixelmon:beast_ball"
        },
        "title": {
            "translate": "advancements.beast_ball_capture.title"
        },
        "description": {
            "translate": "advancements.beast_ball_capture.description"
        },
        "hidden": true
    },
    "parent": "pixelmon:balls/ultra_ball_capture",
    "criteria": {
        "beast_ball_capture": {
            "trigger": "pixelmon:ball_capture_trigger",
            "conditions" : {
                "pokeball" : "beast_ball"
            }
        }
    }
}
