{
   "pools":[
      {
         "name":"inject",
         "rolls":2,
         "entries":[
            {
               "type":"loot_table",
               "name":"pixelmon:lists/money",
               "weight":1
            },
            {
               "type":"loot_table",
               "name":"pixelmon:lists/gems",
               "weight":2
            },
            {
               "type":"loot_table",
               "name":"pixelmon:lists/tms",
               "weight":5
            },
            {
               "type":"loot_table",
               "name":"pixelmon:lists/mega_stones",
               "weight":1
            },
            {
               "type":"loot_table",
               "name":"pixelmon:lists/type_enhancements",
               "weight":3
            },
            {
               "type":"loot_table",
               "name":"pixelmon:lists/trs",
               "weight":2
            },
            {
               "type":"item",
               "name":"pixelmon:rare_candy",
               "weight":1
            },
            {
               "type":"item",
               "name":"pixelmon:full_incense",
               "weight":2
            },
            {
               "type":"item",
               "name":"pixelmon:hard_stone",
               "weight":2
            },
            {
               "type":"item",
               "name":"pixelmon:shiny_stone_shard",
               "weight":1
            },
            {
               "type":"item",
               "name":"pixelmon:fire_stone_shard",
               "weight":2
            },
            {
               "type":"item",
               "name":"pixelmon:power_weight",
               "weight":2
            },
            {
               "type":"item",
               "name":"pixelmon:crumbled_rock_key_1",
               "weight":1
            },
            {
               "type":"item",
               "name":"pixelmon:crumbled_rock_key_2",
               "weight":1
            },
            {
               "type":"item",
               "name":"pixelmon:crumbled_rock_key_3",
               "weight":1
            },
            {
               "type":"item",
               "name":"pixelmon:crumbled_rock_key_4",
               "weight":1
            },
            {
               "type":"item",
               "name":"pixelmon:smoke_ball",
               "weight":2
            },
            {
               "type":"item",
               "name":"pixelmon:kings_rock",
               "weight":2
            },
            {
               "type":"item",
               "name":"pixelmon:magmarizer",
               "weight":2
            }
         ]
      }
   ]
}