{
   "pools":[
      {
         "name":"inject",
         "rolls":2,
         "entries":[
            {
               "type":"loot_table",
               "name":"pixelmon:lists/berries",
               "weight":1
            },
            {
               "type":"loot_table",
               "name":"pixelmon:lists/genesect_drives",
               "weight":1
            },
            {
               "type":"loot_table",
               "name":"pixelmon:lists/pokeballs",
               "weight":5
            },
            {
               "type":"loot_table",
               "name":"pixelmon:lists/restoration",
               "weight":2
            },
            {
               "type":"loot_table",
               "name":"pixelmon:lists/trs",
               "weight":3
            },
            {
               "type":"loot_table",
               "name":"pixelmon:lists/money",
               "weight":2
            },
            {
               "type":"item",
               "name":"pixelmon:iron_ball",
               "weight":2
            },
            {
               "type":"item",
               "name":"pixelmon:assault_vest",
               "weight":2
            },
            {
               "type":"item",
               "name":"pixelmon:expert_belt",
               "weight":3
            },
            {
               "type":"item",
               "name":"pixelmon:heavyduty_boots",
               "weight":3
            },
            {
               "type":"item",
               "name":"pixelmon:kings_rock",
               "weight":2
            },
            {
               "type":"item",
               "name":"pixelmon:good_rod",
               "weight":2
            },
            {
               "type":"item",
               "name":"pixelmon:revive",
               "weight":2
            },
            {
               "type":"item",
               "name":"pixelmon:rusty_iron_key_1",
               "weight":1
            },
            {
               "type":"item",
               "name":"pixelmon:rusty_iron_key_2",
               "weight":1
            },
            {
               "type":"item",
               "name":"pixelmon:rusty_iron_key_3",
               "weight":1
            },
            {
               "type":"item",
               "name":"pixelmon:rusty_iron_key_4",
               "weight":1
            },
            {
               "type":"item",
               "name":"pixelmon:burn_heal",
               "weight":3
            },
            {
               "type":"item",
               "name":"pixelmon:protein",
               "weight":3
            }
         ]
      }
   ]
}