{
	"id": "Bruxish Fishing",
	"spawnInfos": [
		{
			"spec": {
				"name": "Bruxish"
			},
			"stringLocationTypes": [
				"Super Rod"
			],
			"minLevel": 18,
			"maxLevel": 39,
			"typeID": "pokemon",
			"condition": {
				"stringBiomes": [
					"minecraft:river",
					"beaches",
					"oceans",
					"mystical"
				]
			},
			"rarity": 25
		}
	]
}