{
	"id": "Crawdaunt Fishing",
	"spawnInfos": [
		{
			"spec": {
				"name": "Crawdaunt"
			},
			"stringLocationTypes": [
				"Super Rod"
			],
			"minLevel": 30,
			"maxLevel": 46,
			"typeID": "pokemon",
			"condition": {
				"stringBiomes": [
					"minecraft:river",
					"beaches",
					"swamps"
				]
			},
			"rarity": 20
		}	
	]
}