{
	"id": "Dhelmise Fishing",
	"spawnInfos": [
		{
			"spec": {
				"name": "Dhelmise"
			},
			"stringLocationTypes": [
				"Super Rod"
			],
			"minLevel": 20,
			"maxLevel": 45,
			"typeID": "pokemon",
			"condition": {
				"stringBiomes": [
					"minecraft:deep_ocean"
				]
			},
			"rarity": 2
		}
	]
}