{
	"id": "Pyukumuku Fishing",
	"spawnInfos": [
		{
			"spec": {
				"name": "Pyukumuku"
			},
			"stringLocationTypes": [
				"Good Rod"
			],
			"minLevel": 25,
			"maxLevel": 37,
			"typeID": "pokemon",
			"condition": {
				"stringBiomes": [
					"oceans",
					"beaches",
					"swamps"
				]
			},
			"rarity": 5
		},
		{
			"spec": {
				"name": "Pyukumuku"
			},
			"stringLocationTypes": [
				"Super Rod"
			],
			"minLevel": 30,
			"maxLevel": 42,
			"typeID": "pokemon",
			"condition": {
				"stringBiomes": [
					"oceans",
					"beaches",
					"swamps"
				]
			},
			"rarity": 10
		}
	]
}