{
	"id": "Seadra Fishing",
	"spawnInfos": [
		{
			"spec": {
				"name": "Seadra"
			},
			"stringLocationTypes": [
				"Good Rod"
			],
			"minLevel": 32,
			"maxLevel": 42,
			"typeID": "pokemon",
			"condition": {
				"stringBiomes": [
					"oceans"
				]
			},
			"rarity": 25
		},
		{
			"spec": {
				"name": "Seadra"
			},
			"stringLocationTypes": [
				"Super Rod"
			],
			"minLevel": 35,
			"maxLevel": 45,
			"typeID": "pokemon",
			"condition": {
				"stringBiomes": [
					"oceans"
				]
			},
			"rarity": 30
		}
	]
}