{
	"id": "Staryu Fishing",
	"spawnInfos": [
		{
			"spec": {
				"name": "Staryu"
			},
			"stringLocationTypes": [
				"Good Rod"
			],
			"minLevel": 15,
			"maxLevel": 25,
			"typeID": "pokemon",
			"condition": {
				"stringBiomes": [
					"oceans",
					"beaches"
				]
			},
			"rarity": 50
		},
		{
			"spec": {
				"name": "Staryu"
			},
			"stringLocationTypes": [
				"Super Rod"
			],
			"minLevel": 5,
			"maxLevel": 15,
			"typeID": "pokemon",
			"condition": {
				"stringBiomes": [
					"oceans",
					"beaches"
				]
			},
			"rarity": 20
		}
	]
}