{
    "display": {
        "icon": {
            "item": "minecraft:lead"
        },
        "title": {
            "translate": "advancements.pokedex_25.title"
        },
        "description": {
            "translate": "advancements.pokedex_25.description"
        },
        "background": "pixelmon:textures/gui/advancements/backgrounds/ruinswall.png",
        "hidden": true
    },
    "parent" : "pixelmon:pokedex/pokedex_trigger",
    "criteria": {
        "pokedex_percent_25": {
            "trigger": "pixelmon:pokedex_trigger",
            "conditions" : {
                "percent" : 25
            }
        }
    }
}