{
  "type": "minecraft:crafting_shaped",
  "pattern": [
    "RRR",
    "R R",
    "F F"
  ],
  "key": {
    "R": {
      "type": "forge:ore_dict",
      "ore": "gemRuby"
    },
    "F": {
      "item": "pixelmon:fire_stone"
    }
  },
  "result": {
    "item": "pixelmon:flare_legs",
    "count": 1
  }
}