{
  "type": "minecraft:crafting_shaped",
  "pattern": [
    "MMM",
    "M M",
    "M M"
  ],
  "key": {
    "M": {
      "item": "pixelmon:ice_stone"
    }
  },
  "result": {
    "item": "pixelmon:ice_stone_legs",
    "count": 1
  }
}