{
  "type": "minecraft:crafting_shaped",
  "pattern": [
    "SSS",
    "M M",
    "M M"
  ],
  "key": {
    "M": {
      "type": "forge:ore_dict",
      "ore": "gemCrystal"
    },
	"S": {
      "item": "pixelmon:silicon"
    }
  },
  "result": {
    "item": "pixelmon:plasma_legs",
    "count": 1
  }
}