{
  "variants": {
    "facing=east,half=bottom,shape=straight":  { "model": "pixelmon:brownmarbleStairs" },
    "facing=west,half=bottom,shape=straight":  { "model": "pixelmon:brownmarbleStairs", "y": 180, "uvlock": true },
    "facing=south,half=bottom,shape=straight": { "model": "pixelmon:brownmarbleStairs", "y": 90, "uvlock": true },
    "facing=north,half=bottom,shape=straight": { "model": "pixelmon:brownmarbleStairs", "y": 270, "uvlock": true },
    "facing=east,half=bottom,shape=outer_right":  { "model": "pixelmon:brownmarbleOuterStairs" },
    "facing=west,half=bottom,shape=outer_right":  { "model": "pixelmon:brownmarbleOuterStairs", "y": 180, "uvlock": true },
    "facing=south,half=bottom,shape=outer_right": { "model": "pixelmon:brownmarbleOuterStairs", "y": 90, "uvlock": true },
    "facing=north,half=bottom,shape=outer_right": { "model": "pixelmon:brownmarbleOuterStairs", "y": 270, "uvlock": true },
    "facing=east,half=bottom,shape=outer_left":  { "model": "pixelmon:brownmarbleOuterStairs", "y": 270, "uvlock": true },
    "facing=west,half=bottom,shape=outer_left":  { "model": "pixelmon:brownmarbleOuterStairs", "y": 90, "uvlock": true },
    "facing=south,half=bottom,shape=outer_left": { "model": "pixelmon:brownmarbleOuterStairs" },
    "facing=north,half=bottom,shape=outer_left": { "model": "pixelmon:brownmarbleOuterStairs", "y": 180, "uvlock": true },
    "facing=east,half=bottom,shape=inner_right":  { "model": "pixelmon:brownmarbleInnerStairs" },
    "facing=west,half=bottom,shape=inner_right":  { "model": "pixelmon:brownmarbleInnerStairs", "y": 180, "uvlock": true },
    "facing=south,half=bottom,shape=inner_right": { "model": "pixelmon:brownmarbleInnerStairs", "y": 90, "uvlock": true },
    "facing=north,half=bottom,shape=inner_right": { "model": "pixelmon:brownmarbleInnerStairs", "y": 270, "uvlock": true },
    "facing=east,half=bottom,shape=inner_left":  { "model": "pixelmon:brownmarbleInnerStairs", "y": 270, "uvlock": true },
    "facing=west,half=bottom,shape=inner_left":  { "model": "pixelmon:brownmarbleInnerStairs", "y": 90, "uvlock": true },
    "facing=south,half=bottom,shape=inner_left": { "model": "pixelmon:brownmarbleInnerStairs" },
    "facing=north,half=bottom,shape=inner_left": { "model": "pixelmon:brownmarbleInnerStairs", "y": 180, "uvlock": true },
    "facing=east,half=top,shape=straight":  { "model": "pixelmon:brownmarbleStairs", "x": 180, "uvlock": true },
    "facing=west,half=top,shape=straight":  { "model": "pixelmon:brownmarbleStairs", "x": 180, "y": 180, "uvlock": true },
    "facing=south,half=top,shape=straight": { "model": "pixelmon:brownmarbleStairs", "x": 180, "y": 90, "uvlock": true },
    "facing=north,half=top,shape=straight": { "model": "pixelmon:brownmarbleStairs", "x": 180, "y": 270, "uvlock": true },
    "facing=east,half=top,shape=outer_right":  { "model": "pixelmon:brownmarbleOuterStairs", "x": 180, "y": 90, "uvlock": true },
    "facing=west,half=top,shape=outer_right":  { "model": "pixelmon:brownmarbleOuterStairs", "x": 180, "y": 270, "uvlock": true },
    "facing=south,half=top,shape=outer_right": { "model": "pixelmon:brownmarbleOuterStairs", "x": 180, "y": 180, "uvlock": true },
    "facing=north,half=top,shape=outer_right": { "model": "pixelmon:brownmarbleOuterStairs", "x": 180, "uvlock": true },
    "facing=east,half=top,shape=outer_left":  { "model": "pixelmon:brownmarbleOuterStairs", "x": 180, "uvlock": true },
    "facing=west,half=top,shape=outer_left":  { "model": "pixelmon:brownmarbleOuterStairs", "x": 180, "y": 180, "uvlock": true },
    "facing=south,half=top,shape=outer_left": { "model": "pixelmon:brownmarbleOuterStairs", "x": 180, "y": 90, "uvlock": true },
    "facing=north,half=top,shape=outer_left": { "model": "pixelmon:brownmarbleOuterStairs", "x": 180, "y": 270, "uvlock": true },
    "facing=east,half=top,shape=inner_right":  { "model": "pixelmon:brownmarbleInnerStairs", "x": 180, "y": 90, "uvlock": true },
    "facing=west,half=top,shape=inner_right":  { "model": "pixelmon:brownmarbleInnerStairs", "x": 180, "y": 270, "uvlock": true },
    "facing=south,half=top,shape=inner_right": { "model": "pixelmon:brownmarbleInnerStairs", "x": 180, "y": 180, "uvlock": true },
    "facing=north,half=top,shape=inner_right": { "model": "pixelmon:brownmarbleInnerStairs", "x": 180, "uvlock": true },
    "facing=east,half=top,shape=inner_left":  { "model": "pixelmon:brownmarbleInnerStairs", "x": 180, "uvlock": true },
    "facing=west,half=top,shape=inner_left":  { "model": "pixelmon:brownmarbleInnerStairs", "x": 180, "y": 180, "uvlock": true },
    "facing=south,half=top,shape=inner_left": { "model": "pixelmon:brownmarbleInnerStairs", "x": 180, "y": 90, "uvlock": true },
    "facing=north,half=top,shape=inner_left": { "model": "pixelmon:brownmarbleInnerStairs", "x": 180, "y": 270, "uvlock": true }
  }
}