{
	"variants": {
        "facing=north,has_record=false": { "model": "pixelmon:meloetta_music_box" },
        "facing=south,has_record=false": { "model": "pixelmon:meloetta_music_box" },
        "facing=west,has_record=false":  { "model": "pixelmon:meloetta_music_box" },
        "facing=east,has_record=false":  { "model": "pixelmon:meloetta_music_box" },
        "facing=north,has_record=true": { "model": "pixelmon:meloetta_music_box" },
        "facing=south,has_record=true": { "model": "pixelmon:meloetta_music_box" },
        "facing=west,has_record=true":  { "model": "pixelmon:meloetta_music_box" },
        "facing=east,has_record=true":  { "model": "pixelmon:meloetta_music_box" }
	}
}
