{
  "variants": {
    "normal": { "model": "pixelmon:OrangeCushionChairBlock" },
	"facing=west": { "model": "pixelmon:OrangeCushionChairBlock" },
	"facing=east": { "model": "pixelmon:OrangeCushionChairBlock" },
	"facing=south": { "model": "pixelmon:OrangeCushionChairBlock" },
	"facing=north": { "model": "pixelmon:OrangeCushionChairBlock" }
  }
}
