{
  "variants": {
    "normal": { "model": "pixelmon:PurpleCushionChairBlock" },
    "facing=north": { "model": "pixelmon:PurpleCushionChairBlock" },
	"facing=south": { "model": "pixelmon:PurpleCushionChairBlock" }
  }
}
