{
  "variants": {
    "facing=east,half=bottom,shape=straight":  { "model": "pixelmon:whitemarbleStairs" },
    "facing=west,half=bottom,shape=straight":  { "model": "pixelmon:whitemarbleStairs", "y": 180, "uvlock": true },
    "facing=south,half=bottom,shape=straight": { "model": "pixelmon:whitemarbleStairs", "y": 90, "uvlock": true },
    "facing=north,half=bottom,shape=straight": { "model": "pixelmon:whitemarbleStairs", "y": 270, "uvlock": true },
    "facing=east,half=bottom,shape=outer_right":  { "model": "pixelmon:whitemarbleOuterStairs" },
    "facing=west,half=bottom,shape=outer_right":  { "model": "pixelmon:whitemarbleOuterStairs", "y": 180, "uvlock": true },
    "facing=south,half=bottom,shape=outer_right": { "model": "pixelmon:whitemarbleOuterStairs", "y": 90, "uvlock": true },
    "facing=north,half=bottom,shape=outer_right": { "model": "pixelmon:whitemarbleOuterStairs", "y": 270, "uvlock": true },
    "facing=east,half=bottom,shape=outer_left":  { "model": "pixelmon:whitemarbleOuterStairs", "y": 270, "uvlock": true },
    "facing=west,half=bottom,shape=outer_left":  { "model": "pixelmon:whitemarbleOuterStairs", "y": 90, "uvlock": true },
    "facing=south,half=bottom,shape=outer_left": { "model": "pixelmon:whitemarbleOuterStairs" },
    "facing=north,half=bottom,shape=outer_left": { "model": "pixelmon:whitemarbleOuterStairs", "y": 180, "uvlock": true },
    "facing=east,half=bottom,shape=inner_right":  { "model": "pixelmon:whitemarbleInnerStairs" },
    "facing=west,half=bottom,shape=inner_right":  { "model": "pixelmon:whitemarbleInnerStairs", "y": 180, "uvlock": true },
    "facing=south,half=bottom,shape=inner_right": { "model": "pixelmon:whitemarbleInnerStairs", "y": 90, "uvlock": true },
    "facing=north,half=bottom,shape=inner_right": { "model": "pixelmon:whitemarbleInnerStairs", "y": 270, "uvlock": true },
    "facing=east,half=bottom,shape=inner_left":  { "model": "pixelmon:whitemarbleInnerStairs", "y": 270, "uvlock": true },
    "facing=west,half=bottom,shape=inner_left":  { "model": "pixelmon:whitemarbleInnerStairs", "y": 90, "uvlock": true },
    "facing=south,half=bottom,shape=inner_left": { "model": "pixelmon:whitemarbleInnerStairs" },
    "facing=north,half=bottom,shape=inner_left": { "model": "pixelmon:whitemarbleInnerStairs", "y": 180, "uvlock": true },
    "facing=east,half=top,shape=straight":  { "model": "pixelmon:whitemarbleStairs", "x": 180, "uvlock": true },
    "facing=west,half=top,shape=straight":  { "model": "pixelmon:whitemarbleStairs", "x": 180, "y": 180, "uvlock": true },
    "facing=south,half=top,shape=straight": { "model": "pixelmon:whitemarbleStairs", "x": 180, "y": 90, "uvlock": true },
    "facing=north,half=top,shape=straight": { "model": "pixelmon:whitemarbleStairs", "x": 180, "y": 270, "uvlock": true },
    "facing=east,half=top,shape=outer_right":  { "model": "pixelmon:whitemarbleOuterStairs", "x": 180, "y": 90, "uvlock": true },
    "facing=west,half=top,shape=outer_right":  { "model": "pixelmon:whitemarbleOuterStairs", "x": 180, "y": 270, "uvlock": true },
    "facing=south,half=top,shape=outer_right": { "model": "pixelmon:whitemarbleOuterStairs", "x": 180, "y": 180, "uvlock": true },
    "facing=north,half=top,shape=outer_right": { "model": "pixelmon:whitemarbleOuterStairs", "x": 180, "uvlock": true },
    "facing=east,half=top,shape=outer_left":  { "model": "pixelmon:whitemarbleOuterStairs", "x": 180, "uvlock": true },
    "facing=west,half=top,shape=outer_left":  { "model": "pixelmon:whitemarbleOuterStairs", "x": 180, "y": 180, "uvlock": true },
    "facing=south,half=top,shape=outer_left": { "model": "pixelmon:whitemarbleOuterStairs", "x": 180, "y": 90, "uvlock": true },
    "facing=north,half=top,shape=outer_left": { "model": "pixelmon:whitemarbleOuterStairs", "x": 180, "y": 270, "uvlock": true },
    "facing=east,half=top,shape=inner_right":  { "model": "pixelmon:whitemarbleInnerStairs", "x": 180, "y": 90, "uvlock": true },
    "facing=west,half=top,shape=inner_right":  { "model": "pixelmon:whitemarbleInnerStairs", "x": 180, "y": 270, "uvlock": true },
    "facing=south,half=top,shape=inner_right": { "model": "pixelmon:whitemarbleInnerStairs", "x": 180, "y": 180, "uvlock": true },
    "facing=north,half=top,shape=inner_right": { "model": "pixelmon:whitemarbleInnerStairs", "x": 180, "uvlock": true },
    "facing=east,half=top,shape=inner_left":  { "model": "pixelmon:whitemarbleInnerStairs", "x": 180, "uvlock": true },
    "facing=west,half=top,shape=inner_left":  { "model": "pixelmon:whitemarbleInnerStairs", "x": 180, "y": 180, "uvlock": true },
    "facing=south,half=top,shape=inner_left": { "model": "pixelmon:whitemarbleInnerStairs", "x": 180, "y": 90, "uvlock": true },
    "facing=north,half=top,shape=inner_left": { "model": "pixelmon:whitemarbleInnerStairs", "x": 180, "y": 270, "uvlock": true }
  }
}