{
	"usecustom": false,
	"pokemon": [
        "Aegislash",
        "Alakazam",
        "Amoonguss",
        "Azumarill",
        "Barraskewda",
        "Bisharp",
        "Blaziken",
        "Blissey",
        "Buzzwole",
        "Charizard",
        "Clefable",
        "Cloyster",
        "Conkeldurr",
        "Corviknight",
        "Crawdaunt",
        "Diggersby",
        "Ditto",
        "Dracozolt",
        "Dragapult",
        "Dragonite",
        "Excadrill",
        "Ferrothorn",
        "Garchomp",
        "Gastrodon",
        "Gengar",
        "Grimmsnarl",
        "Gyarados",
        "Hatterene",
        "Hawlucha",
        "Heatran",
        "Hippowdon",
        "Hydreigon",
        "Incineroar",
        "Jirachi",
        "Kartana",
        "Keldeo",
        "Kingdra",
        "Kommo-o",
        "Krookodile",
        "Kyurem",
        "Landorus-Therian",
        "Latios",
        "Magnezone",
        "Mamoswine",
        "Mandibuzz",
        "Mantine",
        "Marowak-Alolan",
        "Melmetal",
        "Mew",
        "Mimikyu",
        "Moltres",
        "Necrozma",
        "Nidoking",
        "Ninetales-Alolan",
        "Obstagoon",
        "Pelipper",
        "Primarina",
        "Quagsire",
        "Regieleki",
        "Reuniclus",
        "Rhyperior",
        "Rillaboom",
        "Rotom-Heat",
        "Rotom-Wash",
        "Salazzle",
        "Scizor",
        "Seismitoad",
        "Skarmory",
        "Slowbro",
        "Slowbro-Galarian",
        "Slowking",
        "Slowking-Galarian",
        "Suicune",
        "Swampert",
        "Tangrowth",
        "TapuFini",
        "TapuKoko",
        "TapuLele",
        "Terrakion",
        "Togekiss",
        "Torkoal",
        "Tornadus-Therian",
        "Toxapex",
        "Toxtricity",
        "Tyranitar",
        "Urshifu-Rapid",
        "Venusaur",
        "Volcarona",
        "Weavile",
        "Weezing-Galarian",
        "Xatu",
        "Zapdos",
        "Zapdos-Galarian",
        "Zarude",
        "Zeraora"
	]
}