{
    "type": "minecraft:crafting_shaped",
    "pattern": [
      "###"
    ],
    "key": {
      "#": {
        "item": "pixelmon:castlebrick2"
      }
    },
    "result": {
      "item": "pixelmon:castle_brick_2_slab",
      "data": 0,
      "count": 6
    }
}