{
  "type": "minecraft:crafting_shaped",
  "pattern": [
    "IRI",
    "IPI",
    "IRI"
  ],
  "key": {
    "P": {
      "item": "minecraft:stained_glass_pane",
      "data": 3
    },
    "I": {
      "item": "minecraft:iron_ingot"
    },
    "R": {
      "item": "minecraft:redstone"
    }
  },
  "result": {
    "item": "pixelmon:pokedex",
    "count": 1
  }
}