{
  "type": "minecraft:crafting_shaped",
  "pattern": [
    "CHC",
    "HOH",
    "CHC"
  ],
  "key": {
    "C": {
      "item": "minecraft:clock"
    },
    "H": {
      "item": "pixelmon:hourglass_gold"
    },
    "O": {
      "item": "pixelmon:orb"
    }
  },
  "result": {
    "item": "pixelmon:time_glass",
    "count": 1
  }
}