{
  "type": "minecraft:crafting_shapeless",
  "ingredients": [
    {
      "item": "pixelmon:flabebe_flower_white",
      "data": 0
    }
  ],
  "result": {
    "item": "minecraft:dye",
    "data": 7,
    "count": 1
  }
}