{
    "data": {
        "trainerType": "evil",
        "minLevel": 50,
        "maxLevel": 80,
        "minPartyPokemon": 3,
        "maxPartyPokemon": 6,
        "winnings": 20
    },
    "pokemon": [
        {
            "name": "Houndoom"
        },
        {
            "name": "Umbreon"
        },
        {
            "name": "Skuntank"
        },
        {
            "name": "Absol"
        },
        {
            "name": "Krookodile"
        },
        {
            "name": "Zoroark"
        },
        {
            "name": "Mandibuzz"
        },
        {
            "name": "Thievul"
        },
        {
            "name": "Pangoro"
        },
        {
            "name": "Persian"
        },
        {
            "name": "Sableye"
        }
    ],
    "names": [
        {
            "name": "Grunt"
        },
        {
            "name": "Admin"
        },
        {
            "name": "Executive"
        }
    ],
	"chat": [
        {
            "opening": "Sure, but if I win I get to keep all your Pokemon",
            "win": "Now give me your Pokemo- wait!",
            "lose": "I was never here."
        }
    ]
}
