{
  "type": "minecraft:crafting_shaped",
  "pattern": [
    "FFF",
    "FOF",
    "FSF"
  ],
  "key": {
    "S": {
      "item": "minecraft:iron_sword"
    },
    "O": {
      "item": "pixelmon:orb"
    },
    "F": {
      "item": "pixelmon:rusty_fragment"
    }
  },
  "result": {
    "item": "pixelmon:rusty_sword",
    "count": 1
  }
}
