{
  "type": "minecraft:crafting_shaped",
  "pattern": [
    "XXX",
    "XXX",
    "XXX"
  ],
  "key": {
    "X": {
      "type": "forge:ore_dict",
      "ore": "ingotAluminum"
    }
  },
  "result": {
    "item": "pixelmon:aluminium_block",
    "count": 1
  }
}