{
  "type": "minecraft:crafting_shaped",
  "pattern": [
    "   ",
    " SS",
    " CC"
  ],
  "key": {
    "S": {
      "item": "minecraft:sand",
      "data": 0
    },
    "C": {
      "item": "pixelmon:castlewall",
      "data": 0
    }
  },
  "result": {
    "item": "pixelmon:castlewall4",
    "count": 4
  }
}