{
  "type": "minecraft:crafting_shaped",
  "pattern": [
    "XXX",
    "XXX",
    "XXX"
  ],
  "key": {
    "X": {
      "item": "pixelmon:fire_stone"
    }
  },
  "result": {
    "item": "pixelmon:fire_stone_block",
    "count": 1
  }
}