{
  "type": "minecraft:crafting_shaped",
  "pattern": [
    "WAW"
  ],
  "key": {
    "W": {
      "item": "minecraft:carpet",
      "data": 0
    },
    "A": {
      "item": "minecraft:dye",
      "data": 2
    }
  },
  "result": {
    "item": "pixelmon:green_rug",
    "count": 1
  }
}