{
  "type": "minecraft:crafting_shaped",
  "pattern": [
    " Y ",
    "XXX"
  ],
  "key": {
    "X": {
      "item": "minecraft:ghast_tear"
    },
    "Y": {
      "item": "minecraft:torch"
    }
  },
  "result": {
    "item": "pixelmon:litwick_candle",
    "count": 4
  }
}