{
  "type": "minecraft:crafting_shaped",
  "pattern": [
    "XXX",
    "   "
  ],
  "key": {
    "X": {
      "item": "pixelmon:litwick_candle"
    }
  },
  "result": {
    "item": "pixelmon:litwick_candles",
    "count": 2
  }
}