{
  "type": "minecraft:crafting_shapeless",
  "ingredients": [
    {
      "item": "minecraft:slime"
    },
    {
      "item": "minecraft:dye",
      "data": 13
    }
  ],
  "result": {
    "item": "pixelmon:magenta_water_float",
    "count": 1
  }
}