{
  "type": "minecraft:crafting_shapeless",
  "group": "marble",
  "ingredients": [
    {
      "item": "minecraft:quartz_block",
      "data": 0
    },
    {
      "item": "minecraft:dye",
      "data": 13
    }
  ],
  "result": {
    "item": "pixelmon:marble_block",
    "data": 2
  }
}