{
  "type": "minecraft:crafting_shaped",
  "pattern": [
    "IDI",
    "ICI",
    "IAI"
  ],
  "key": {
    "I": {
      "item": "minecraft:iron_ingot"
    },
    "A": {
      "item": "pixelmon:white_apricorn"
    },
    "D": {
      "item": "minecraft:dye",
      "data": 9
    },
    "C": {
      "item": "minecraft:clock"
    }
  },
  "result": {
    "item": "pixelmon:pink_clock",
    "count": 1
  }
}