{
  "type": "minecraft:crafting_shapeless",
  "group": "poke_brick",
  "ingredients": [
    {
      "item": "minecraft:brick_block",
      "data": 0
    },
    {
      "item": "minecraft:dye",
      "data": 12
    }
  ],
  "result": {
    "item": "pixelmon:poke_brick",
    "data": 3
  }
}