{
  "type": "minecraft:crafting_shaped",
  "pattern": [
    "   ",
    "TTT",
    "T T"
  ],
  "key": {
    "T": {
      "item": "minecraft:stained_hardened_clay",
      "data": 9
    }
  },
  "result": {
    "item": "pixelmon:work_desk",
    "count": 1
  }
}