{
  "type": "minecraft:crafting_shaped",
  "pattern": [
    "WAW",
    "WWW"
  ],
  "key": {
    "W": {
      "item": "minecraft:wool",
      "data": 0
    },
    "A": {
      "item": "minecraft:dye",
      "data": 11
    }
  },
  "result": {
    "item": "pixelmon:yellow_pastel_bean_bag",
    "count": 1
  }
}