{
	"megadrops": [
		"pixelmon:amulet_coin",
		"pixelmon:bright_powder",
		"pixelmon:destiny_knot",
		"minecraft:dragon_breath",
		"pixelmon:eviolite",
		"pixelmon:exp_share",
		"pixelmon:flame_orb",
		"pixelmon:focus_band",
		"pixelmon:light_clay",
		"pixelmon:macho_brace",
		"pixelmon:metronome",
		"pixelmon:muscle_band",
		"pixelmon:quick_claw",
		"pixelmon:rare_candy",
		"pixelmon:red_card",
		"pixelmon:rocky_helmet",
		"pixelmon:safety_goggles",
		"pixelmon:scope_lens",
		"pixelmon:shed_shell",
		"pixelmon:shell_bell",
		"pixelmon:smoke_ball",
		"pixelmon:soothe_bell",
		"minecraft:totem_of_undying",
		"pixelmon:toxic_orb",
		"pixelmon:weakness_policy",
		"pixelmon:wide_lens",
		"pixelmon:wise_glasses",
		"minecraft:skull:1",
		"pixelmon:zoom_lens",
        "pixelmon:big_mushroom",
        "pixelmon:big_pearl",
        "pixelmon:nugget",
		"pixelmon:m_candy",
		"pixelmon:s_candy",
        "pixelmon:star_piece",
        "pixelmon:strawberry_sweet",
        "pixelmon:love_sweet",
        "pixelmon:berry_sweet",
        "pixelmon:clover_sweet",
        "pixelmon:flower_sweet",
        "pixelmon:star_sweet",
        "pixelmon:ribbon_sweet",
        "pixelmon:max_repel"
	],
	"shinymegadrops": [
		"pixelmon:ability_capsule",
		"pixelmon:assault_vest",
		"pixelmon:choice_band",
		"pixelmon:choice_scarf",
		"pixelmon:choice_specs",
		"minecraft:dragon_egg",
		"minecraft:elytra",
		"pixelmon:exp_all",
		"pixelmon:expert_belt",
		"pixelmon:focus_sash",
		"pixelmon:leftovers",
		"pixelmon:life_orb",
		"pixelmon:lucky_egg",
		"pixelmon:master_ball",
		"minecraft:nether_star",
		"pixelmon:orb",
		"pixelmon:power_anklet",
		"pixelmon:power_band",
		"pixelmon:power_belt",
		"pixelmon:power_bracer",
		"pixelmon:power_lens",
		"pixelmon:power_weight",
		"pixelmon:repel",
		"minecraft:shulker_shell",
        "pixelmon:balm_mushroom",
        "pixelmon:big_nugget",
        "pixelmon:comet_shard",
        "pixelmon:pearl_string",
        "pixelmon:bug_memory_drive",
        "pixelmon:dark_memory_drive",
        "pixelmon:dragon_memory_drive",
        "pixelmon:electric_memory_drive",
        "pixelmon:fairy_memory_drive",
        "pixelmon:fighting_memory_drive",
        "pixelmon:fire_memory_drive",
        "pixelmon:flying_memory_drive",
        "pixelmon:ghost_memory_drive",
        "pixelmon:grass_memory_drive",
        "pixelmon:ground_memory_drive",
        "pixelmon:ice_memory_drive",
        "pixelmon:poison_memory_drive",
        "pixelmon:psychic_memory_drive",
        "pixelmon:rock_memory_drive",
        "pixelmon:steel_memory_drive",
        "pixelmon:water_memory_drive",
		"pixelmon:griseous_orb",
		"pixelmon:adamant_orb",
		"pixelmon:lustrous_orb",
		"pixelmon:meteorite",
		"pixelmon:sun_flute",
		"pixelmon:xl_candy",
		"pixelmon:l_candy",
		"pixelmon:moon_flute",
        "pixelmon:max_repel"
	],
	"bosses": [{
			"name": "Charizard",
			"spawnlocation": "airpersistent",
			"flying": {
				"heightmin": 5,
				"heightmax": 10,
				"speed": 1.5,
				"refreshratey": 100,
				"refreshratexz": 200,
				"refreshratespeed": 200,
				"flaprate": 40
			}
		},
		{
			"name": "Blastoise",
			"spawnlocation": "water",
			"swimming": {
				"depthmin": 2,
				"depthmax": 14,
				"swimspeed": 2.5,
				"decayrate": 0.9,
				"refreshrate": 70
			}
		},
		{
			"name": "Venusaur",
			"spawnlocation": "land"
		},
		{
			"name": "Aggron",
			"spawnlocation": "land"
		},
		{
			"name": "Altaria",
			"spawnlocation": "airpersistent",
			"flying": {
				"heightmin": 5,
				"heightmax": 10,
				"speed": 1.5,
				"refreshratey": 100,
				"refreshratexz": 200,
				"refreshratespeed": 200,
				"flaprate": 40
			}
		},
		{
			"name": "Alakazam",
			"spawnlocation": "land"
		},
		{
			"name": "Ampharos",
			"spawnlocation": "land"
		},
		{
			"name": "Audino",
			"spawnlocation": "land"
		},
		{
			"name": "Beedrill",
			"spawnlocation": "land"
		},
		{
			"name": "Blaziken",
			"spawnlocation": "land"
		},
		{
			"name": "Gallade",
			"spawnlocation": "land"
		},
		{
			"name": "Garchomp",
			"spawnlocation": "land"
		},
		{
			"name": "Gengar",
			"spawnlocation": "land"
		},
		{
			"name": "Gyarados",
			"spawnlocation": "water",
			"swimming": {
				"depthmin": 2,
				"depthmax": 14,
				"swimspeed": 2.5,
				"decayrate": 0.9,
				"refreshrate": 70
			}
		},
		{
			"name": "Heracross",
			"spawnlocation": "land"
		},
		{
			"name": "Houndoom",
			"spawnlocation": "land"
		},
		{
			"name": "Kangaskhan",
			"spawnlocation": "land"
		},
		{
			"name": "Lucario",
			"spawnlocation": "land"
		},
		{
			"name": "Manectric",
			"spawnlocation": "land"
		},
		{
			"name": "Mewtwo",
			"spawnlocation": "land"
		},
		{
			"name": "Pidgeot",
			"spawnlocation": "airpersistent",
			"flying": {
				"heightmin": 5,
				"heightmax": 10,
				"speed": 1.5,
				"refreshratey": 100,
				"refreshratexz": 200,
				"refreshratespeed": 200,
				"flaprate": 40
			}
		},
		{
			"name": "Pinsir",
			"spawnlocation": "land"
		},
		{
			"name": "Salamence",
			"spawnlocation": "airpersistent",
			"flying": {
				"heightmin": 5,
				"heightmax": 10,
				"speed": 1.5,
				"refreshratey": 100,
				"refreshratexz": 200,
				"refreshratespeed": 200,
				"flaprate": 40
			}
		},
		{
			"name": "Sceptile",
			"spawnlocation": "land"
		},
		{
			"name": "Scizor",
			"spawnlocation": "land"
		},
		{
			"name": "Sharpedo",
			"spawnlocation": "water",
			"swimming": {
				"depthmin": 2,
				"depthmax": 14,
				"swimspeed": 2.5,
				"decayrate": 0.9,
				"refreshrate": 70
			}
		},
		{
			"name": "Swampert",
			"spawnlocation": "water",
			"swimming": {
				"depthmin": 2,
				"depthmax": 14,
				"swimspeed": 2.5,
				"decayrate": 0.9,
				"refreshrate": 70
			}
		},
		{
			"name": "Tyranitar",
			"spawnlocation": "land"
		},
		{
			"name": "Aerodactyl",
			"spawnlocation": "airpersistent",
			"flying": {
				"heightmin": 5,
				"heightmax": 10,
				"speed": 1.5,
				"refreshratey": 100,
				"refreshratexz": 200,
				"refreshratespeed": 200,
				"flaprate": 40
			}
		},
		{
			"name": "Gardevoir",
			"spawnlocation": "land"
		},
		{
			"name": "Latios",
			"spawnlocation": "airpersistent",
			"flying": {
				"heightmin": 7,
				"heightmax": 10,
				"speed": 1.75,
				"refreshratey": 100,
				"refreshratexz": 200,
				"refreshratespeed": 200,
				"flaprate": 40
			}
		},
		{
			"name": "Latias",
			"spawnlocation": "airpersistent",
			"flying": {
				"heightmin": 7,
				"heightmax": 10,
				"speed": 1.75,
				"refreshratey": 100,
				"refreshratexz": 200,
				"refreshratespeed": 200,
				"flaprate": 40
			}
		},
		{
			"name": "Mawile",
			"spawnlocation": "land"
		},
		{
			"name": "Absol",
			"spawnlocation": "land"
		},
		{
			"name": "Glalie",
			"spawnlocation": "land"
		},
		{
			"name": "Abomasnow",
			"spawnlocation": "land"
		},
		{
			"name": "Banette",
			"spawnlocation": "land"
		},
		{
			"name": "Camerupt",
			"spawnlocation": "land"
		},
		{
			"name": "Diancie",
			"spawnlocation": "land"
		},
		{
			"name": "Lopunny",
			"spawnlocation": "land"
		},
		{
			"name": "Medicham",
			"spawnlocation": "land"
		},
		{
			"name": "Sableye",
			"spawnlocation": "land"
		},
		{
			"name": "Slowbro",
			"spawnlocation": "water",
			"swimming": {
				"depthmin": 1,
				"depthmax": 8,
				"swimspeed": 1.25,
				"decayrate": 0.9,
				"refreshrate": 70
			}
		},
		{
			"name": "Steelix",
			"spawnlocation": "land"
			
		},
		{
			"name": "Metagross",
			"spawnlocation": "land"
		}
	]
}