{
  "type": "minecraft:crafting_shaped",
  "pattern": [
    "M M",
    "M M",
    " M "
  ],
  "key": {
    "M": {
      "item": "pixelmon:aluminium_plate"
    }
  },
  "result": {
    "item": "pixelmon:bike_handlebars",
    "count": 1
  }
}