{
  "type": "minecraft:crafting_shaped",
  "pattern": [
    "ABA"
  ],
  "key": {
    "A": {
      "item": "pixelmon:white_pokeblock"
    },
    "B": {
      "item": "pixelmon:blue_pokeblock"
    }
  },
  "result": {
    "item": "pixelmon:snow_balm",
    "count": 3
  }
}