{
  "type": "minecraft:crafting_shaped",
  "pattern": [
    "ABA"
  ],
  "key": {
    "A": {
      "item": "pixelmon:red_pokeblock"
    },
    "B": {
      "item": "pixelmon:black_pokeblock"
    }
  },
  "result": {
    "item": "pixelmon:volcano_balm",
    "count": 3
  }
}