{
  "type": "minecraft:crafting_shaped",
  "pattern": [
    "GMW"
  ],
  "key": {
    "G": {
      "item": "minecraft:glass_bottle"
    },
    "M": {
      "item": "minecraft:milk_bucket"
    },
    "W": {
      "item": "minecraft:wheat"
    }
  },
  "result": {
    "item": "pixelmon:potion",
    "count": 4
  }
}