{
  "type": "minecraft:crafting_shaped",
  "pattern": [
    "PS ",
    "S  "
  ],
  "key": {
    "P": {
      "item": "minecraft:potion"
    },
    "S": {
      "item": "minecraft:sugar"
    }
  },
  "result": {
    "item": "pixelmon:soda_pop",
    "count": 1
  }
}