{
  "type": "minecraft:crafting_shaped",
  "pattern": [
    "GGG",
    "GSG",
    "GGG"
  ],
  "key": {
    "G": {
      "item": "minecraft:gold_ingot"
    },
    "S": {
      "item": "pixelmon:rusty_sword"
    }
  },
  "result": {
    "item": "pixelmon:crowned_sword",
    "count": 1
  }
}