{
  "type": "minecraft:crafting_shaped",
  "pattern": [
    " WW",
    "WWW",
    "BBB"
  ],
  "key": {
    "B": {
      "item": "minecraft:blaze_powder"
    },
   "W": {
      "item": "minecraft:wool",
      "data": 0
    }
  },
  "result": {
    "item": "pixelmon:focus_band",
    "count": 1
  }
}