# Blender v2.79 (sub 0) OBJ File: ''
# www.blender.org
mtllib reunicluslcover.mtl
o polySurface4
v 3.148570 4.441033 -0.389651
v 3.953395 4.771364 -0.719981
v 3.148570 4.051382 -0.551049
v 3.953395 4.051382 -1.018208
v 3.148570 3.661730 -0.389651
v 3.953395 3.331399 -0.719981
v 3.148570 3.500331 0.000001
v 3.953395 3.033173 0.000000
v 3.148570 3.661730 0.389653
v 3.953395 3.331399 0.719983
v 3.148570 4.051382 0.551051
v 3.953395 4.051382 1.018210
v 3.148570 4.441033 0.389653
v 3.953395 4.771364 0.719983
v 3.148570 4.602432 0.000001
v 3.953395 5.069590 0.000001
v 4.981387 4.992084 -0.940701
v 4.981387 4.051382 -1.330352
v 4.981387 3.110680 -0.940701
v 4.981387 2.721028 0.000000
v 4.981387 3.110680 0.940703
v 4.981387 4.051382 1.330354
v 4.981387 4.992084 0.940703
v 4.981387 5.381735 0.000001
v 5.704473 5.074997 -1.015061
v 5.704473 4.059935 -1.435514
v 5.704473 3.044873 -1.015061
v 5.704473 2.624420 0.000000
v 5.704473 3.044873 1.015062
v 5.704473 4.059935 1.435516
v 5.704473 5.074997 1.015063
v 5.704473 5.495450 0.000001
v 2.865948 4.051382 0.000001
v 6.089778 5.385214 -1.316725
v 6.089778 4.068489 -1.862131
v 6.089778 2.751762 -1.316725
v 6.089778 2.206356 0.000000
v 6.089778 2.751762 1.316726
v 6.089778 4.068488 1.862133
v 6.089778 5.385214 1.316727
v 6.089778 5.930620 0.000001
v 7.230377 5.788875 -1.720384
v 7.230377 4.068489 -2.432991
v 7.230377 2.348103 -1.720385
v 7.230377 1.635496 0.000000
v 7.230377 2.348103 1.720385
v 7.230377 4.068488 2.432993
v 7.230377 5.788874 1.720387
v 7.230377 6.501481 0.000001
v 8.575806 5.930621 -1.862131
v 8.575806 4.068489 -2.633451
v 8.575806 2.206356 -1.862132
v 8.575806 1.435036 0.000000
v 8.575806 2.206356 1.862132
v 8.575806 4.068488 2.633453
v 8.575806 5.930620 1.862133
v 8.575806 6.701941 0.000001
v 9.921234 5.788875 -1.720384
v 9.921234 4.068489 -2.432991
v 9.921234 2.348103 -1.720385
v 9.921234 1.635496 0.000000
v 9.921234 2.348103 1.720385
v 9.921234 4.068488 2.432993
v 9.921234 5.788874 1.720387
v 9.921234 6.501481 0.000001
v 11.061833 5.385214 -1.316725
v 11.061833 4.068489 -1.862131
v 11.061833 2.751762 -1.316725
v 11.061833 2.206356 0.000000
v 11.061833 2.751762 1.316726
v 11.061833 4.068488 1.862133
v 11.061833 5.385214 1.316727
v 11.061833 5.930620 0.000001
v 11.823957 4.781095 -0.712606
v 11.823957 4.068488 -1.007778
v 11.823957 3.355881 -0.712606
v 11.823957 3.060709 0.000000
v 11.823957 3.355881 0.712608
v 11.823957 4.068488 1.007780
v 11.823957 4.781096 0.712608
v 11.823957 5.076267 0.000001
v 12.091579 4.068488 0.000001
v 8.968220 5.105895 1.530654
v 9.204561 5.311159 1.708767
v 9.067978 4.947689 1.494194
v 9.388890 5.018834 1.641397
v 9.044426 4.762146 1.530654
v 9.345374 4.675995 1.708767
v 8.911363 4.657955 1.618678
v 9.099504 4.483476 1.871414
v 8.746732 4.696148 1.706701
v 8.795306 4.554049 2.034060
v 8.646974 4.854354 1.743162
v 8.610978 4.846375 2.101430
v 8.670525 5.039896 1.706701
v 8.654494 5.189211 2.034060
v 8.803589 5.144087 1.618678
v 8.900365 5.381732 1.871414
v 9.532400 5.485982 2.129233
v 9.773237 5.104041 2.041210
v 9.716380 4.656102 2.129233
v 9.395135 4.404562 2.341741
v 8.997683 4.496770 2.554248
v 8.756845 4.878713 2.642272
v 8.813702 5.326652 2.554248
v 9.134948 5.578190 2.341741
v 9.892466 5.601676 2.711439
v 10.153147 5.188264 2.616163
v 10.091604 4.703419 2.711439
v 9.743891 4.431155 2.941455
v 9.313692 4.530960 3.171472
v 9.053011 4.944371 3.266748
v 9.114553 5.429216 3.171472
v 9.462267 5.701480 2.941455
v 10.207760 5.635705 3.327392
v 10.448597 5.253765 3.239369
v 10.391740 4.805826 3.327392
v 10.070495 4.554286 3.539900
v 9.673042 4.646493 3.752407
v 9.432205 5.028436 3.840431
v 9.489062 5.476375 3.752407
v 9.810308 5.727914 3.539900
v 10.409342 5.578251 3.846172
v 10.593670 5.285926 3.778802
v 10.550154 4.943089 3.846172
v 10.304283 4.750568 4.008819
v 10.000087 4.821142 4.171465
v 9.815758 5.113468 4.238835
v 9.859274 5.456306 4.171465
v 10.105145 5.648826 4.008819
v 10.457916 5.436152 4.173531
v 10.557674 5.277946 4.137071
v 10.534123 5.092403 4.173531
v 10.401059 4.988213 4.261555
v 10.236428 5.026406 4.349578
v 10.136671 5.184611 4.386038
v 10.160221 5.370154 4.349578
v 10.293285 5.474346 4.261555
v 8.807451 4.889932 1.529928
v 10.397197 5.242370 4.350304
v 10.774303 5.341837 0.229146
v 11.037807 5.587464 0.139359
v 10.846567 5.154748 0.149359
v 11.171332 5.241769 -0.008068
v 10.877529 4.956593 0.229146
v 11.228543 4.875626 0.139359
v 10.849054 4.863448 0.421768
v 11.175928 4.703516 0.495278
v 10.777821 4.929876 0.614390
v 11.044307 4.826260 0.851197
v 10.705558 5.116965 0.694177
v 10.910782 5.171955 0.998623
v 10.674595 5.315120 0.614390
v 10.853570 5.538098 0.851197
v 10.703071 5.408266 0.421768
v 10.906186 5.710207 0.495278
v 11.529951 5.836279 0.167045
v 11.704410 5.384607 -0.025577
v 11.779160 4.906218 0.167045
v 11.710414 4.681345 0.632076
v 11.538443 4.841718 1.097106
v 11.363983 5.293390 1.289728
v 11.289233 5.771779 1.097106
v 11.357979 5.996651 0.632076
v 12.158403 6.045738 0.303161
v 12.347237 5.556851 0.094668
v 12.428145 5.039047 0.303161
v 12.353736 4.795647 0.806506
v 12.167595 4.969233 1.309852
v 11.978762 5.458118 1.518344
v 11.897853 5.975924 1.309852
v 11.972262 6.219324 0.806506
v 12.786224 6.172896 0.515537
v 12.960683 5.721224 0.322915
v 13.035434 5.242835 0.515537
v 12.966688 5.017963 0.980568
v 12.794716 5.178335 1.445598
v 12.620257 5.630006 1.638220
v 12.545506 6.108397 1.445598
v 12.614253 6.333269 0.980568
v 13.278884 6.187959 0.761037
v 13.412409 5.842264 0.613610
v 13.469620 5.476120 0.761037
v 13.417005 5.304011 1.116956
v 13.285383 5.426754 1.472875
v 13.151858 5.772449 1.620301
v 13.094646 6.138593 1.472875
v 13.147263 6.310702 1.116956
v 13.545369 6.084342 0.997843
v 13.617632 5.897253 0.918057
v 13.648595 5.699098 0.997843
v 13.620119 5.605953 1.190465
v 13.548886 5.672381 1.383088
v 13.476624 5.859470 1.462874
v 13.445661 6.057625 1.383088
v 13.474136 6.150770 1.190465
v 10.683008 5.110923 0.395955
v 13.640182 5.903295 1.216279
v 13.548178 2.109854 0.998621
v 13.281692 2.006238 0.761815
v 13.620440 2.296943 0.918835
v 13.415216 2.351933 0.614388
v 13.651403 2.495099 0.998621
v 13.472428 2.718076 0.761815
v 13.622928 2.588244 1.191244
v 13.419812 2.890186 1.117734
v 13.551695 2.521815 1.383866
v 13.288191 2.767442 1.473653
v 13.479431 2.334727 1.463652
v 13.154666 2.421747 1.621079
v 13.448469 2.136571 1.383866
v 13.097455 2.055604 1.473653
v 13.476944 2.043426 1.191244
v 13.150070 1.883494 1.117734
v 12.787556 2.021696 0.515905
v 12.962015 2.473368 0.323283
v 13.036765 2.951757 0.515905
v 12.968019 3.176629 0.980937
v 12.796047 3.016257 1.445967
v 12.621589 2.564585 1.638590
v 12.546838 2.086196 1.445967
v 12.615584 1.861324 0.980936
v 12.158403 2.149211 0.303160
v 12.347237 2.638097 0.094667
v 12.428145 3.155902 0.303161
v 12.353736 3.399302 0.806506
v 12.167595 3.225716 1.309852
v 11.978762 2.736830 1.518343
v 11.897853 2.219025 1.309851
v 11.972262 1.975625 0.806505
v 11.531282 2.358313 0.167413
v 11.705741 2.809985 -0.025209
v 11.780492 3.288374 0.167414
v 11.711745 3.513247 0.632445
v 11.539774 3.352875 1.097476
v 11.365315 2.901202 1.290097
v 11.290565 2.422813 1.097475
v 11.359310 2.197941 0.632444
v 11.040615 2.606733 0.140137
v 11.174140 2.952427 -0.007290
v 11.231352 3.318571 0.140138
v 11.178736 3.490680 0.496057
v 11.047114 3.367937 0.851976
v 10.913589 3.022242 0.999401
v 10.856379 2.656099 0.851975
v 10.908994 2.483989 0.496056
v 10.777112 2.852359 0.229924
v 10.849375 3.039448 0.150137
v 10.880338 3.237603 0.229925
v 10.851862 3.330748 0.422547
v 10.780629 3.264320 0.615169
v 10.708366 3.077231 0.694955
v 10.677403 2.879076 0.615168
v 10.705879 2.785931 0.422546
v 13.642990 2.290901 1.217057
v 10.685817 3.083273 0.396733
vt 0.549959 0.252399
vt 0.587833 0.267944
vt 0.549959 0.234063
vt 0.587833 0.234063
vt 0.549959 0.215726
vt 0.587833 0.200181
vt 0.549959 0.208131
vt 0.587833 0.186147
vt 0.549959 0.215726
vt 0.587833 0.200181
vt 0.549959 0.234063
vt 0.587833 0.234063
vt 0.549959 0.252399
vt 0.587833 0.267944
vt 0.549959 0.259995
vt 0.587833 0.281979
vt 0.636210 0.278331
vt 0.636210 0.234063
vt 0.636210 0.189794
vt 0.636210 0.171457
vt 0.636210 0.189794
vt 0.636210 0.234063
vt 0.636210 0.278331
vt 0.636210 0.296668
vt 0.670238 0.282233
vt 0.670238 0.234465
vt 0.670238 0.186697
vt 0.670238 0.166911
vt 0.670238 0.186697
vt 0.670238 0.234465
vt 0.670238 0.282233
vt 0.670238 0.302019
vt 0.536659 0.234063
vt 0.688370 0.296832
vt 0.688370 0.234868
vt 0.688370 0.172904
vt 0.688370 0.147237
vt 0.688370 0.172904
vt 0.688370 0.234868
vt 0.688370 0.296832
vt 0.688370 0.322498
vt 0.742045 0.315828
vt 0.742045 0.234868
vt 0.742045 0.153908
vt 0.742045 0.120373
vt 0.742045 0.153908
vt 0.742045 0.234868
vt 0.742045 0.315828
vt 0.742045 0.349362
vt 0.805360 0.322498
vt 0.805360 0.234868
vt 0.805360 0.147237
vt 0.805360 0.110939
vt 0.805360 0.147237
vt 0.805360 0.234868
vt 0.805360 0.322498
vt 0.805360 0.358796
vt 0.868675 0.315828
vt 0.868675 0.234868
vt 0.868675 0.153908
vt 0.868675 0.120373
vt 0.868675 0.153908
vt 0.868675 0.234868
vt 0.868675 0.315828
vt 0.868675 0.349362
vt 0.922351 0.296832
vt 0.922351 0.234868
vt 0.922351 0.172904
vt 0.922351 0.147237
vt 0.922351 0.172904
vt 0.922351 0.234868
vt 0.922351 0.296832
vt 0.922351 0.322498
vt 0.958216 0.268402
vt 0.958216 0.234868
vt 0.958216 0.201333
vt 0.958216 0.187442
vt 0.958216 0.201333
vt 0.958216 0.234868
vt 0.958216 0.268402
vt 0.958216 0.282293
vt 0.970810 0.234868
vt 0.703767 0.413752
vt 0.714889 0.423411
vt 0.708462 0.406307
vt 0.723564 0.409655
vt 0.707354 0.397575
vt 0.721516 0.393521
vt 0.701092 0.392672
vt 0.709946 0.384461
vt 0.693344 0.394469
vt 0.695630 0.387782
vt 0.688650 0.401914
vt 0.686956 0.401539
vt 0.689758 0.410646
vt 0.689004 0.417673
vt 0.696020 0.415549
vt 0.700574 0.426732
vt 0.730317 0.431638
vt 0.741651 0.413664
vt 0.738975 0.392585
vt 0.723858 0.380748
vt 0.705154 0.385087
vt 0.693820 0.403061
vt 0.696496 0.424140
vt 0.711614 0.435978
vt 0.747262 0.437083
vt 0.759529 0.417628
vt 0.756633 0.394811
vt 0.740270 0.381999
vt 0.720025 0.386696
vt 0.707758 0.406150
vt 0.710654 0.428967
vt 0.727017 0.441780
vt 0.762099 0.438684
vt 0.773433 0.420710
vt 0.770757 0.399631
vt 0.755640 0.387793
vt 0.736936 0.392133
vt 0.725602 0.410107
vt 0.728278 0.431186
vt 0.743395 0.443023
vt 0.771585 0.435981
vt 0.780260 0.422224
vt 0.778212 0.406090
vt 0.766641 0.397030
vt 0.752326 0.400351
vt 0.743652 0.414108
vt 0.745700 0.430242
vt 0.757270 0.439302
vt 0.773871 0.429293
vt 0.778566 0.421848
vt 0.777458 0.413117
vt 0.771196 0.408214
vt 0.763448 0.410011
vt 0.758754 0.417456
vt 0.759862 0.426188
vt 0.766124 0.431091
vt 0.696202 0.403589
vt 0.771014 0.420174
vt 0.780756 0.604944
vt 0.793157 0.616503
vt 0.784157 0.596140
vt 0.799440 0.600235
vt 0.785614 0.586815
vt 0.802133 0.583005
vt 0.784274 0.582431
vt 0.799657 0.574905
vt 0.780922 0.585558
vt 0.793463 0.580681
vt 0.777521 0.594362
vt 0.787179 0.596950
vt 0.776064 0.603687
vt 0.784487 0.614180
vt 0.777404 0.608070
vt 0.786963 0.622279
vt 0.816316 0.628212
vt 0.824526 0.606957
vt 0.828044 0.584444
vt 0.824809 0.573862
vt 0.816716 0.581409
vt 0.808506 0.602664
vt 0.804989 0.625177
vt 0.808224 0.635759
vt 0.845891 0.638069
vt 0.854777 0.615063
vt 0.858585 0.590695
vt 0.855083 0.579241
vt 0.846324 0.587410
vt 0.837437 0.610416
vt 0.833630 0.634784
vt 0.837131 0.646238
vt 0.875436 0.644053
vt 0.883646 0.622798
vt 0.887163 0.600285
vt 0.883928 0.589703
vt 0.875835 0.597250
vt 0.867626 0.618505
vt 0.864108 0.641018
vt 0.867343 0.651600
vt 0.898620 0.644762
vt 0.904904 0.628494
vt 0.907596 0.611263
vt 0.905120 0.603164
vt 0.898926 0.608940
vt 0.892642 0.625208
vt 0.889950 0.642439
vt 0.892426 0.650538
vt 0.911160 0.639886
vt 0.914561 0.631082
vt 0.916018 0.621756
vt 0.914678 0.617373
vt 0.911326 0.620499
vt 0.907925 0.629304
vt 0.906468 0.638629
vt 0.907809 0.643012
vt 0.776460 0.594078
vt 0.915622 0.631366
vt 0.911293 0.452850
vt 0.898752 0.447973
vt 0.914693 0.461654
vt 0.905036 0.464242
vt 0.916151 0.470979
vt 0.907728 0.481472
vt 0.914810 0.475362
vt 0.905252 0.489571
vt 0.911458 0.472236
vt 0.899058 0.483795
vt 0.908058 0.463432
vt 0.892774 0.467527
vt 0.906601 0.454107
vt 0.890082 0.450297
vt 0.907941 0.449723
vt 0.892558 0.442197
vt 0.875499 0.448701
vt 0.883708 0.469956
vt 0.887226 0.492469
vt 0.883991 0.503051
vt 0.875898 0.495504
vt 0.867688 0.474249
vt 0.864171 0.451736
vt 0.867406 0.441154
vt 0.845891 0.454702
vt 0.854777 0.477708
vt 0.858585 0.502076
vt 0.855083 0.513530
vt 0.846324 0.505361
vt 0.837437 0.482355
vt 0.833630 0.457987
vt 0.837131 0.446533
vt 0.816379 0.464542
vt 0.824589 0.485797
vt 0.828107 0.508310
vt 0.824872 0.518892
vt 0.816779 0.511345
vt 0.808569 0.490090
vt 0.805051 0.467577
vt 0.808286 0.456995
vt 0.793289 0.476232
vt 0.799572 0.492500
vt 0.802265 0.509731
vt 0.799789 0.517830
vt 0.793595 0.512054
vt 0.787311 0.495786
vt 0.784619 0.478555
vt 0.787095 0.470456
vt 0.780889 0.487791
vt 0.784289 0.496596
vt 0.785746 0.505921
vt 0.784406 0.510304
vt 0.781054 0.507178
vt 0.777653 0.498374
vt 0.776196 0.489049
vt 0.777536 0.484665
vt 0.915755 0.461369
vt 0.776592 0.498658
vn -0.6921 0.5104 -0.5104
vn -0.3890 0.6514 -0.6514
vn -0.6921 0.0000 -0.7218
vn -0.3890 0.0000 -0.9212
vn -0.6921 -0.5104 -0.5104
vn -0.3890 -0.6514 -0.6514
vn -0.6921 -0.7218 0.0000
vn -0.3890 -0.9212 0.0000
vn -0.6921 -0.5104 0.5104
vn -0.3890 -0.6514 0.6514
vn -0.6921 0.0000 0.7218
vn -0.3890 0.0000 0.9212
vn -0.6921 0.5104 0.5104
vn -0.3890 0.6514 0.6514
vn -0.6921 0.7218 0.0000
vn -0.3890 0.9212 0.0000
vn -0.2181 0.6893 -0.6908
vn -0.2140 -0.0016 -0.9768
vn -0.2099 -0.6921 -0.6905
vn -0.2082 -0.9781 0.0000
vn -0.2099 -0.6921 0.6905
vn -0.2140 -0.0016 0.9768
vn -0.2181 0.6893 0.6908
vn -0.2199 0.9755 0.0000
vn -0.5161 0.6053 -0.6060
vn -0.5091 -0.0007 -0.8607
vn -0.5020 -0.6119 -0.6112
vn -0.4991 -0.8665 0.0000
vn -0.5020 -0.6119 0.6112
vn -0.5091 -0.0007 0.8607
vn -0.5161 0.6053 0.6060
vn -0.5189 0.8548 0.0000
vn -1.0000 0.0000 0.0000
vn -0.5867 0.5730 -0.5722
vn -0.5843 0.0008 -0.8115
vn -0.5819 -0.5746 -0.5755
vn -0.5809 -0.8140 0.0000
vn -0.5819 -0.5746 0.5755
vn -0.5843 0.0008 0.8115
vn -0.5867 0.5730 0.5722
vn -0.5876 0.8091 0.0000
vn -0.2907 0.6765 -0.6765
vn -0.2907 0.0000 -0.9568
vn -0.2907 -0.6765 -0.6765
vn -0.2907 -0.9568 0.0000
vn -0.2907 -0.6765 0.6765
vn -0.2907 0.0000 0.9568
vn -0.2907 0.6765 0.6765
vn -0.2907 0.9568 0.0000
vn 0.0000 0.7071 -0.7071
vn 0.0000 0.0000 -1.0000
vn 0.0000 -0.7071 -0.7071
vn 0.0000 -1.0000 0.0000
vn 0.0000 -0.7071 0.7071
vn 0.0000 0.0000 1.0000
vn 0.0000 0.7071 0.7071
vn 0.0000 1.0000 0.0000
vn 0.2907 0.6765 -0.6765
vn 0.2907 0.0000 -0.9568
vn 0.2907 -0.6765 -0.6765
vn 0.2907 -0.9568 0.0000
vn 0.2907 -0.6765 0.6765
vn 0.2907 0.0000 0.9568
vn 0.2907 0.6765 0.6765
vn 0.2907 0.9568 0.0000
vn 0.5864 0.5728 -0.5728
vn 0.5864 0.0000 -0.8100
vn 0.5864 -0.5728 -0.5728
vn 0.5864 -0.8100 0.0000
vn 0.5864 -0.5728 0.5728
vn 0.5864 0.0000 0.8100
vn 0.5864 0.5728 0.5728
vn 0.5864 0.8100 0.0000
vn 0.8563 0.3652 -0.3652
vn 0.8563 0.0000 -0.5164
vn 0.8563 -0.3652 -0.3652
vn 0.8563 -0.5164 0.0000
vn 0.8563 -0.3652 0.3652
vn 0.8563 0.0000 0.5164
vn 0.8563 0.3652 0.3652
vn 0.8563 0.5164 0.0000
vn 1.0000 0.0000 0.0000
vn -0.0753 0.4595 -0.8849
vn 0.2059 0.7064 -0.6772
vn 0.1881 0.0417 -0.9812
vn 0.5714 0.1267 -0.8108
vn 0.1259 -0.4483 -0.8849
vn 0.4851 -0.5532 -0.6772
vn -0.2255 -0.7234 -0.6525
vn -0.0024 -0.9350 -0.3546
vn -0.6602 -0.6226 -0.4200
vn -0.6057 -0.7950 -0.0321
vn -0.9237 -0.2048 -0.3237
vn -0.9713 -0.2153 0.1015
vn -0.8615 0.2852 -0.4200
vn -0.8849 0.4646 -0.0321
vn -0.5101 0.5604 -0.6525
vn -0.3974 0.8463 -0.3546
vn 0.3618 0.7953 -0.4864
vn 0.7574 0.1679 -0.6310
vn 0.6640 -0.5679 -0.4864
vn 0.1363 -0.9811 -0.1373
vn -0.5166 -0.8296 0.2117
vn -0.9122 -0.2022 0.3563
vn -0.8188 0.5336 0.2117
vn -0.2911 0.9468 -0.1373
vn 0.4448 0.8229 -0.3535
vn 0.8455 0.1874 -0.4999
vn 0.7509 -0.5578 -0.3535
vn 0.2165 -0.9763 0.0001
vn -0.4447 -0.8229 0.3536
vn -0.8455 -0.1874 0.5000
vn -0.7508 0.5578 0.3536
vn -0.2164 0.9763 0.0001
vn 0.5167 0.8296 -0.2114
vn 0.9124 0.2022 -0.3559
vn 0.8189 -0.5335 -0.2114
vn 0.2913 -0.9467 0.1377
vn -0.3615 -0.7952 0.4867
vn -0.7571 -0.1679 0.6313
vn -0.6637 0.5679 0.4867
vn -0.1361 0.9811 0.1377
vn 0.6058 0.7949 0.0324
vn 0.9713 0.2153 -0.1011
vn 0.8850 -0.4644 0.0324
vn 0.3975 -0.8462 0.3549
vn -0.2056 -0.7062 0.6774
vn -0.5711 -0.1266 0.8110
vn -0.4848 0.5531 0.6774
vn 0.0026 0.9349 0.3549
vn 0.6602 0.6226 0.4200
vn 0.9237 0.2048 0.3237
vn 0.8615 -0.2852 0.4200
vn 0.5101 -0.5604 0.6525
vn 0.0753 -0.4595 0.8849
vn -0.1881 -0.0417 0.9812
vn -0.1259 0.4483 0.8849
vn 0.2255 0.7234 0.6525
vn -0.4881 -0.1082 -0.8660
vn 0.4881 0.1082 0.8660
vn -0.7431 0.2474 -0.6217
vn -0.4318 0.5354 -0.7258
vn -0.5868 -0.1572 -0.7943
vn -0.2039 -0.0546 -0.9774
vn -0.5198 -0.5858 -0.6217
vn -0.1062 -0.6796 -0.7258
vn -0.5814 -0.7873 -0.2051
vn -0.1961 -0.9734 -0.1182
vn -0.7355 -0.6436 0.2116
vn -0.4207 -0.7639 0.4893
vn -0.8918 -0.2390 0.3841
vn -0.6486 -0.1738 0.7410
vn -0.9588 0.1896 0.2116
vn -0.7463 0.4512 0.4893
vn -0.8972 0.3911 -0.2051
vn -0.6565 0.7450 -0.1182
vn -0.1765 0.6724 -0.7188
vn 0.0754 0.0202 -0.9969
vn 0.1833 -0.6706 -0.7188
vn 0.0840 -0.9953 -0.0472
vn -0.1643 -0.7637 0.6243
vn -0.4162 -0.1115 0.9024
vn -0.5241 0.5793 0.6243
vn -0.4248 0.9040 -0.0472
vn -0.0061 0.7304 -0.6830
vn 0.2501 0.0670 -0.9659
vn 0.3598 -0.6356 -0.6830
vn 0.2589 -0.9659 0.0000
vn 0.0063 -0.7303 0.6830
vn -0.2499 -0.0670 0.9659
vn -0.3597 0.6356 0.6830
vn -0.2587 0.9659 0.0000
vn 0.1647 0.7638 -0.6241
vn 0.4166 0.1116 -0.9022
vn 0.5245 -0.5791 -0.6241
vn 0.4252 -0.9038 0.0474
vn 0.1769 -0.6722 0.7188
vn -0.0749 -0.0201 0.9970
vn -0.1829 0.6706 0.7188
vn -0.0836 0.9954 0.0474
vn 0.4211 0.7638 -0.4891
vn 0.6490 0.1739 -0.7407
vn 0.7466 -0.4510 -0.4891
vn 0.6568 -0.7447 0.1184
vn 0.4322 -0.5352 0.7258
vn 0.2043 0.0547 0.9774
vn 0.1067 0.6796 0.7258
vn 0.1964 0.9733 0.1184
vn 0.7355 0.6436 -0.2116
vn 0.8918 0.2389 -0.3841
vn 0.9588 -0.1896 -0.2116
vn 0.8972 -0.3911 0.2051
vn 0.7431 -0.2474 0.6217
vn 0.5868 0.1572 0.7943
vn 0.5198 0.5858 0.6217
vn 0.5814 0.7873 0.2051
vn -0.9330 -0.2500 -0.2588
vn 0.9330 0.2500 0.2588
vn 0.7355 -0.6436 -0.2116
vn 0.4207 -0.7639 -0.4893
vn 0.8918 -0.2390 -0.3841
vn 0.6486 -0.1738 -0.7410
vn 0.9588 0.1896 -0.2116
vn 0.7463 0.4512 -0.4893
vn 0.8972 0.3911 0.2051
vn 0.6565 0.7450 0.1182
vn 0.7431 0.2474 0.6217
vn 0.4318 0.5354 0.7258
vn 0.5868 -0.1572 0.7943
vn 0.2039 -0.0546 0.9774
vn 0.5198 -0.5858 0.6217
vn 0.1062 -0.6796 0.7258
vn 0.5814 -0.7873 0.2051
vn 0.1961 -0.9734 0.1182
vn 0.1643 -0.7637 -0.6243
vn 0.4162 -0.1115 -0.9024
vn 0.5241 0.5793 -0.6243
vn 0.4248 0.9040 0.0472
vn 0.1765 0.6724 0.7188
vn -0.0754 0.0202 0.9969
vn -0.1833 -0.6706 0.7188
vn -0.0840 -0.9953 0.0472
vn -0.0063 -0.7303 -0.6830
vn 0.2499 -0.0670 -0.9659
vn 0.3597 0.6356 -0.6830
vn 0.2587 0.9659 0.0000
vn 0.0061 0.7304 0.6830
vn -0.2501 0.0670 0.9659
vn -0.3598 -0.6356 0.6830
vn -0.2589 -0.9659 0.0000
vn -0.1769 -0.6722 -0.7188
vn 0.0749 -0.0201 -0.9970
vn 0.1829 0.6706 -0.7188
vn 0.0836 0.9954 -0.0474
vn -0.1647 0.7638 0.6241
vn -0.4166 0.1116 0.9022
vn -0.5245 -0.5791 0.6241
vn -0.4252 -0.9038 -0.0474
vn -0.4322 -0.5352 -0.7258
vn -0.2043 0.0547 -0.9774
vn -0.1067 0.6796 -0.7258
vn -0.1964 0.9733 -0.1184
vn -0.4211 0.7638 0.4891
vn -0.6490 0.1739 0.7407
vn -0.7466 -0.4510 0.4891
vn -0.6568 -0.7447 -0.1184
vn -0.7431 -0.2474 -0.6217
vn -0.5868 0.1572 -0.7943
vn -0.5198 0.5858 -0.6217
vn -0.5814 0.7873 -0.2051
vn -0.7355 0.6436 0.2116
vn -0.8918 0.2389 0.3841
vn -0.9588 -0.1896 0.2116
vn -0.8972 -0.3911 -0.2051
vn 0.9330 -0.2500 0.2588
vn -0.9330 0.2500 -0.2588
usemtl None.007
s 1
f 1/1/1 2/2/2 3/3/3
f 3/3/3 2/2/2 4/4/4
f 3/3/3 4/4/4 5/5/5
f 5/5/5 4/4/4 6/6/6
f 5/5/5 6/6/6 7/7/7
f 7/7/7 6/6/6 8/8/8
f 7/7/7 8/8/8 9/9/9
f 9/9/9 8/8/8 10/10/10
f 9/9/9 10/10/10 11/11/11
f 11/11/11 10/10/10 12/12/12
f 11/11/11 12/12/12 13/13/13
f 13/13/13 12/12/12 14/14/14
f 13/13/13 14/14/14 15/15/15
f 15/15/15 14/14/14 16/16/16
f 15/15/15 16/16/16 1/1/1
f 1/1/1 16/16/16 2/2/2
f 2/2/2 17/17/17 4/4/4
f 4/4/4 17/17/17 18/18/18
f 4/4/4 18/18/18 6/6/6
f 6/6/6 18/18/18 19/19/19
f 6/6/6 19/19/19 8/8/8
f 8/8/8 19/19/19 20/20/20
f 8/8/8 20/20/20 10/10/10
f 10/10/10 20/20/20 21/21/21
f 10/10/10 21/21/21 12/12/12
f 12/12/12 21/21/21 22/22/22
f 12/12/12 22/22/22 14/14/14
f 14/14/14 22/22/22 23/23/23
f 14/14/14 23/23/23 16/16/16
f 16/16/16 23/23/23 24/24/24
f 16/16/16 24/24/24 2/2/2
f 2/2/2 24/24/24 17/17/17
f 25/25/25 26/26/26 17/17/17
f 17/17/17 26/26/26 18/18/18
f 26/26/26 27/27/27 18/18/18
f 18/18/18 27/27/27 19/19/19
f 27/27/27 28/28/28 19/19/19
f 19/19/19 28/28/28 20/20/20
f 20/20/20 28/28/28 21/21/21
f 21/21/21 28/28/28 29/29/29
f 21/21/21 29/29/29 22/22/22
f 22/22/22 29/29/29 30/30/30
f 22/22/22 30/30/30 23/23/23
f 23/23/23 30/30/30 31/31/31
f 23/23/23 31/31/31 24/24/24
f 24/24/24 31/31/31 32/32/32
f 32/32/32 25/25/25 24/24/24
f 24/24/24 25/25/25 17/17/17
f 3/3/3 33/33/33 1/1/1
f 5/5/5 33/33/33 3/3/3
f 7/7/7 33/33/33 5/5/5
f 9/9/9 33/33/33 7/7/7
f 11/11/11 33/33/33 9/9/9
f 13/13/13 33/33/33 11/11/11
f 15/15/15 33/33/33 13/13/13
f 1/1/1 33/33/33 15/15/15
f 34/34/34 35/35/35 25/25/25
f 25/25/25 35/35/35 26/26/26
f 35/35/35 36/36/36 26/26/26
f 26/26/26 36/36/36 27/27/27
f 36/36/36 37/37/37 27/27/27
f 27/27/27 37/37/37 28/28/28
f 28/28/28 37/37/37 29/29/29
f 29/29/29 37/37/37 38/38/38
f 29/29/29 38/38/38 30/30/30
f 30/30/30 38/38/38 39/39/39
f 30/30/30 39/39/39 31/31/31
f 31/31/31 39/39/39 40/40/40
f 31/31/31 40/40/40 32/32/32
f 32/32/32 40/40/40 41/41/41
f 41/41/41 34/34/34 32/32/32
f 32/32/32 34/34/34 25/25/25
f 34/34/34 42/42/42 35/35/35
f 35/35/35 42/42/42 43/43/43
f 35/35/35 43/43/43 36/36/36
f 36/36/36 43/43/43 44/44/44
f 36/36/36 44/44/44 37/37/37
f 37/37/37 44/44/44 45/45/45
f 37/37/37 45/45/45 38/38/38
f 38/38/38 45/45/45 46/46/46
f 38/38/38 46/46/46 39/39/39
f 39/39/39 46/46/46 47/47/47
f 39/39/39 47/47/47 40/40/40
f 40/40/40 47/47/47 48/48/48
f 40/40/40 48/48/48 41/41/41
f 41/41/41 48/48/48 49/49/49
f 41/41/41 49/49/49 34/34/34
f 34/34/34 49/49/49 42/42/42
f 42/42/42 50/50/50 43/43/43
f 43/43/43 50/50/50 51/51/51
f 43/43/43 51/51/51 44/44/44
f 44/44/44 51/51/51 52/52/52
f 44/44/44 52/52/52 45/45/45
f 45/45/45 52/52/52 53/53/53
f 45/45/45 53/53/53 46/46/46
f 46/46/46 53/53/53 54/54/54
f 46/46/46 54/54/54 47/47/47
f 47/47/47 54/54/54 55/55/55
f 47/47/47 55/55/55 48/48/48
f 48/48/48 55/55/55 56/56/56
f 48/48/48 56/56/56 49/49/49
f 49/49/49 56/56/56 57/57/57
f 49/49/49 57/57/57 42/42/42
f 42/42/42 57/57/57 50/50/50
f 50/50/50 58/58/58 51/51/51
f 51/51/51 58/58/58 59/59/59
f 51/51/51 59/59/59 52/52/52
f 52/52/52 59/59/59 60/60/60
f 52/52/52 60/60/60 53/53/53
f 53/53/53 60/60/60 61/61/61
f 53/53/53 61/61/61 54/54/54
f 54/54/54 61/61/61 62/62/62
f 54/54/54 62/62/62 55/55/55
f 55/55/55 62/62/62 63/63/63
f 55/55/55 63/63/63 56/56/56
f 56/56/56 63/63/63 64/64/64
f 56/56/56 64/64/64 57/57/57
f 57/57/57 64/64/64 65/65/65
f 57/57/57 65/65/65 50/50/50
f 50/50/50 65/65/65 58/58/58
f 58/58/58 66/66/66 59/59/59
f 59/59/59 66/66/66 67/67/67
f 59/59/59 67/67/67 60/60/60
f 60/60/60 67/67/67 68/68/68
f 60/60/60 68/68/68 61/61/61
f 61/61/61 68/68/68 69/69/69
f 61/61/61 69/69/69 62/62/62
f 62/62/62 69/69/69 70/70/70
f 62/62/62 70/70/70 63/63/63
f 63/63/63 70/70/70 71/71/71
f 63/63/63 71/71/71 64/64/64
f 64/64/64 71/71/71 72/72/72
f 64/64/64 72/72/72 65/65/65
f 65/65/65 72/72/72 73/73/73
f 65/65/65 73/73/73 58/58/58
f 58/58/58 73/73/73 66/66/66
f 66/66/66 74/74/74 67/67/67
f 67/67/67 74/74/74 75/75/75
f 67/67/67 75/75/75 68/68/68
f 68/68/68 75/75/75 76/76/76
f 68/68/68 76/76/76 69/69/69
f 69/69/69 76/76/76 77/77/77
f 69/69/69 77/77/77 70/70/70
f 70/70/70 77/77/77 78/78/78
f 70/70/70 78/78/78 71/71/71
f 71/71/71 78/78/78 79/79/79
f 71/71/71 79/79/79 72/72/72
f 72/72/72 79/79/79 80/80/80
f 72/72/72 80/80/80 73/73/73
f 73/73/73 80/80/80 81/81/81
f 73/73/73 81/81/81 66/66/66
f 66/66/66 81/81/81 74/74/74
f 74/74/74 82/82/82 75/75/75
f 75/75/75 82/82/82 76/76/76
f 76/76/76 82/82/82 77/77/77
f 77/77/77 82/82/82 78/78/78
f 78/78/78 82/82/82 79/79/79
f 79/79/79 82/82/82 80/80/80
f 80/80/80 82/82/82 81/81/81
f 81/81/81 82/82/82 74/74/74
f 83/83/83 84/84/84 85/85/85
f 85/85/85 84/84/84 86/86/86
f 85/85/85 86/86/86 87/87/87
f 87/87/87 86/86/86 88/88/88
f 87/87/87 88/88/88 89/89/89
f 89/89/89 88/88/88 90/90/90
f 89/89/89 90/90/90 91/91/91
f 91/91/91 90/90/90 92/92/92
f 91/91/91 92/92/92 93/93/93
f 93/93/93 92/92/92 94/94/94
f 93/93/93 94/94/94 95/95/95
f 95/95/95 94/94/94 96/96/96
f 95/95/95 96/96/96 97/97/97
f 97/97/97 96/96/96 98/98/98
f 97/97/97 98/98/98 83/83/83
f 83/83/83 98/98/98 84/84/84
f 84/84/84 99/99/99 86/86/86
f 86/86/86 99/99/99 100/100/100
f 86/86/86 100/100/100 88/88/88
f 88/88/88 100/100/100 101/101/101
f 88/88/88 101/101/101 90/90/90
f 90/90/90 101/101/101 102/102/102
f 90/90/90 102/102/102 92/92/92
f 92/92/92 102/102/102 103/103/103
f 92/92/92 103/103/103 94/94/94
f 94/94/94 103/103/103 104/104/104
f 94/94/94 104/104/104 96/96/96
f 96/96/96 104/104/104 105/105/105
f 96/96/96 105/105/105 98/98/98
f 98/98/98 105/105/105 106/106/106
f 98/98/98 106/106/106 84/84/84
f 84/84/84 106/106/106 99/99/99
f 99/99/99 107/107/107 100/100/100
f 100/100/100 107/107/107 108/108/108
f 100/100/100 108/108/108 101/101/101
f 101/101/101 108/108/108 109/109/109
f 101/101/101 109/109/109 102/102/102
f 102/102/102 109/109/109 110/110/110
f 102/102/102 110/110/110 103/103/103
f 103/103/103 110/110/110 111/111/111
f 103/103/103 111/111/111 104/104/104
f 104/104/104 111/111/111 112/112/112
f 104/104/104 112/112/112 105/105/105
f 105/105/105 112/112/112 113/113/113
f 105/105/105 113/113/113 106/106/106
f 106/106/106 113/113/113 114/114/114
f 106/106/106 114/114/114 99/99/99
f 99/99/99 114/114/114 107/107/107
f 107/107/107 115/115/115 108/108/108
f 108/108/108 115/115/115 116/116/116
f 108/108/108 116/116/116 109/109/109
f 109/109/109 116/116/116 117/117/117
f 109/109/109 117/117/117 110/110/110
f 110/110/110 117/117/117 118/118/118
f 110/110/110 118/118/118 111/111/111
f 111/111/111 118/118/118 119/119/119
f 111/111/111 119/119/119 112/112/112
f 112/112/112 119/119/119 120/120/120
f 112/112/112 120/120/120 113/113/113
f 113/113/113 120/120/120 121/121/121
f 113/113/113 121/121/121 114/114/114
f 114/114/114 121/121/121 122/122/122
f 114/114/114 122/122/122 107/107/107
f 107/107/107 122/122/122 115/115/115
f 115/115/115 123/123/123 116/116/116
f 116/116/116 123/123/123 124/124/124
f 116/116/116 124/124/124 117/117/117
f 117/117/117 124/124/124 125/125/125
f 117/117/117 125/125/125 118/118/118
f 118/118/118 125/125/125 126/126/126
f 118/118/118 126/126/126 119/119/119
f 119/119/119 126/126/126 127/127/127
f 119/119/119 127/127/127 120/120/120
f 120/120/120 127/127/127 128/128/128
f 120/120/120 128/128/128 121/121/121
f 121/121/121 128/128/128 129/129/129
f 121/121/121 129/129/129 122/122/122
f 122/122/122 129/129/129 130/130/130
f 122/122/122 130/130/130 115/115/115
f 115/115/115 130/130/130 123/123/123
f 123/123/123 131/131/131 124/124/124
f 124/124/124 131/131/131 132/132/132
f 124/124/124 132/132/132 125/125/125
f 125/125/125 132/132/132 133/133/133
f 125/125/125 133/133/133 126/126/126
f 126/126/126 133/133/133 134/134/134
f 126/126/126 134/134/134 127/127/127
f 127/127/127 134/134/134 135/135/135
f 127/127/127 135/135/135 128/128/128
f 128/128/128 135/135/135 136/136/136
f 128/128/128 136/136/136 129/129/129
f 129/129/129 136/136/136 137/137/137
f 129/129/129 137/137/137 130/130/130
f 130/130/130 137/137/137 138/138/138
f 130/130/130 138/138/138 123/123/123
f 123/123/123 138/138/138 131/131/131
f 85/85/85 139/139/139 83/83/83
f 87/87/87 139/139/139 85/85/85
f 89/89/89 139/139/139 87/87/87
f 91/91/91 139/139/139 89/89/89
f 93/93/93 139/139/139 91/91/91
f 95/95/95 139/139/139 93/93/93
f 97/97/97 139/139/139 95/95/95
f 83/83/83 139/139/139 97/97/97
f 131/131/131 140/140/140 132/132/132
f 132/132/132 140/140/140 133/133/133
f 133/133/133 140/140/140 134/134/134
f 134/134/134 140/140/140 135/135/135
f 135/135/135 140/140/140 136/136/136
f 136/136/136 140/140/140 137/137/137
f 137/137/137 140/140/140 138/138/138
f 138/138/138 140/140/140 131/131/131
f 141/141/141 142/142/142 143/143/143
f 143/143/143 142/142/142 144/144/144
f 143/143/143 144/144/144 145/145/145
f 145/145/145 144/144/144 146/146/146
f 145/145/145 146/146/146 147/147/147
f 147/147/147 146/146/146 148/148/148
f 147/147/147 148/148/148 149/149/149
f 149/149/149 148/148/148 150/150/150
f 149/149/149 150/150/150 151/151/151
f 151/151/151 150/150/150 152/152/152
f 151/151/151 152/152/152 153/153/153
f 153/153/153 152/152/152 154/154/154
f 153/153/153 154/154/154 155/155/155
f 155/155/155 154/154/154 156/156/156
f 155/155/155 156/156/156 141/141/141
f 141/141/141 156/156/156 142/142/142
f 142/142/142 157/157/157 144/144/144
f 144/144/144 157/157/157 158/158/158
f 144/144/144 158/158/158 146/146/146
f 146/146/146 158/158/158 159/159/159
f 146/146/146 159/159/159 148/148/148
f 148/148/148 159/159/159 160/160/160
f 148/148/148 160/160/160 150/150/150
f 150/150/150 160/160/160 161/161/161
f 150/150/150 161/161/161 152/152/152
f 152/152/152 161/161/161 162/162/162
f 152/152/152 162/162/162 154/154/154
f 154/154/154 162/162/162 163/163/163
f 154/154/154 163/163/163 156/156/156
f 156/156/156 163/163/163 164/164/164
f 156/156/156 164/164/164 142/142/142
f 142/142/142 164/164/164 157/157/157
f 157/157/157 165/165/165 158/158/158
f 158/158/158 165/165/165 166/166/166
f 158/158/158 166/166/166 159/159/159
f 159/159/159 166/166/166 167/167/167
f 159/159/159 167/167/167 160/160/160
f 160/160/160 167/167/167 168/168/168
f 160/160/160 168/168/168 161/161/161
f 161/161/161 168/168/168 169/169/169
f 161/161/161 169/169/169 162/162/162
f 162/162/162 169/169/169 170/170/170
f 162/162/162 170/170/170 163/163/163
f 163/163/163 170/170/170 171/171/171
f 163/163/163 171/171/171 164/164/164
f 164/164/164 171/171/171 172/172/172
f 164/164/164 172/172/172 157/157/157
f 157/157/157 172/172/172 165/165/165
f 165/165/165 173/173/173 166/166/166
f 166/166/166 173/173/173 174/174/174
f 166/166/166 174/174/174 167/167/167
f 167/167/167 174/174/174 175/175/175
f 167/167/167 175/175/175 168/168/168
f 168/168/168 175/175/175 176/176/176
f 168/168/168 176/176/176 169/169/169
f 169/169/169 176/176/176 177/177/177
f 169/169/169 177/177/177 170/170/170
f 170/170/170 177/177/177 178/178/178
f 170/170/170 178/178/178 171/171/171
f 171/171/171 178/178/178 179/179/179
f 171/171/171 179/179/179 172/172/172
f 172/172/172 179/179/179 180/180/180
f 172/172/172 180/180/180 165/165/165
f 165/165/165 180/180/180 173/173/173
f 173/173/173 181/181/181 174/174/174
f 174/174/174 181/181/181 182/182/182
f 174/174/174 182/182/182 175/175/175
f 175/175/175 182/182/182 183/183/183
f 175/175/175 183/183/183 176/176/176
f 176/176/176 183/183/183 184/184/184
f 176/176/176 184/184/184 177/177/177
f 177/177/177 184/184/184 185/185/185
f 177/177/177 185/185/185 178/178/178
f 178/178/178 185/185/185 186/186/186
f 178/178/178 186/186/186 179/179/179
f 179/179/179 186/186/186 187/187/187
f 179/179/179 187/187/187 180/180/180
f 180/180/180 187/187/187 188/188/188
f 180/180/180 188/188/188 173/173/173
f 173/173/173 188/188/188 181/181/181
f 181/181/181 189/189/189 182/182/182
f 182/182/182 189/189/189 190/190/190
f 182/182/182 190/190/190 183/183/183
f 183/183/183 190/190/190 191/191/191
f 183/183/183 191/191/191 184/184/184
f 184/184/184 191/191/191 192/192/192
f 184/184/184 192/192/192 185/185/185
f 185/185/185 192/192/192 193/193/193
f 185/185/185 193/193/193 186/186/186
f 186/186/186 193/193/193 194/194/194
f 186/186/186 194/194/194 187/187/187
f 187/187/187 194/194/194 195/195/195
f 187/187/187 195/195/195 188/188/188
f 188/188/188 195/195/195 196/196/196
f 188/188/188 196/196/196 181/181/181
f 181/181/181 196/196/196 189/189/189
f 143/143/143 197/197/197 141/141/141
f 145/145/145 197/197/197 143/143/143
f 147/147/147 197/197/197 145/145/145
f 149/149/149 197/197/197 147/147/147
f 151/151/151 197/197/197 149/149/149
f 153/153/153 197/197/197 151/151/151
f 155/155/155 197/197/197 153/153/153
f 141/141/141 197/197/197 155/155/155
f 189/189/189 198/198/198 190/190/190
f 190/190/190 198/198/198 191/191/191
f 191/191/191 198/198/198 192/192/192
f 192/192/192 198/198/198 193/193/193
f 193/193/193 198/198/198 194/194/194
f 194/194/194 198/198/198 195/195/195
f 195/195/195 198/198/198 196/196/196
f 196/196/196 198/198/198 189/189/189
f 199/199/199 200/200/200 201/201/201
f 201/201/201 200/200/200 202/202/202
f 201/201/201 202/202/202 203/203/203
f 203/203/203 202/202/202 204/204/204
f 203/203/203 204/204/204 205/205/205
f 205/205/205 204/204/204 206/206/206
f 205/205/205 206/206/206 207/207/207
f 207/207/207 206/206/206 208/208/208
f 207/207/207 208/208/208 209/209/209
f 209/209/209 208/208/208 210/210/210
f 209/209/209 210/210/210 211/211/211
f 211/211/211 210/210/210 212/212/212
f 211/211/211 212/212/212 213/213/213
f 213/213/213 212/212/212 214/214/214
f 213/213/213 214/214/214 199/199/199
f 199/199/199 214/214/214 200/200/200
f 200/200/200 215/215/215 202/202/202
f 202/202/202 215/215/215 216/216/216
f 202/202/202 216/216/216 204/204/204
f 204/204/204 216/216/216 217/217/217
f 204/204/204 217/217/217 206/206/206
f 206/206/206 217/217/217 218/218/218
f 206/206/206 218/218/218 208/208/208
f 208/208/208 218/218/218 219/219/219
f 208/208/208 219/219/219 210/210/210
f 210/210/210 219/219/219 220/220/220
f 210/210/210 220/220/220 212/212/212
f 212/212/212 220/220/220 221/221/221
f 212/212/212 221/221/221 214/214/214
f 214/214/214 221/221/221 222/222/222
f 214/214/214 222/222/222 200/200/200
f 200/200/200 222/222/222 215/215/215
f 215/215/215 223/223/223 216/216/216
f 216/216/216 223/223/223 224/224/224
f 216/216/216 224/224/224 217/217/217
f 217/217/217 224/224/224 225/225/225
f 217/217/217 225/225/225 218/218/218
f 218/218/218 225/225/225 226/226/226
f 218/218/218 226/226/226 219/219/219
f 219/219/219 226/226/226 227/227/227
f 219/219/219 227/227/227 220/220/220
f 220/220/220 227/227/227 228/228/228
f 220/220/220 228/228/228 221/221/221
f 221/221/221 228/228/228 229/229/229
f 221/221/221 229/229/229 222/222/222
f 222/222/222 229/229/229 230/230/230
f 222/222/222 230/230/230 215/215/215
f 215/215/215 230/230/230 223/223/223
f 223/223/223 231/231/231 224/224/224
f 224/224/224 231/231/231 232/232/232
f 224/224/224 232/232/232 225/225/225
f 225/225/225 232/232/232 233/233/233
f 225/225/225 233/233/233 226/226/226
f 226/226/226 233/233/233 234/234/234
f 226/226/226 234/234/234 227/227/227
f 227/227/227 234/234/234 235/235/235
f 227/227/227 235/235/235 228/228/228
f 228/228/228 235/235/235 236/236/236
f 228/228/228 236/236/236 229/229/229
f 229/229/229 236/236/236 237/237/237
f 229/229/229 237/237/237 230/230/230
f 230/230/230 237/237/237 238/238/238
f 230/230/230 238/238/238 223/223/223
f 223/223/223 238/238/238 231/231/231
f 231/231/231 239/239/239 232/232/232
f 232/232/232 239/239/239 240/240/240
f 232/232/232 240/240/240 233/233/233
f 233/233/233 240/240/240 241/241/241
f 233/233/233 241/241/241 234/234/234
f 234/234/234 241/241/241 242/242/242
f 234/234/234 242/242/242 235/235/235
f 235/235/235 242/242/242 243/243/243
f 235/235/235 243/243/243 236/236/236
f 236/236/236 243/243/243 244/244/244
f 236/236/236 244/244/244 237/237/237
f 237/237/237 244/244/244 245/245/245
f 237/237/237 245/245/245 238/238/238
f 238/238/238 245/245/245 246/246/246
f 238/238/238 246/246/246 231/231/231
f 231/231/231 246/246/246 239/239/239
f 239/239/239 247/247/247 240/240/240
f 240/240/240 247/247/247 248/248/248
f 240/240/240 248/248/248 241/241/241
f 241/241/241 248/248/248 249/249/249
f 241/241/241 249/249/249 242/242/242
f 242/242/242 249/249/249 250/250/250
f 242/242/242 250/250/250 243/243/243
f 243/243/243 250/250/250 251/251/251
f 243/243/243 251/251/251 244/244/244
f 244/244/244 251/251/251 252/252/252
f 244/244/244 252/252/252 245/245/245
f 245/245/245 252/252/252 253/253/253
f 245/245/245 253/253/253 246/246/246
f 246/246/246 253/253/253 254/254/254
f 246/246/246 254/254/254 239/239/239
f 239/239/239 254/254/254 247/247/247
f 201/201/201 255/255/255 199/199/199
f 203/203/203 255/255/255 201/201/201
f 205/205/205 255/255/255 203/203/203
f 207/207/207 255/255/255 205/205/205
f 209/209/209 255/255/255 207/207/207
f 211/211/211 255/255/255 209/209/209
f 213/213/213 255/255/255 211/211/211
f 199/199/199 255/255/255 213/213/213
f 247/247/247 256/256/256 248/248/248
f 248/248/248 256/256/256 249/249/249
f 249/249/249 256/256/256 250/250/250
f 250/250/250 256/256/256 251/251/251
f 251/251/251 256/256/256 252/252/252
f 252/252/252 256/256/256 253/253/253
f 253/253/253 256/256/256 254/254/254
f 254/254/254 256/256/256 247/247/247
